# This file uses centimeters as units for non-parametric coordinates.

v -1290.000000 -42.000000 0.000000
v 1290.000000 -42.000000 0.000000
v -1290.000000 42.000000 0.000000
v 1290.000000 42.000000 0.000000
vt 0.001372 1.001017
vt 0.998727 1.000000
vt 0.001274 0.000014
vt 0.998516 -0.000317
vn 0.000000 0.000000 1.000000
vn 0.000000 0.000000 1.000000
vn 0.000000 0.000000 1.000000
vn 0.000000 0.000000 1.000000
vn 0.000000 0.000000 1.000000
vn 0.000000 0.000000 1.000000
f 1/1/1 2/2/2 3/3/3
f 3/3/4 2/2/5 4/4/6
