# This file uses centimeters as units for non-parametric coordinates.

mtllib X__lego_full.mtl
v 4.673479 -1.001336 -0.102219
v 6.468999 -1.000203 -0.104680
v 6.515856 -1.000203 -1.847582
v 4.669272 -1.050599 0.000019
v 4.567975 -1.050599 -0.102219
v 4.567975 -1.950309 -0.102219
v 4.669272 -1.950309 0.000019
v 6.470056 -1.050599 0.000019
v 6.571353 -1.050599 -0.102219
v 6.470056 -1.950309 0.000019
v 6.571353 -1.950309 -0.102219
v 6.571353 -1.050599 -1.897318
v 6.571353 -1.950309 -1.897318
v 4.567975 -1.050599 -1.897318
v 4.567975 -1.950309 -1.897318
v 4.623489 -2.000203 -1.847582
v 6.515856 -2.000203 -1.847582
v 4.661641 0.001294 -0.094748
v 6.477687 0.001294 -0.094748
v 4.661641 0.001294 -1.904789
v 6.477687 0.001294 -1.904789
v 4.669272 -0.050599 0.000019
v 4.567975 -0.050599 -0.102219
v 4.567975 -0.950309 -0.102219
v 4.669272 -0.950309 0.000019
v 6.470056 -0.050599 0.000019
v 6.571353 -0.050599 -0.102219
v 6.470056 -0.950309 0.000019
v 6.571353 -0.950309 -0.102219
v 6.571353 -0.050599 -1.897318
v 6.571353 -0.950309 -1.897318
v 4.567975 -0.050599 -1.897318
v 4.567975 -0.950309 -1.897318
v 6.275495 -0.178646 -0.762846
v 6.051819 -0.178646 -0.853726
v 5.828145 -0.178646 -0.762846
v 5.735492 -0.178646 -0.543443
v 5.828145 -0.178646 -0.324039
v 6.051819 -0.178646 -0.233159
v 6.275495 -0.178646 -0.324039
v 6.368147 -0.178646 -0.543443
v 6.051819 0.260951 -0.543443
v 6.275495 0.246006 -0.762846
v 6.262373 0.260951 -0.749973
v 6.051819 0.246006 -0.853726
v 6.051819 0.260951 -0.835521
v 5.828145 0.246006 -0.762846
v 5.841266 0.260951 -0.749973
v 5.735492 0.246006 -0.543443
v 5.754053 0.260951 -0.543443
v 5.828145 0.246006 -0.324039
v 5.841266 0.260951 -0.336913
v 6.051819 0.246006 -0.233159
v 6.051819 0.260951 -0.251365
v 6.275495 0.246006 -0.324039
v 6.262373 0.260951 -0.336912
v 6.368147 0.246006 -0.543443
v 6.349587 0.260951 -0.543443
v 6.275495 -0.178646 -1.669743
v 6.051819 -0.178646 -1.760623
v 5.828145 -0.178646 -1.669743
v 5.735492 -0.178646 -1.450340
v 5.828145 -0.178646 -1.230936
v 6.051819 -0.178646 -1.140056
v 6.275495 -0.178646 -1.230936
v 6.368147 -0.178646 -1.450340
v 6.051819 0.260951 -1.450340
v 6.275495 0.246006 -1.669743
v 6.262373 0.260951 -1.656870
v 6.051819 0.246006 -1.760623
v 6.051819 0.260951 -1.742418
v 5.828145 0.246006 -1.669743
v 5.841266 0.260951 -1.656870
v 5.735492 0.246006 -1.450340
v 5.754053 0.260951 -1.450340
v 5.828145 0.246006 -1.230936
v 5.841266 0.260951 -1.243809
v 6.051819 0.246006 -1.140056
v 6.051819 0.260951 -1.158262
v 6.275495 0.246006 -1.230936
v 6.262373 0.260951 -1.243809
v 6.368147 0.246006 -1.450340
v 6.349587 0.260951 -1.450340
v 5.308716 -0.178646 -1.669743
v 5.085040 -0.178646 -1.760623
v 4.861366 -0.178646 -1.669743
v 4.768713 -0.178646 -1.450340
v 4.861366 -0.178646 -1.230936
v 5.085040 -0.178646 -1.140056
v 5.308716 -0.178646 -1.230936
v 5.401367 -0.178646 -1.450340
v 5.085040 0.260951 -1.450340
v 5.308716 0.246006 -1.669743
v 5.295594 0.260951 -1.656870
v 5.085040 0.246006 -1.760623
v 5.085040 0.260951 -1.742418
v 4.861366 0.246006 -1.669743
v 4.874488 0.260951 -1.656870
v 4.768713 0.246006 -1.450340
v 4.787274 0.260951 -1.450340
v 4.861366 0.246006 -1.230936
v 4.874488 0.260951 -1.243809
v 5.085040 0.246006 -1.140056
v 5.085040 0.260951 -1.158262
v 5.308716 0.246006 -1.230936
v 5.295594 0.260951 -1.243809
v 5.401367 0.246006 -1.450340
v 5.382808 0.260951 -1.450340
v 5.308716 -0.178646 -0.753088
v 5.085040 -0.178646 -0.843968
v 4.861366 -0.178646 -0.753088
v 4.768713 -0.178646 -0.533685
v 4.861366 -0.178646 -0.314281
v 5.085040 -0.178646 -0.223401
v 5.308716 -0.178646 -0.314281
v 5.401367 -0.178646 -0.533685
v 5.085040 0.260951 -0.533685
v 5.308716 0.246006 -0.753088
v 5.295594 0.260951 -0.740215
v 5.085040 0.246006 -0.843968
v 5.085040 0.260951 -0.825763
v 4.861366 0.246006 -0.753088
v 4.874488 0.260951 -0.740215
v 4.768713 0.246006 -0.533685
v 4.787274 0.260951 -0.533685
v 4.861366 0.246006 -0.314281
v 4.874488 0.260951 -0.327155
v 5.085040 0.246006 -0.223401
v 5.085040 0.260951 -0.241607
v 5.308716 0.246006 -0.314281
v 5.295594 0.260951 -0.327154
v 5.401367 0.246006 -0.533685
v 5.382808 0.260951 -0.533685
v 4.673479 -1.001336 -1.897318
v 4.668183 -2.000203 -0.106848
v 6.462113 -2.000203 -0.097733
vt 0.508100 0.988447
vt 0.516285 0.977913
vt 0.746252 0.977913
vt 0.754925 0.988689
vt 0.516285 0.785530
vt 0.746252 0.785530
vt 0.762966 0.977913
vt 0.762966 0.785530
vt 0.987790 0.785530
vt 0.987790 0.977913
vt 0.274747 0.977913
vt 0.274747 0.785530
vt 0.499571 0.785530
vt 0.499571 0.977913
vt 0.754925 0.988689
vt 0.987924 0.988689
vt 0.753992 0.775301
vt 0.987924 0.774861
vt 0.508242 0.774627
vt 0.754925 0.988689
vt 0.508100 0.988447
vt 0.507508 0.219458
vt 0.516285 0.208709
vt 0.746252 0.208709
vt 0.755579 0.219458
vt 0.756369 0.468213
vt 0.507268 0.468213
vt 0.516285 0.016326
vt 0.746252 0.016326
vt 0.762966 0.208709
vt 0.762966 0.016326
vt 0.987790 0.016326
vt 0.987790 0.208709
vt 0.274747 0.208709
vt 0.274747 0.016326
vt 0.499571 0.016326
vt 0.499571 0.208709
vt 0.402680 0.360617
vt 0.402680 0.364887
vt 0.352893 0.364887
vt 0.352893 0.360617
vt 0.453705 0.360617
vt 0.453705 0.364887
vt 0.050459 0.364887
vt 0.050459 0.360617
vt 0.101483 0.360617
vt 0.101483 0.364887
vt 0.151270 0.360617
vt 0.151270 0.364887
vt 0.201057 0.360617
vt 0.201057 0.364887
vt 0.252082 0.360617
vt 0.252082 0.364887
vt 0.303106 0.360617
vt 0.303106 0.364887
vt 0.402680 0.239290
vt 0.453705 0.239290
vt 0.050459 0.239290
vt 0.101483 0.239290
vt 0.151270 0.239290
vt 0.201057 0.239290
vt 0.252082 0.239290
vt 0.303106 0.239290
vt 0.352893 0.239290
vt 0.791781 0.535591
vt 0.791743 0.452651
vt 0.891878 0.494074
vt 0.850362 0.393978
vt 0.933301 0.393939
vt 0.991975 0.452558
vt 0.992014 0.535497
vt 0.933394 0.594172
vt 0.850455 0.594210
vt 0.402680 0.489419
vt 0.402680 0.493688
vt 0.352893 0.493688
vt 0.352893 0.489419
vt 0.453705 0.489419
vt 0.453705 0.493688
vt 0.050459 0.493688
vt 0.050459 0.489419
vt 0.101483 0.489419
vt 0.101483 0.493688
vt 0.151270 0.489419
vt 0.151270 0.493688
vt 0.201057 0.489419
vt 0.201057 0.493688
vt 0.252082 0.489419
vt 0.252082 0.493688
vt 0.303106 0.489419
vt 0.303106 0.493688
vt 0.402680 0.368091
vt 0.453705 0.368091
vt 0.050459 0.368091
vt 0.101483 0.368091
vt 0.151270 0.368091
vt 0.201057 0.368091
vt 0.252082 0.368091
vt 0.303106 0.368091
vt 0.352893 0.368091
vt 0.791781 0.535591
vt 0.791743 0.452651
vt 0.891878 0.494074
vt 0.850362 0.393978
vt 0.933301 0.393939
vt 0.991975 0.452559
vt 0.992014 0.535497
vt 0.933394 0.594172
vt 0.850455 0.594210
vt 0.402680 0.618220
vt 0.402680 0.622490
vt 0.352893 0.622490
vt 0.352893 0.618220
vt 0.453704 0.618220
vt 0.453704 0.622490
vt 0.050459 0.622490
vt 0.050459 0.618220
vt 0.101483 0.618220
vt 0.101483 0.622490
vt 0.151270 0.618220
vt 0.151270 0.622490
vt 0.201057 0.618220
vt 0.201057 0.622490
vt 0.252082 0.618220
vt 0.252082 0.622490
vt 0.303106 0.618220
vt 0.303106 0.622490
vt 0.402680 0.496893
vt 0.453704 0.496893
vt 0.050459 0.496893
vt 0.101483 0.496893
vt 0.151270 0.496893
vt 0.201057 0.496893
vt 0.252082 0.496893
vt 0.303106 0.496893
vt 0.352893 0.496893
vt 0.791781 0.535591
vt 0.791743 0.452651
vt 0.891878 0.494074
vt 0.850363 0.393978
vt 0.933301 0.393939
vt 0.991975 0.452558
vt 0.992014 0.535498
vt 0.933394 0.594172
vt 0.850455 0.594210
vt 0.402680 0.747021
vt 0.402680 0.751291
vt 0.352893 0.751291
vt 0.352893 0.747021
vt 0.453704 0.747021
vt 0.453704 0.751291
vt 0.050459 0.751291
vt 0.050459 0.747021
vt 0.101483 0.747021
vt 0.101483 0.751291
vt 0.151270 0.747021
vt 0.151270 0.751291
vt 0.201057 0.747021
vt 0.201057 0.751291
vt 0.252082 0.747021
vt 0.252082 0.751291
vt 0.303106 0.747021
vt 0.303106 0.751291
vt 0.402680 0.625694
vt 0.453704 0.625694
vt 0.050459 0.625694
vt 0.101483 0.625694
vt 0.151270 0.625694
vt 0.201057 0.625694
vt 0.252082 0.625694
vt 0.303106 0.625694
vt 0.352893 0.625694
vt 0.791781 0.535591
vt 0.791743 0.452651
vt 0.891878 0.494074
vt 0.850362 0.393977
vt 0.933301 0.393939
vt 0.991975 0.452558
vt 0.992014 0.535497
vt 0.933394 0.594172
vt 0.850455 0.594210
vt 0.995957 0.219805
vt 0.266580 0.219805
vt 0.754925 0.005657
vt 0.987924 0.005657
vt 0.508100 0.005415
vt 0.508100 0.988447
vt 0.266190 0.988447
vt 0.266190 0.005415
vt 0.274612 0.774861
vt 0.761730 0.517079
vt 0.503089 0.517079
vn 0.000013 0.900962 0.433897
vn 0.000013 0.900962 0.433897
vn 0.000013 0.900962 0.433897
vn 0.000013 0.900962 0.433897
vn 0.000000 0.000000 1.000000
vn 0.000000 0.000000 1.000000
vn 0.000000 0.000000 1.000000
vn 0.000000 0.000000 1.000000
vn 1.000000 0.000000 0.000000
vn 1.000000 0.000000 0.000000
vn 1.000000 0.000000 0.000000
vn 1.000000 0.000000 0.000000
vn -1.000000 0.000000 0.000000
vn -1.000000 0.000000 0.000000
vn -1.000000 0.000000 0.000000
vn -1.000000 0.000000 0.000000
vn -0.710371 0.000000 0.703827
vn -0.710371 0.000000 0.703827
vn -0.710371 0.000000 0.703827
vn -0.710371 0.000000 0.703827
vn 0.710371 0.000000 0.703828
vn 0.710371 0.000000 0.703828
vn 0.710371 0.000000 0.703828
vn 0.710371 0.000000 0.703828
vn 0.539682 0.841839 0.007147
vn 0.539682 0.841839 0.007147
vn 0.539682 0.841839 0.007147
vn 0.539682 0.841839 0.007147
vn 0.518367 -0.855020 0.015378
vn 0.006684 -0.898879 0.438147
vn 0.240141 -0.932417 0.270057
vn 0.519981 -0.854142 0.007883
vn 0.518367 -0.855020 0.015378
vn 0.519981 -0.854142 0.007883
vn 0.240141 -0.932417 0.270057
vn 0.398239 0.828082 0.394572
vn 0.398239 0.828082 0.394572
vn 0.398239 0.828082 0.394572
vn -0.390189 0.835642 0.386595
vn -0.390189 0.835642 0.386595
vn -0.390189 0.835642 0.386595
vn 0.000000 0.877111 0.480287
vn 0.000000 0.877111 0.480287
vn 0.000000 0.877111 0.480287
vn 0.000000 0.877111 0.480287
vn 0.000000 1.000000 0.000000
vn 0.000000 1.000000 0.000000
vn 0.000000 1.000000 0.000000
vn 0.000000 1.000000 0.000000
vn 0.000000 0.000000 1.000000
vn 0.000000 0.000000 1.000000
vn 0.000000 0.000000 1.000000
vn 0.000000 0.000000 1.000000
vn 1.000000 0.000000 0.000000
vn 1.000000 0.000000 0.000000
vn 1.000000 0.000000 0.000000
vn 1.000000 0.000000 0.000000
vn -1.000000 0.000000 0.000000
vn -1.000000 0.000000 0.000000
vn -1.000000 0.000000 0.000000
vn -1.000000 0.000000 0.000000
vn -0.710371 0.000000 0.703828
vn -0.710371 0.000000 0.703828
vn -0.710371 0.000000 0.703828
vn -0.710371 0.000000 0.703828
vn 0.710371 0.000000 0.703828
vn 0.710371 0.000000 0.703828
vn 0.710371 0.000000 0.703828
vn 0.710371 0.000000 0.703828
vn 0.606288 0.752905 -0.256025
vn 0.606288 0.752905 -0.256025
vn 0.606288 0.752905 -0.256025
vn 0.606288 0.752905 -0.256025
vn 0.249638 0.748447 -0.614417
vn 0.249638 0.748447 -0.614417
vn 0.249638 0.748447 -0.614417
vn 0.249638 0.748447 -0.614417
vn -0.249640 0.748446 -0.614417
vn -0.249640 0.748446 -0.614417
vn -0.249640 0.748446 -0.614417
vn -0.249640 0.748446 -0.614417
vn -0.606269 0.752922 -0.256020
vn -0.606269 0.752922 -0.256020
vn -0.606269 0.752922 -0.256020
vn -0.606269 0.752922 -0.256020
vn -0.606270 0.752922 0.256020
vn -0.606270 0.752922 0.256020
vn -0.606270 0.752922 0.256020
vn -0.606270 0.752922 0.256020
vn -0.249638 0.748449 0.614414
vn -0.249638 0.748449 0.614414
vn -0.249638 0.748449 0.614414
vn -0.249638 0.748449 0.614414
vn 0.249636 0.748449 0.614415
vn 0.249636 0.748449 0.614415
vn 0.249636 0.748449 0.614415
vn 0.249636 0.748449 0.614415
vn 0.606286 0.752907 0.256024
vn 0.606286 0.752907 0.256024
vn 0.606286 0.752907 0.256024
vn 0.606286 0.752907 0.256024
vn 0.376418 0.000000 -0.926450
vn 0.376418 0.000000 -0.926450
vn 0.376418 0.000000 -0.926450
vn 0.376418 0.000000 -0.926450
vn -0.376421 0.000000 -0.926449
vn -0.376421 0.000000 -0.926449
vn -0.376421 0.000000 -0.926449
vn -0.376421 0.000000 -0.926449
vn -0.921225 0.000000 -0.389030
vn -0.921225 0.000000 -0.389030
vn -0.921225 0.000000 -0.389030
vn -0.921225 0.000000 -0.389030
vn -0.921225 0.000000 0.389030
vn -0.921225 0.000000 0.389030
vn -0.921225 0.000000 0.389030
vn -0.921225 0.000000 0.389030
vn -0.376421 0.000000 0.926449
vn -0.376421 0.000000 0.926449
vn -0.376421 0.000000 0.926449
vn -0.376421 0.000000 0.926449
vn 0.376418 0.000000 0.926450
vn 0.376418 0.000000 0.926450
vn 0.376418 0.000000 0.926450
vn 0.376418 0.000000 0.926450
vn 0.921228 0.000000 0.389023
vn 0.921228 0.000000 0.389023
vn 0.921228 0.000000 0.389023
vn 0.921228 0.000000 0.389023
vn 0.921228 0.000000 -0.389023
vn 0.921228 0.000000 -0.389023
vn 0.921228 0.000000 -0.389023
vn 0.921228 0.000000 -0.389023
vn 0.000000 1.000000 0.000000
vn 0.000000 1.000000 0.000000
vn 0.000000 1.000000 0.000000
vn 0.000000 1.000000 0.000000
vn 0.000000 1.000000 0.000000
vn 0.000000 1.000000 0.000000
vn 0.000000 1.000000 0.000000
vn 0.000000 1.000000 0.000000
vn 0.000000 1.000000 0.000000
vn 0.000000 1.000000 0.000000
vn 0.000000 1.000000 0.000000
vn 0.000000 1.000000 0.000000
vn 0.000000 1.000000 0.000000
vn 0.000000 1.000000 0.000000
vn 0.000000 1.000000 0.000000
vn 0.000000 1.000000 0.000000
vn 0.000000 1.000000 0.000000
vn 0.000000 1.000000 0.000000
vn 0.000000 1.000000 0.000000
vn 0.000000 1.000000 0.000000
vn 0.000000 1.000000 0.000000
vn 0.000000 1.000000 0.000000
vn 0.000000 1.000000 0.000000
vn 0.000000 1.000000 0.000000
vn 0.606285 0.752908 -0.256024
vn 0.606285 0.752908 -0.256024
vn 0.606285 0.752908 -0.256024
vn 0.606285 0.752908 -0.256024
vn 0.249635 0.748452 -0.614412
vn 0.249635 0.748452 -0.614412
vn 0.249635 0.748452 -0.614412
vn 0.249635 0.748452 -0.614412
vn -0.249637 0.748451 -0.614412
vn -0.249637 0.748451 -0.614412
vn -0.249637 0.748451 -0.614412
vn -0.249637 0.748451 -0.614412
vn -0.606269 0.752922 -0.256020
vn -0.606269 0.752922 -0.256020
vn -0.606269 0.752922 -0.256020
vn -0.606269 0.752922 -0.256020
vn -0.606272 0.752919 0.256021
vn -0.606272 0.752919 0.256021
vn -0.606272 0.752919 0.256021
vn -0.606272 0.752919 0.256021
vn -0.249640 0.748445 0.614419
vn -0.249640 0.748445 0.614419
vn -0.249640 0.748445 0.614419
vn -0.249640 0.748445 0.614419
vn 0.249637 0.748447 0.614417
vn 0.249637 0.748447 0.614417
vn 0.249637 0.748447 0.614417
vn 0.249637 0.748447 0.614417
vn 0.606286 0.752907 0.256024
vn 0.606286 0.752907 0.256024
vn 0.606286 0.752907 0.256024
vn 0.606286 0.752907 0.256024
vn 0.376418 0.000000 -0.926450
vn 0.376418 0.000000 -0.926450
vn 0.376418 0.000000 -0.926450
vn 0.376418 0.000000 -0.926450
vn -0.376421 0.000000 -0.926449
vn -0.376421 0.000000 -0.926449
vn -0.376421 0.000000 -0.926449
vn -0.376421 0.000000 -0.926449
vn -0.921225 0.000000 -0.389030
vn -0.921225 0.000000 -0.389030
vn -0.921225 0.000000 -0.389030
vn -0.921225 0.000000 -0.389030
vn -0.921225 0.000000 0.389030
vn -0.921225 0.000000 0.389030
vn -0.921225 0.000000 0.389030
vn -0.921225 0.000000 0.389030
vn -0.376420 0.000000 0.926449
vn -0.376420 0.000000 0.926449
vn -0.376420 0.000000 0.926449
vn -0.376420 0.000000 0.926449
vn 0.376417 0.000000 0.926450
vn 0.376417 0.000000 0.926450
vn 0.376417 0.000000 0.926450
vn 0.376417 0.000000 0.926450
vn 0.921228 0.000000 0.389022
vn 0.921228 0.000000 0.389022
vn 0.921228 0.000000 0.389022
vn 0.921228 0.000000 0.389022
vn 0.921228 0.000000 -0.389023
vn 0.921228 0.000000 -0.389023
vn 0.921228 0.000000 -0.389023
vn 0.921228 0.000000 -0.389023
vn 0.000000 1.000000 0.000000
vn 0.000000 1.000000 0.000000
vn 0.000000 1.000000 0.000000
vn 0.000000 1.000000 0.000000
vn 0.000000 1.000000 0.000000
vn 0.000000 1.000000 0.000000
vn 0.000000 1.000000 0.000000
vn 0.000000 1.000000 0.000000
vn 0.000000 1.000000 0.000000
vn 0.000000 1.000000 0.000000
vn 0.000000 1.000000 0.000000
vn 0.000000 1.000000 0.000000
vn 0.000000 1.000000 0.000000
vn 0.000000 1.000000 0.000000
vn 0.000000 1.000000 0.000000
vn 0.000000 1.000000 0.000000
vn 0.000000 1.000000 0.000000
vn 0.000000 1.000000 0.000000
vn 0.000000 1.000000 0.000000
vn 0.000000 1.000000 0.000000
vn 0.000000 1.000000 0.000000
vn 0.000000 1.000000 0.000000
vn 0.000000 1.000000 0.000000
vn 0.000000 1.000000 0.000000
vn 0.606287 0.752906 -0.256025
vn 0.606287 0.752906 -0.256025
vn 0.606287 0.752906 -0.256025
vn 0.606287 0.752906 -0.256025
vn 0.249635 0.748451 -0.614413
vn 0.249635 0.748451 -0.614413
vn 0.249635 0.748451 -0.614413
vn 0.249635 0.748451 -0.614413
vn -0.249637 0.748452 -0.614411
vn -0.249637 0.748452 -0.614411
vn -0.249637 0.748452 -0.614411
vn -0.249637 0.748452 -0.614411
vn -0.606270 0.752922 -0.256020
vn -0.606270 0.752921 -0.256020
vn -0.606270 0.752922 -0.256020
vn -0.606270 0.752922 -0.256020
vn -0.606271 0.752920 0.256021
vn -0.606271 0.752920 0.256021
vn -0.606271 0.752920 0.256021
vn -0.606271 0.752920 0.256021
vn -0.249640 0.748445 0.614418
vn -0.249640 0.748445 0.614418
vn -0.249640 0.748445 0.614418
vn -0.249640 0.748445 0.614418
vn 0.249636 0.748447 0.614417
vn 0.249636 0.748447 0.614417
vn 0.249636 0.748447 0.614417
vn 0.249636 0.748447 0.614417
vn 0.606289 0.752905 0.256025
vn 0.606289 0.752905 0.256025
vn 0.606289 0.752905 0.256025
vn 0.606289 0.752905 0.256025
vn 0.376418 0.000000 -0.926450
vn 0.376418 0.000000 -0.926450
vn 0.376418 0.000000 -0.926450
vn 0.376418 0.000000 -0.926450
vn -0.376421 0.000000 -0.926449
vn -0.376421 0.000000 -0.926449
vn -0.376421 0.000000 -0.926449
vn -0.376421 0.000000 -0.926449
vn -0.921225 0.000000 -0.389030
vn -0.921225 0.000000 -0.389030
vn -0.921225 0.000000 -0.389030
vn -0.921225 0.000000 -0.389030
vn -0.921225 0.000000 0.389030
vn -0.921225 0.000000 0.389030
vn -0.921225 0.000000 0.389030
vn -0.921225 0.000000 0.389030
vn -0.376420 0.000000 0.926449
vn -0.376420 0.000000 0.926449
vn -0.376420 0.000000 0.926449
vn -0.376420 0.000000 0.926449
vn 0.376417 0.000000 0.926450
vn 0.376417 0.000000 0.926450
vn 0.376417 0.000000 0.926450
vn 0.376417 0.000000 0.926450
vn 0.921228 0.000000 0.389022
vn 0.921228 0.000000 0.389022
vn 0.921228 0.000000 0.389022
vn 0.921228 0.000000 0.389022
vn 0.921228 0.000000 -0.389023
vn 0.921228 0.000000 -0.389023
vn 0.921228 0.000000 -0.389023
vn 0.921228 0.000000 -0.389023
vn 0.000000 1.000000 0.000000
vn 0.000000 1.000000 0.000000
vn 0.000000 1.000000 0.000000
vn 0.000000 1.000000 0.000000
vn 0.000000 1.000000 0.000000
vn 0.000000 1.000000 0.000000
vn 0.000000 1.000000 0.000000
vn 0.000000 1.000000 0.000000
vn 0.000000 1.000000 0.000000
vn 0.000000 1.000000 0.000000
vn 0.000000 1.000000 0.000000
vn 0.000000 1.000000 0.000000
vn 0.000000 1.000000 0.000000
vn 0.000000 1.000000 0.000000
vn 0.000000 1.000000 0.000000
vn 0.000000 1.000000 0.000000
vn 0.000000 1.000000 0.000000
vn 0.000000 1.000000 0.000000
vn 0.000000 1.000000 0.000000
vn 0.000000 1.000000 0.000000
vn 0.000000 1.000000 0.000000
vn 0.000000 1.000000 0.000000
vn 0.000000 1.000000 0.000000
vn 0.000000 1.000000 0.000000
vn 0.606288 0.752905 -0.256025
vn 0.606288 0.752905 -0.256025
vn 0.606288 0.752905 -0.256025
vn 0.606288 0.752905 -0.256025
vn 0.249637 0.748448 -0.614416
vn 0.249637 0.748448 -0.614416
vn 0.249637 0.748448 -0.614416
vn 0.249637 0.748448 -0.614416
vn -0.249639 0.748449 -0.614415
vn -0.249639 0.748449 -0.614415
vn -0.249639 0.748449 -0.614415
vn -0.249639 0.748449 -0.614415
vn -0.606270 0.752921 -0.256021
vn -0.606270 0.752921 -0.256021
vn -0.606270 0.752921 -0.256021
vn -0.606270 0.752921 -0.256021
vn -0.606270 0.752921 0.256020
vn -0.606270 0.752921 0.256020
vn -0.606270 0.752921 0.256020
vn -0.606270 0.752921 0.256020
vn -0.249638 0.748450 0.614413
vn -0.249638 0.748450 0.614413
vn -0.249638 0.748450 0.614413
vn -0.249638 0.748450 0.614413
vn 0.249637 0.748448 0.614416
vn 0.249637 0.748448 0.614416
vn 0.249637 0.748448 0.614416
vn 0.249637 0.748448 0.614416
vn 0.606290 0.752904 0.256026
vn 0.606290 0.752904 0.256026
vn 0.606290 0.752904 0.256026
vn 0.606290 0.752904 0.256026
vn 0.376418 0.000000 -0.926450
vn 0.376418 0.000000 -0.926450
vn 0.376418 0.000000 -0.926450
vn 0.376418 0.000000 -0.926450
vn -0.376421 0.000000 -0.926449
vn -0.376421 0.000000 -0.926449
vn -0.376421 0.000000 -0.926449
vn -0.376421 0.000000 -0.926449
vn -0.921225 0.000000 -0.389030
vn -0.921225 0.000000 -0.389030
vn -0.921225 0.000000 -0.389030
vn -0.921225 0.000000 -0.389030
vn -0.921225 0.000000 0.389030
vn -0.921225 0.000000 0.389030
vn -0.921225 0.000000 0.389030
vn -0.921225 0.000000 0.389030
vn -0.376421 0.000000 0.926449
vn -0.376421 0.000000 0.926449
vn -0.376421 0.000000 0.926449
vn -0.376421 0.000000 0.926449
vn 0.376418 0.000000 0.926450
vn 0.376418 0.000000 0.926450
vn 0.376418 0.000000 0.926450
vn 0.376418 0.000000 0.926450
vn 0.921228 0.000000 0.389023
vn 0.921228 0.000000 0.389023
vn 0.921228 0.000000 0.389023
vn 0.921228 0.000000 0.389023
vn 0.921228 0.000000 -0.389023
vn 0.921228 0.000000 -0.389023
vn 0.921228 0.000000 -0.389023
vn 0.921228 0.000000 -0.389023
vn 0.000000 1.000000 0.000000
vn 0.000000 1.000000 0.000000
vn 0.000000 1.000000 0.000000
vn 0.000000 1.000000 0.000000
vn 0.000000 1.000000 0.000000
vn 0.000000 1.000000 0.000000
vn 0.000000 1.000000 0.000000
vn 0.000000 1.000000 0.000000
vn 0.000000 1.000000 0.000000
vn 0.000000 1.000000 0.000000
vn 0.000000 1.000000 0.000000
vn 0.000000 1.000000 0.000000
vn 0.000000 1.000000 0.000000
vn 0.000000 1.000000 0.000000
vn 0.000000 1.000000 0.000000
vn 0.000000 1.000000 0.000000
vn 0.000000 1.000000 0.000000
vn 0.000000 1.000000 0.000000
vn 0.000000 1.000000 0.000000
vn 0.000000 1.000000 0.000000
vn 0.000000 1.000000 0.000000
vn 0.000000 1.000000 0.000000
vn 0.000000 1.000000 0.000000
vn 0.000000 1.000000 0.000000
vn 0.484616 0.874727 0.000000
vn 0.484616 0.874727 0.000000
vn 0.484616 0.874727 0.000000
vn 0.484616 0.874727 0.000000
vn -0.484616 0.874727 0.000000
vn -0.484616 0.874727 0.000000
vn -0.484616 0.874727 0.000000
vn -0.484616 0.874727 0.000000
vn 0.533691 -0.845533 0.015735
vn 0.007429 -0.898874 0.438145
vn 0.254445 -0.929781 0.266018
vn 0.254445 -0.929781 0.266018
vn 0.535850 -0.844283 0.007097
vn 0.533691 -0.845533 0.015735
vn 0.535850 -0.844284 0.007097
vn 0.459071 0.763134 0.454842
vn 0.459071 0.763134 0.454842
vn 0.459071 0.763134 0.454842
vn -0.459070 0.763134 0.454841
vn -0.459070 0.763134 0.454841
vn -0.459070 0.763134 0.454841
vn 0.254445 -0.929781 0.266018
vn 0.007429 -0.898874 0.438145
vn -0.009691 -0.898837 0.438177
vn -0.006821 -0.898838 0.438228
vn -0.006821 -0.898838 0.438228
vn -0.399785 -0.826605 0.396101
vn -0.009691 -0.898837 0.438177
vn -0.423084 0.906091 0.000000
vn -0.423084 0.906091 0.000000
vn -0.423084 0.906091 0.000000
vn -0.423084 0.906091 0.000000
vn -0.435397 -0.900239 0.000000
vn -0.435397 -0.900238 0.000000
vn -0.435397 -0.900239 0.000000
vn -0.435397 -0.900239 0.000000
vn -0.261433 -0.928715 0.262949
vn -0.538566 -0.842434 0.015882
vn -0.540926 -0.841042 0.006837
vn -0.540926 -0.841042 0.006837
vn -0.007798 -0.898857 0.438173
vn -0.538566 -0.842434 0.015882
vn -0.261433 -0.928715 0.262949
vn 0.006684 -0.898879 0.438147
vn -0.007798 -0.898857 0.438173
vn 0.240141 -0.932417 0.270057
vn -0.261433 -0.928715 0.262949
vn 0.000000 -1.000000 0.000000
vn 0.000000 -1.000000 -0.000000
vn 0.000000 -1.000000 -0.000000
vn 0.000000 -1.000000 -0.000000
usemtl X__lego_full:blinn1SG
f 4/2/1 8/3/2 1/1/3
f 1/1/3 8/3/2 2/4/4
f 4/2/5 7/5/6 8/3/7
f 8/3/7 7/5/6 10/6/8
f 9/7/9 11/8/10 12/10/11
f 12/10/11 11/8/10 13/9/12
f 14/11/13 15/12/14 5/14/15
f 5/14/15 15/12/14 6/13/16
f 4/2/17 5/14/18 7/5/19
f 7/5/19 5/14/18 6/13/20
f 9/7/21 8/3/22 11/8/23
f 11/8/23 8/3/22 10/6/24
f 2/15/25 9/7/26 3/16/27
f 3/16/27 9/7/26 12/10/28
f 11/8/29 10/6/30 136/17/31
f 13/9/32 11/8/33 17/18/34
f 17/18/34 11/8/33 136/17/35
f 8/3/36 9/7/37 2/20/38
f 5/14/39 4/2/40 1/21/41
f 18/22/42 22/23/43 19/25/44
f 19/25/44 22/23/43 26/24/45
f 18/22/46 19/25/47 20/27/48
f 20/27/48 19/25/47 21/26/49
f 22/23/50 25/28/51 26/24/52
f 26/24/52 25/28/51 28/29/53
f 27/30/54 29/31/55 30/33/56
f 30/33/56 29/31/55 31/32/57
f 32/34/58 33/35/59 23/37/60
f 23/37/60 33/35/59 24/36/61
f 22/23/62 23/37/63 25/28/64
f 25/28/64 23/37/63 24/36/65
f 27/30/66 26/24/67 29/31/68
f 29/31/68 26/24/67 28/29/69
f 44/39/70 58/40/71 43/38/72
f 43/38/72 58/40/71 57/41/73
f 43/38/74 45/42/75 44/39/76
f 44/39/76 45/42/75 46/43/77
f 46/44/78 45/45/79 48/47/80
f 48/47/80 45/45/79 47/46/81
f 48/47/82 47/46/83 50/49/84
f 50/49/84 47/46/83 49/48/85
f 49/48/86 51/50/87 50/49/88
f 50/49/88 51/50/87 52/51/89
f 51/50/90 53/52/91 52/51/92
f 52/51/92 53/52/91 54/53/93
f 54/53/94 53/52/95 56/55/96
f 56/55/96 53/52/95 55/54/97
f 56/55/98 55/54/99 58/40/100
f 58/40/100 55/54/99 57/41/101
f 34/56/102 35/57/103 43/38/104
f 43/38/104 35/57/103 45/42/105
f 35/58/106 36/59/107 45/45/108
f 45/45/108 36/59/107 47/46/109
f 36/59/110 37/60/111 47/46/112
f 47/46/112 37/60/111 49/48/113
f 37/60/114 38/61/115 49/48/116
f 49/48/116 38/61/115 51/50/117
f 38/61/118 39/62/119 51/50/120
f 51/50/120 39/62/119 53/52/121
f 39/62/122 40/63/123 53/52/124
f 53/52/124 40/63/123 55/54/125
f 40/63/126 41/64/127 55/54/128
f 55/54/128 41/64/127 57/41/129
f 41/64/130 34/56/131 57/41/132
f 57/41/132 34/56/131 43/38/133
f 44/65/134 46/66/135 42/67/136
f 46/66/137 48/68/138 42/67/139
f 48/68/140 50/69/141 42/67/142
f 50/69/143 52/70/144 42/67/145
f 52/70/146 54/71/147 42/67/148
f 54/71/149 56/72/150 42/67/151
f 56/72/152 58/73/153 42/67/154
f 58/73/155 44/65/156 42/67/157
f 69/75/158 83/76/159 68/74/160
f 68/74/160 83/76/159 82/77/161
f 68/74/162 70/78/163 69/75/164
f 69/75/164 70/78/163 71/79/165
f 71/80/166 70/81/167 73/83/168
f 73/83/168 70/81/167 72/82/169
f 73/83/170 72/82/171 75/85/172
f 75/85/172 72/82/171 74/84/173
f 74/84/174 76/86/175 75/85/176
f 75/85/176 76/86/175 77/87/177
f 76/86/178 78/88/179 77/87/180
f 77/87/180 78/88/179 79/89/181
f 79/89/182 78/88/183 81/91/184
f 81/91/184 78/88/183 80/90/185
f 81/91/186 80/90/187 83/76/188
f 83/76/188 80/90/187 82/77/189
f 59/92/190 60/93/191 68/74/192
f 68/74/192 60/93/191 70/78/193
f 60/94/194 61/95/195 70/81/196
f 70/81/196 61/95/195 72/82/197
f 61/95/198 62/96/199 72/82/200
f 72/82/200 62/96/199 74/84/201
f 62/96/202 63/97/203 74/84/204
f 74/84/204 63/97/203 76/86/205
f 63/97/206 64/98/207 76/86/208
f 76/86/208 64/98/207 78/88/209
f 64/98/210 65/99/211 78/88/212
f 78/88/212 65/99/211 80/90/213
f 65/99/214 66/100/215 80/90/216
f 80/90/216 66/100/215 82/77/217
f 66/100/218 59/92/219 82/77/220
f 82/77/220 59/92/219 68/74/221
f 69/101/222 71/102/223 67/103/224
f 71/102/225 73/104/226 67/103/227
f 73/104/228 75/105/229 67/103/230
f 75/105/231 77/106/232 67/103/233
f 77/106/234 79/107/235 67/103/236
f 79/107/237 81/108/238 67/103/239
f 81/108/240 83/109/241 67/103/242
f 83/109/243 69/101/244 67/103/245
f 94/111/246 108/112/247 93/110/248
f 93/110/248 108/112/247 107/113/249
f 93/110/250 95/114/251 94/111/252
f 94/111/252 95/114/251 96/115/253
f 96/116/254 95/117/255 98/119/256
f 98/119/256 95/117/255 97/118/257
f 98/119/258 97/118/259 100/121/260
f 100/121/260 97/118/259 99/120/261
f 99/120/262 101/122/263 100/121/264
f 100/121/264 101/122/263 102/123/265
f 101/122/266 103/124/267 102/123/268
f 102/123/268 103/124/267 104/125/269
f 104/125/270 103/124/271 106/127/272
f 106/127/272 103/124/271 105/126/273
f 106/127/274 105/126/275 108/112/276
f 108/112/276 105/126/275 107/113/277
f 84/128/278 85/129/279 93/110/280
f 93/110/280 85/129/279 95/114/281
f 85/130/282 86/131/283 95/117/284
f 95/117/284 86/131/283 97/118/285
f 86/131/286 87/132/287 97/118/288
f 97/118/288 87/132/287 99/120/289
f 87/132/290 88/133/291 99/120/292
f 99/120/292 88/133/291 101/122/293
f 88/133/294 89/134/295 101/122/296
f 101/122/296 89/134/295 103/124/297
f 89/134/298 90/135/299 103/124/300
f 103/124/300 90/135/299 105/126/301
f 90/135/302 91/136/303 105/126/304
f 105/126/304 91/136/303 107/113/305
f 91/136/306 84/128/307 107/113/308
f 107/113/308 84/128/307 93/110/309
f 94/137/310 96/138/311 92/139/312
f 96/138/313 98/140/314 92/139/315
f 98/140/316 100/141/317 92/139/318
f 100/141/319 102/142/320 92/139/321
f 102/142/322 104/143/323 92/139/324
f 104/143/325 106/144/326 92/139/327
f 106/144/328 108/145/329 92/139/330
f 108/145/331 94/137/332 92/139/333
f 119/147/334 133/148/335 118/146/336
f 118/146/336 133/148/335 132/149/337
f 118/146/338 120/150/339 119/147/340
f 119/147/340 120/150/339 121/151/341
f 121/152/342 120/153/343 123/155/344
f 123/155/344 120/153/343 122/154/345
f 123/155/346 122/154/347 125/157/348
f 125/157/348 122/154/347 124/156/349
f 124/156/350 126/158/351 125/157/352
f 125/157/352 126/158/351 127/159/353
f 126/158/354 128/160/355 127/159/356
f 127/159/356 128/160/355 129/161/357
f 129/161/358 128/160/359 131/163/360
f 131/163/360 128/160/359 130/162/361
f 131/163/362 130/162/363 133/148/364
f 133/148/364 130/162/363 132/149/365
f 109/164/366 110/165/367 118/146/368
f 118/146/368 110/165/367 120/150/369
f 110/166/370 111/167/371 120/153/372
f 120/153/372 111/167/371 122/154/373
f 111/167/374 112/168/375 122/154/376
f 122/154/376 112/168/375 124/156/377
f 112/168/378 113/169/379 124/156/380
f 124/156/380 113/169/379 126/158/381
f 113/169/382 114/170/383 126/158/384
f 126/158/384 114/170/383 128/160/385
f 114/170/386 115/171/387 128/160/388
f 128/160/388 115/171/387 130/162/389
f 115/171/390 116/172/391 130/162/392
f 130/162/392 116/172/391 132/149/393
f 116/172/394 109/164/395 132/149/396
f 132/149/396 109/164/395 118/146/397
f 119/173/398 121/174/399 117/175/400
f 121/174/401 123/176/402 117/175/403
f 123/176/404 125/177/405 117/175/406
f 125/177/407 127/178/408 117/175/409
f 127/178/410 129/179/411 117/175/412
f 129/179/413 131/180/414 117/175/415
f 131/180/416 133/181/417 117/175/418
f 133/181/419 119/173/420 117/175/421
f 19/25/422 27/30/423 21/182/424
f 21/182/424 27/30/423 30/33/425
f 23/37/426 18/22/427 32/34/428
f 32/34/428 18/22/427 20/183/429
f 29/31/430 28/29/431 2/184/432
f 2/184/433 3/185/434 29/31/435
f 29/31/435 3/185/434 31/32/436
f 26/24/437 27/30/438 19/25/439
f 23/37/440 22/23/441 18/22/442
f 2/184/443 28/29/444 1/186/445
f 1/186/445 28/29/444 25/28/446
f 25/28/447 24/36/448 1/186/449
f 14/11/450 5/14/451 134/188/452
f 134/188/452 5/14/451 1/187/453
f 24/36/454 33/35/455 1/186/456
f 1/186/456 33/35/455 134/189/457
f 135/19/458 6/13/459 16/190/460
f 16/190/460 6/13/459 15/12/461
f 7/5/462 6/13/463 135/19/464
f 10/6/465 7/5/466 136/17/467
f 136/17/467 7/5/466 135/19/468
f 135/19/469 16/192/470 136/17/471
f 136/17/471 16/192/470 17/191/472
v 4.673479 -1.001336 -0.102219
v 6.468999 -1.000203 -0.104680
v 6.515856 -1.000203 -1.847582
v 4.669272 -1.050599 0.000019
v 4.567975 -1.050599 -0.102219
v 4.567975 -1.950309 -0.102219
v 4.669272 -1.950309 0.000019
v 6.470056 -1.050599 0.000019
v 6.571353 -1.050599 -0.102219
v 6.470056 -1.950309 0.000019
v 6.571353 -1.950309 -0.102219
v 6.571353 -1.050599 -1.897318
v 6.571353 -1.950309 -1.897318
v 4.567975 -1.050599 -1.897318
v 4.567975 -1.950309 -1.897318
v 4.623489 -2.000203 -1.847582
v 6.515856 -2.000203 -1.847582
v 4.661641 0.001294 -0.094748
v 6.477687 0.001294 -0.094748
v 4.661641 0.001294 -1.904789
v 6.477687 0.001294 -1.904789
v 4.669272 -0.050599 0.000019
v 4.567975 -0.050599 -0.102219
v 4.567975 -0.950309 -0.102219
v 4.669272 -0.950309 0.000019
v 6.470056 -0.050599 0.000019
v 6.571353 -0.050599 -0.102219
v 6.470056 -0.950309 0.000019
v 6.571353 -0.950309 -0.102219
v 6.571353 -0.050599 -1.897318
v 6.571353 -0.950309 -1.897318
v 4.567975 -0.050599 -1.897318
v 4.567975 -0.950309 -1.897318
v 6.275495 -0.178646 -0.762846
v 6.051819 -0.178646 -0.853726
v 5.828145 -0.178646 -0.762846
v 5.735492 -0.178646 -0.543443
v 5.828145 -0.178646 -0.324039
v 6.051819 -0.178646 -0.233159
v 6.275495 -0.178646 -0.324039
v 6.368147 -0.178646 -0.543443
v 6.051819 0.260951 -0.543443
v 6.275495 0.246006 -0.762846
v 6.262373 0.260951 -0.749973
v 6.051819 0.246006 -0.853726
v 6.051819 0.260951 -0.835521
v 5.828145 0.246006 -0.762846
v 5.841266 0.260951 -0.749973
v 5.735492 0.246006 -0.543443
v 5.754053 0.260951 -0.543443
v 5.828145 0.246006 -0.324039
v 5.841266 0.260951 -0.336913
v 6.051819 0.246006 -0.233159
v 6.051819 0.260951 -0.251365
v 6.275495 0.246006 -0.324039
v 6.262373 0.260951 -0.336912
v 6.368147 0.246006 -0.543443
v 6.349587 0.260951 -0.543443
v 6.275495 -0.178646 -1.669743
v 6.051819 -0.178646 -1.760623
v 5.828145 -0.178646 -1.669743
v 5.735492 -0.178646 -1.450340
v 5.828145 -0.178646 -1.230936
v 6.051819 -0.178646 -1.140056
v 6.275495 -0.178646 -1.230936
v 6.368147 -0.178646 -1.450340
v 6.051819 0.260951 -1.450340
v 6.275495 0.246006 -1.669743
v 6.262373 0.260951 -1.656870
v 6.051819 0.246006 -1.760623
v 6.051819 0.260951 -1.742418
v 5.828145 0.246006 -1.669743
v 5.841266 0.260951 -1.656870
v 5.735492 0.246006 -1.450340
v 5.754053 0.260951 -1.450340
v 5.828145 0.246006 -1.230936
v 5.841266 0.260951 -1.243809
v 6.051819 0.246006 -1.140056
v 6.051819 0.260951 -1.158262
v 6.275495 0.246006 -1.230936
v 6.262373 0.260951 -1.243809
v 6.368147 0.246006 -1.450340
v 6.349587 0.260951 -1.450340
v 5.308716 -0.178646 -1.669743
v 5.085040 -0.178646 -1.760623
v 4.861366 -0.178646 -1.669743
v 4.768713 -0.178646 -1.450340
v 4.861366 -0.178646 -1.230936
v 5.085040 -0.178646 -1.140056
v 5.308716 -0.178646 -1.230936
v 5.401367 -0.178646 -1.450340
v 5.085040 0.260951 -1.450340
v 5.308716 0.246006 -1.669743
v 5.295594 0.260951 -1.656870
v 5.085040 0.246006 -1.760623
v 5.085040 0.260951 -1.742418
v 4.861366 0.246006 -1.669743
v 4.874488 0.260951 -1.656870
v 4.768713 0.246006 -1.450340
v 4.787274 0.260951 -1.450340
v 4.861366 0.246006 -1.230936
v 4.874488 0.260951 -1.243809
v 5.085040 0.246006 -1.140056
v 5.085040 0.260951 -1.158262
v 5.308716 0.246006 -1.230936
v 5.295594 0.260951 -1.243809
v 5.401367 0.246006 -1.450340
v 5.382808 0.260951 -1.450340
v 5.308716 -0.178646 -0.753088
v 5.085040 -0.178646 -0.843968
v 4.861366 -0.178646 -0.753088
v 4.768713 -0.178646 -0.533685
v 4.861366 -0.178646 -0.314281
v 5.085040 -0.178646 -0.223401
v 5.308716 -0.178646 -0.314281
v 5.401367 -0.178646 -0.533685
v 5.085040 0.260951 -0.533685
v 5.308716 0.246006 -0.753088
v 5.295594 0.260951 -0.740215
v 5.085040 0.246006 -0.843968
v 5.085040 0.260951 -0.825763
v 4.861366 0.246006 -0.753088
v 4.874488 0.260951 -0.740215
v 4.768713 0.246006 -0.533685
v 4.787274 0.260951 -0.533685
v 4.861366 0.246006 -0.314281
v 4.874488 0.260951 -0.327155
v 5.085040 0.246006 -0.223401
v 5.085040 0.260951 -0.241607
v 5.308716 0.246006 -0.314281
v 5.295594 0.260951 -0.327154
v 5.401367 0.246006 -0.533685
v 5.382808 0.260951 -0.533685
v 4.673479 -1.001336 -1.897318
v 4.668183 -2.000203 -0.106848
v 6.462113 -2.000203 -0.097733
vt 0.508100 0.988447
vt 0.516285 0.977913
vt 0.746252 0.977913
vt 0.754925 0.988689
vt 0.516285 0.785530
vt 0.746252 0.785530
vt 0.762966 0.977913
vt 0.762966 0.785530
vt 0.987790 0.785530
vt 0.987790 0.977913
vt 0.274747 0.977913
vt 0.274747 0.785530
vt 0.499571 0.785530
vt 0.499571 0.977913
vt 0.754925 0.988689
vt 0.987924 0.988689
vt 0.753992 0.775301
vt 0.987924 0.774861
vt 0.508242 0.774627
vt 0.754925 0.988689
vt 0.508100 0.988447
vt 0.507508 0.219458
vt 0.516285 0.208709
vt 0.746252 0.208709
vt 0.755579 0.219458
vt 0.756369 0.468213
vt 0.507268 0.468213
vt 0.516285 0.016326
vt 0.746252 0.016326
vt 0.762966 0.208709
vt 0.762966 0.016326
vt 0.987790 0.016326
vt 0.987790 0.208709
vt 0.274747 0.208709
vt 0.274747 0.016326
vt 0.499571 0.016326
vt 0.499571 0.208709
vt 0.402680 0.360617
vt 0.402680 0.364887
vt 0.352893 0.364887
vt 0.352893 0.360617
vt 0.453705 0.360617
vt 0.453705 0.364887
vt 0.050459 0.364887
vt 0.050459 0.360617
vt 0.101483 0.360617
vt 0.101483 0.364887
vt 0.151270 0.360617
vt 0.151270 0.364887
vt 0.201057 0.360617
vt 0.201057 0.364887
vt 0.252082 0.360617
vt 0.252082 0.364887
vt 0.303106 0.360617
vt 0.303106 0.364887
vt 0.402680 0.239290
vt 0.453705 0.239290
vt 0.050459 0.239290
vt 0.101483 0.239290
vt 0.151270 0.239290
vt 0.201057 0.239290
vt 0.252082 0.239290
vt 0.303106 0.239290
vt 0.352893 0.239290
vt 0.791781 0.535591
vt 0.791743 0.452651
vt 0.891878 0.494074
vt 0.850362 0.393978
vt 0.933301 0.393939
vt 0.991975 0.452558
vt 0.992014 0.535497
vt 0.933394 0.594172
vt 0.850455 0.594210
vt 0.402680 0.489419
vt 0.402680 0.493688
vt 0.352893 0.493688
vt 0.352893 0.489419
vt 0.453705 0.489419
vt 0.453705 0.493688
vt 0.050459 0.493688
vt 0.050459 0.489419
vt 0.101483 0.489419
vt 0.101483 0.493688
vt 0.151270 0.489419
vt 0.151270 0.493688
vt 0.201057 0.489419
vt 0.201057 0.493688
vt 0.252082 0.489419
vt 0.252082 0.493688
vt 0.303106 0.489419
vt 0.303106 0.493688
vt 0.402680 0.368091
vt 0.453705 0.368091
vt 0.050459 0.368091
vt 0.101483 0.368091
vt 0.151270 0.368091
vt 0.201057 0.368091
vt 0.252082 0.368091
vt 0.303106 0.368091
vt 0.352893 0.368091
vt 0.791781 0.535591
vt 0.791743 0.452651
vt 0.891878 0.494074
vt 0.850362 0.393978
vt 0.933301 0.393939
vt 0.991975 0.452559
vt 0.992014 0.535497
vt 0.933394 0.594172
vt 0.850455 0.594210
vt 0.402680 0.618220
vt 0.402680 0.622490
vt 0.352893 0.622490
vt 0.352893 0.618220
vt 0.453704 0.618220
vt 0.453704 0.622490
vt 0.050459 0.622490
vt 0.050459 0.618220
vt 0.101483 0.618220
vt 0.101483 0.622490
vt 0.151270 0.618220
vt 0.151270 0.622490
vt 0.201057 0.618220
vt 0.201057 0.622490
vt 0.252082 0.618220
vt 0.252082 0.622490
vt 0.303106 0.618220
vt 0.303106 0.622490
vt 0.402680 0.496893
vt 0.453704 0.496893
vt 0.050459 0.496893
vt 0.101483 0.496893
vt 0.151270 0.496893
vt 0.201057 0.496893
vt 0.252082 0.496893
vt 0.303106 0.496893
vt 0.352893 0.496893
vt 0.791781 0.535591
vt 0.791743 0.452651
vt 0.891878 0.494074
vt 0.850363 0.393978
vt 0.933301 0.393939
vt 0.991975 0.452558
vt 0.992014 0.535498
vt 0.933394 0.594172
vt 0.850455 0.594210
vt 0.402680 0.747021
vt 0.402680 0.751291
vt 0.352893 0.751291
vt 0.352893 0.747021
vt 0.453704 0.747021
vt 0.453704 0.751291
vt 0.050459 0.751291
vt 0.050459 0.747021
vt 0.101483 0.747021
vt 0.101483 0.751291
vt 0.151270 0.747021
vt 0.151270 0.751291
vt 0.201057 0.747021
vt 0.201057 0.751291
vt 0.252082 0.747021
vt 0.252082 0.751291
vt 0.303106 0.747021
vt 0.303106 0.751291
vt 0.402680 0.625694
vt 0.453704 0.625694
vt 0.050459 0.625694
vt 0.101483 0.625694
vt 0.151270 0.625694
vt 0.201057 0.625694
vt 0.252082 0.625694
vt 0.303106 0.625694
vt 0.352893 0.625694
vt 0.791781 0.535591
vt 0.791743 0.452651
vt 0.891878 0.494074
vt 0.850362 0.393977
vt 0.933301 0.393939
vt 0.991975 0.452558
vt 0.992014 0.535497
vt 0.933394 0.594172
vt 0.850455 0.594210
vt 0.995957 0.219805
vt 0.266580 0.219805
vt 0.754925 0.005657
vt 0.987924 0.005657
vt 0.508100 0.005415
vt 0.508100 0.988447
vt 0.266190 0.988447
vt 0.266190 0.005415
vt 0.274612 0.774861
vt 0.761730 0.517079
vt 0.503089 0.517079
vn 0.000013 0.900962 0.433897
vn 0.000013 0.900962 0.433897
vn 0.000013 0.900962 0.433897
vn 0.000013 0.900962 0.433897
vn 0.000000 0.000000 1.000000
vn 0.000000 0.000000 1.000000
vn 0.000000 0.000000 1.000000
vn 0.000000 0.000000 1.000000
vn 1.000000 0.000000 0.000000
vn 1.000000 0.000000 0.000000
vn 1.000000 0.000000 0.000000
vn 1.000000 0.000000 0.000000
vn -1.000000 0.000000 0.000000
vn -1.000000 0.000000 0.000000
vn -1.000000 0.000000 0.000000
vn -1.000000 0.000000 0.000000
vn -0.710371 0.000000 0.703827
vn -0.710371 0.000000 0.703827
vn -0.710371 0.000000 0.703827
vn -0.710371 0.000000 0.703827
vn 0.710371 0.000000 0.703828
vn 0.710371 0.000000 0.703828
vn 0.710371 0.000000 0.703828
vn 0.710371 0.000000 0.703828
vn 0.539682 0.841839 0.007147
vn 0.539682 0.841839 0.007147
vn 0.539682 0.841839 0.007147
vn 0.539682 0.841839 0.007147
vn 0.518367 -0.855020 0.015378
vn 0.006684 -0.898879 0.438147
vn 0.240141 -0.932417 0.270057
vn 0.519981 -0.854142 0.007883
vn 0.518367 -0.855020 0.015378
vn 0.519981 -0.854142 0.007883
vn 0.240141 -0.932417 0.270057
vn 0.398239 0.828082 0.394572
vn 0.398239 0.828082 0.394572
vn 0.398239 0.828082 0.394572
vn -0.390189 0.835642 0.386595
vn -0.390189 0.835642 0.386595
vn -0.390189 0.835642 0.386595
vn 0.000000 0.877111 0.480287
vn 0.000000 0.877111 0.480287
vn 0.000000 0.877111 0.480287
vn 0.000000 0.877111 0.480287
vn 0.000000 1.000000 0.000000
vn 0.000000 1.000000 0.000000
vn 0.000000 1.000000 0.000000
vn 0.000000 1.000000 0.000000
vn 0.000000 0.000000 1.000000
vn 0.000000 0.000000 1.000000
vn 0.000000 0.000000 1.000000
vn 0.000000 0.000000 1.000000
vn 1.000000 0.000000 0.000000
vn 1.000000 0.000000 0.000000
vn 1.000000 0.000000 0.000000
vn 1.000000 0.000000 0.000000
vn -1.000000 0.000000 0.000000
vn -1.000000 0.000000 0.000000
vn -1.000000 0.000000 0.000000
vn -1.000000 0.000000 0.000000
vn -0.710371 0.000000 0.703828
vn -0.710371 0.000000 0.703828
vn -0.710371 0.000000 0.703828
vn -0.710371 0.000000 0.703828
vn 0.710371 0.000000 0.703828
vn 0.710371 0.000000 0.703828
vn 0.710371 0.000000 0.703828
vn 0.710371 0.000000 0.703828
vn 0.606288 0.752905 -0.256025
vn 0.606288 0.752905 -0.256025
vn 0.606288 0.752905 -0.256025
vn 0.606288 0.752905 -0.256025
vn 0.249638 0.748447 -0.614417
vn 0.249638 0.748447 -0.614417
vn 0.249638 0.748447 -0.614417
vn 0.249638 0.748447 -0.614417
vn -0.249640 0.748446 -0.614417
vn -0.249640 0.748446 -0.614417
vn -0.249640 0.748446 -0.614417
vn -0.249640 0.748446 -0.614417
vn -0.606269 0.752922 -0.256020
vn -0.606269 0.752922 -0.256020
vn -0.606269 0.752922 -0.256020
vn -0.606269 0.752922 -0.256020
vn -0.606270 0.752922 0.256020
vn -0.606270 0.752922 0.256020
vn -0.606270 0.752922 0.256020
vn -0.606270 0.752922 0.256020
vn -0.249638 0.748449 0.614414
vn -0.249638 0.748449 0.614414
vn -0.249638 0.748449 0.614414
vn -0.249638 0.748449 0.614414
vn 0.249636 0.748449 0.614415
vn 0.249636 0.748449 0.614415
vn 0.249636 0.748449 0.614415
vn 0.249636 0.748449 0.614415
vn 0.606286 0.752907 0.256024
vn 0.606286 0.752907 0.256024
vn 0.606286 0.752907 0.256024
vn 0.606286 0.752907 0.256024
vn 0.376418 0.000000 -0.926450
vn 0.376418 0.000000 -0.926450
vn 0.376418 0.000000 -0.926450
vn 0.376418 0.000000 -0.926450
vn -0.376421 0.000000 -0.926449
vn -0.376421 0.000000 -0.926449
vn -0.376421 0.000000 -0.926449
vn -0.376421 0.000000 -0.926449
vn -0.921225 0.000000 -0.389030
vn -0.921225 0.000000 -0.389030
vn -0.921225 0.000000 -0.389030
vn -0.921225 0.000000 -0.389030
vn -0.921225 0.000000 0.389030
vn -0.921225 0.000000 0.389030
vn -0.921225 0.000000 0.389030
vn -0.921225 0.000000 0.389030
vn -0.376421 0.000000 0.926449
vn -0.376421 0.000000 0.926449
vn -0.376421 0.000000 0.926449
vn -0.376421 0.000000 0.926449
vn 0.376418 0.000000 0.926450
vn 0.376418 0.000000 0.926450
vn 0.376418 0.000000 0.926450
vn 0.376418 0.000000 0.926450
vn 0.921228 0.000000 0.389023
vn 0.921228 0.000000 0.389023
vn 0.921228 0.000000 0.389023
vn 0.921228 0.000000 0.389023
vn 0.921228 0.000000 -0.389023
vn 0.921228 0.000000 -0.389023
vn 0.921228 0.000000 -0.389023
vn 0.921228 0.000000 -0.389023
vn 0.000000 1.000000 0.000000
vn 0.000000 1.000000 0.000000
vn 0.000000 1.000000 0.000000
vn 0.000000 1.000000 0.000000
vn 0.000000 1.000000 0.000000
vn 0.000000 1.000000 0.000000
vn 0.000000 1.000000 0.000000
vn 0.000000 1.000000 0.000000
vn 0.000000 1.000000 0.000000
vn 0.000000 1.000000 0.000000
vn 0.000000 1.000000 0.000000
vn 0.000000 1.000000 0.000000
vn 0.000000 1.000000 0.000000
vn 0.000000 1.000000 0.000000
vn 0.000000 1.000000 0.000000
vn 0.000000 1.000000 0.000000
vn 0.000000 1.000000 0.000000
vn 0.000000 1.000000 0.000000
vn 0.000000 1.000000 0.000000
vn 0.000000 1.000000 0.000000
vn 0.000000 1.000000 0.000000
vn 0.000000 1.000000 0.000000
vn 0.000000 1.000000 0.000000
vn 0.000000 1.000000 0.000000
vn 0.606285 0.752908 -0.256024
vn 0.606285 0.752908 -0.256024
vn 0.606285 0.752908 -0.256024
vn 0.606285 0.752908 -0.256024
vn 0.249635 0.748452 -0.614412
vn 0.249635 0.748452 -0.614412
vn 0.249635 0.748452 -0.614412
vn 0.249635 0.748452 -0.614412
vn -0.249637 0.748451 -0.614412
vn -0.249637 0.748451 -0.614412
vn -0.249637 0.748451 -0.614412
vn -0.249637 0.748451 -0.614412
vn -0.606269 0.752922 -0.256020
vn -0.606269 0.752922 -0.256020
vn -0.606269 0.752922 -0.256020
vn -0.606269 0.752922 -0.256020
vn -0.606272 0.752919 0.256021
vn -0.606272 0.752919 0.256021
vn -0.606272 0.752919 0.256021
vn -0.606272 0.752919 0.256021
vn -0.249640 0.748445 0.614419
vn -0.249640 0.748445 0.614419
vn -0.249640 0.748445 0.614419
vn -0.249640 0.748445 0.614419
vn 0.249637 0.748447 0.614417
vn 0.249637 0.748447 0.614417
vn 0.249637 0.748447 0.614417
vn 0.249637 0.748447 0.614417
vn 0.606286 0.752907 0.256024
vn 0.606286 0.752907 0.256024
vn 0.606286 0.752907 0.256024
vn 0.606286 0.752907 0.256024
vn 0.376418 0.000000 -0.926450
vn 0.376418 0.000000 -0.926450
vn 0.376418 0.000000 -0.926450
vn 0.376418 0.000000 -0.926450
vn -0.376421 0.000000 -0.926449
vn -0.376421 0.000000 -0.926449
vn -0.376421 0.000000 -0.926449
vn -0.376421 0.000000 -0.926449
vn -0.921225 0.000000 -0.389030
vn -0.921225 0.000000 -0.389030
vn -0.921225 0.000000 -0.389030
vn -0.921225 0.000000 -0.389030
vn -0.921225 0.000000 0.389030
vn -0.921225 0.000000 0.389030
vn -0.921225 0.000000 0.389030
vn -0.921225 0.000000 0.389030
vn -0.376420 0.000000 0.926449
vn -0.376420 0.000000 0.926449
vn -0.376420 0.000000 0.926449
vn -0.376420 0.000000 0.926449
vn 0.376417 0.000000 0.926450
vn 0.376417 0.000000 0.926450
vn 0.376417 0.000000 0.926450
vn 0.376417 0.000000 0.926450
vn 0.921228 0.000000 0.389022
vn 0.921228 0.000000 0.389022
vn 0.921228 0.000000 0.389022
vn 0.921228 0.000000 0.389022
vn 0.921228 0.000000 -0.389023
vn 0.921228 0.000000 -0.389023
vn 0.921228 0.000000 -0.389023
vn 0.921228 0.000000 -0.389023
vn 0.000000 1.000000 0.000000
vn 0.000000 1.000000 0.000000
vn 0.000000 1.000000 0.000000
vn 0.000000 1.000000 0.000000
vn 0.000000 1.000000 0.000000
vn 0.000000 1.000000 0.000000
vn 0.000000 1.000000 0.000000
vn 0.000000 1.000000 0.000000
vn 0.000000 1.000000 0.000000
vn 0.000000 1.000000 0.000000
vn 0.000000 1.000000 0.000000
vn 0.000000 1.000000 0.000000
vn 0.000000 1.000000 0.000000
vn 0.000000 1.000000 0.000000
vn 0.000000 1.000000 0.000000
vn 0.000000 1.000000 0.000000
vn 0.000000 1.000000 0.000000
vn 0.000000 1.000000 0.000000
vn 0.000000 1.000000 0.000000
vn 0.000000 1.000000 0.000000
vn 0.000000 1.000000 0.000000
vn 0.000000 1.000000 0.000000
vn 0.000000 1.000000 0.000000
vn 0.000000 1.000000 0.000000
vn 0.606287 0.752906 -0.256025
vn 0.606287 0.752906 -0.256025
vn 0.606287 0.752906 -0.256025
vn 0.606287 0.752906 -0.256025
vn 0.249635 0.748451 -0.614413
vn 0.249635 0.748451 -0.614413
vn 0.249635 0.748451 -0.614413
vn 0.249635 0.748451 -0.614413
vn -0.249637 0.748452 -0.614411
vn -0.249637 0.748452 -0.614411
vn -0.249637 0.748452 -0.614411
vn -0.249637 0.748452 -0.614411
vn -0.606270 0.752922 -0.256020
vn -0.606270 0.752921 -0.256020
vn -0.606270 0.752922 -0.256020
vn -0.606270 0.752922 -0.256020
vn -0.606271 0.752920 0.256021
vn -0.606271 0.752920 0.256021
vn -0.606271 0.752920 0.256021
vn -0.606271 0.752920 0.256021
vn -0.249640 0.748445 0.614418
vn -0.249640 0.748445 0.614418
vn -0.249640 0.748445 0.614418
vn -0.249640 0.748445 0.614418
vn 0.249636 0.748447 0.614417
vn 0.249636 0.748447 0.614417
vn 0.249636 0.748447 0.614417
vn 0.249636 0.748447 0.614417
vn 0.606289 0.752905 0.256025
vn 0.606289 0.752905 0.256025
vn 0.606289 0.752905 0.256025
vn 0.606289 0.752905 0.256025
vn 0.376418 0.000000 -0.926450
vn 0.376418 0.000000 -0.926450
vn 0.376418 0.000000 -0.926450
vn 0.376418 0.000000 -0.926450
vn -0.376421 0.000000 -0.926449
vn -0.376421 0.000000 -0.926449
vn -0.376421 0.000000 -0.926449
vn -0.376421 0.000000 -0.926449
vn -0.921225 0.000000 -0.389030
vn -0.921225 0.000000 -0.389030
vn -0.921225 0.000000 -0.389030
vn -0.921225 0.000000 -0.389030
vn -0.921225 0.000000 0.389030
vn -0.921225 0.000000 0.389030
vn -0.921225 0.000000 0.389030
vn -0.921225 0.000000 0.389030
vn -0.376420 0.000000 0.926449
vn -0.376420 0.000000 0.926449
vn -0.376420 0.000000 0.926449
vn -0.376420 0.000000 0.926449
vn 0.376417 0.000000 0.926450
vn 0.376417 0.000000 0.926450
vn 0.376417 0.000000 0.926450
vn 0.376417 0.000000 0.926450
vn 0.921228 0.000000 0.389022
vn 0.921228 0.000000 0.389022
vn 0.921228 0.000000 0.389022
vn 0.921228 0.000000 0.389022
vn 0.921228 0.000000 -0.389023
vn 0.921228 0.000000 -0.389023
vn 0.921228 0.000000 -0.389023
vn 0.921228 0.000000 -0.389023
vn 0.000000 1.000000 0.000000
vn 0.000000 1.000000 0.000000
vn 0.000000 1.000000 0.000000
vn 0.000000 1.000000 0.000000
vn 0.000000 1.000000 0.000000
vn 0.000000 1.000000 0.000000
vn 0.000000 1.000000 0.000000
vn 0.000000 1.000000 0.000000
vn 0.000000 1.000000 0.000000
vn 0.000000 1.000000 0.000000
vn 0.000000 1.000000 0.000000
vn 0.000000 1.000000 0.000000
vn 0.000000 1.000000 0.000000
vn 0.000000 1.000000 0.000000
vn 0.000000 1.000000 0.000000
vn 0.000000 1.000000 0.000000
vn 0.000000 1.000000 0.000000
vn 0.000000 1.000000 0.000000
vn 0.000000 1.000000 0.000000
vn 0.000000 1.000000 0.000000
vn 0.000000 1.000000 0.000000
vn 0.000000 1.000000 0.000000
vn 0.000000 1.000000 0.000000
vn 0.000000 1.000000 0.000000
vn 0.606288 0.752905 -0.256025
vn 0.606288 0.752905 -0.256025
vn 0.606288 0.752905 -0.256025
vn 0.606288 0.752905 -0.256025
vn 0.249637 0.748448 -0.614416
vn 0.249637 0.748448 -0.614416
vn 0.249637 0.748448 -0.614416
vn 0.249637 0.748448 -0.614416
vn -0.249639 0.748449 -0.614415
vn -0.249639 0.748449 -0.614415
vn -0.249639 0.748449 -0.614415
vn -0.249639 0.748449 -0.614415
vn -0.606270 0.752921 -0.256021
vn -0.606270 0.752921 -0.256021
vn -0.606270 0.752921 -0.256021
vn -0.606270 0.752921 -0.256021
vn -0.606270 0.752921 0.256020
vn -0.606270 0.752921 0.256020
vn -0.606270 0.752921 0.256020
vn -0.606270 0.752921 0.256020
vn -0.249638 0.748450 0.614413
vn -0.249638 0.748450 0.614413
vn -0.249638 0.748450 0.614413
vn -0.249638 0.748450 0.614413
vn 0.249637 0.748448 0.614416
vn 0.249637 0.748448 0.614416
vn 0.249637 0.748448 0.614416
vn 0.249637 0.748448 0.614416
vn 0.606290 0.752904 0.256026
vn 0.606290 0.752904 0.256026
vn 0.606290 0.752904 0.256026
vn 0.606290 0.752904 0.256026
vn 0.376418 0.000000 -0.926450
vn 0.376418 0.000000 -0.926450
vn 0.376418 0.000000 -0.926450
vn 0.376418 0.000000 -0.926450
vn -0.376421 0.000000 -0.926449
vn -0.376421 0.000000 -0.926449
vn -0.376421 0.000000 -0.926449
vn -0.376421 0.000000 -0.926449
vn -0.921225 0.000000 -0.389030
vn -0.921225 0.000000 -0.389030
vn -0.921225 0.000000 -0.389030
vn -0.921225 0.000000 -0.389030
vn -0.921225 0.000000 0.389030
vn -0.921225 0.000000 0.389030
vn -0.921225 0.000000 0.389030
vn -0.921225 0.000000 0.389030
vn -0.376421 0.000000 0.926449
vn -0.376421 0.000000 0.926449
vn -0.376421 0.000000 0.926449
vn -0.376421 0.000000 0.926449
vn 0.376418 0.000000 0.926450
vn 0.376418 0.000000 0.926450
vn 0.376418 0.000000 0.926450
vn 0.376418 0.000000 0.926450
vn 0.921228 0.000000 0.389023
vn 0.921228 0.000000 0.389023
vn 0.921228 0.000000 0.389023
vn 0.921228 0.000000 0.389023
vn 0.921228 0.000000 -0.389023
vn 0.921228 0.000000 -0.389023
vn 0.921228 0.000000 -0.389023
vn 0.921228 0.000000 -0.389023
vn 0.000000 1.000000 0.000000
vn 0.000000 1.000000 0.000000
vn 0.000000 1.000000 0.000000
vn 0.000000 1.000000 0.000000
vn 0.000000 1.000000 0.000000
vn 0.000000 1.000000 0.000000
vn 0.000000 1.000000 0.000000
vn 0.000000 1.000000 0.000000
vn 0.000000 1.000000 0.000000
vn 0.000000 1.000000 0.000000
vn 0.000000 1.000000 0.000000
vn 0.000000 1.000000 0.000000
vn 0.000000 1.000000 0.000000
vn 0.000000 1.000000 0.000000
vn 0.000000 1.000000 0.000000
vn 0.000000 1.000000 0.000000
vn 0.000000 1.000000 0.000000
vn 0.000000 1.000000 0.000000
vn 0.000000 1.000000 0.000000
vn 0.000000 1.000000 0.000000
vn 0.000000 1.000000 0.000000
vn 0.000000 1.000000 0.000000
vn 0.000000 1.000000 0.000000
vn 0.000000 1.000000 0.000000
vn 0.484616 0.874727 0.000000
vn 0.484616 0.874727 0.000000
vn 0.484616 0.874727 0.000000
vn 0.484616 0.874727 0.000000
vn -0.484616 0.874727 0.000000
vn -0.484616 0.874727 0.000000
vn -0.484616 0.874727 0.000000
vn -0.484616 0.874727 0.000000
vn 0.533691 -0.845533 0.015735
vn 0.007429 -0.898874 0.438145
vn 0.254445 -0.929781 0.266018
vn 0.254445 -0.929781 0.266018
vn 0.535850 -0.844283 0.007097
vn 0.533691 -0.845533 0.015735
vn 0.535850 -0.844284 0.007097
vn 0.459071 0.763134 0.454842
vn 0.459071 0.763134 0.454842
vn 0.459071 0.763134 0.454842
vn -0.459070 0.763134 0.454841
vn -0.459070 0.763134 0.454841
vn -0.459070 0.763134 0.454841
vn 0.254445 -0.929781 0.266018
vn 0.007429 -0.898874 0.438145
vn -0.009691 -0.898837 0.438177
vn -0.006821 -0.898838 0.438228
vn -0.006821 -0.898838 0.438228
vn -0.399785 -0.826605 0.396101
vn -0.009691 -0.898837 0.438177
vn -0.423084 0.906091 0.000000
vn -0.423084 0.906091 0.000000
vn -0.423084 0.906091 0.000000
vn -0.423084 0.906091 0.000000
vn -0.435397 -0.900239 0.000000
vn -0.435397 -0.900238 0.000000
vn -0.435397 -0.900239 0.000000
vn -0.435397 -0.900239 0.000000
vn -0.261433 -0.928715 0.262949
vn -0.538566 -0.842434 0.015882
vn -0.540926 -0.841042 0.006837
vn -0.540926 -0.841042 0.006837
vn -0.007798 -0.898857 0.438173
vn -0.538566 -0.842434 0.015882
vn -0.261433 -0.928715 0.262949
vn 0.006684 -0.898879 0.438147
vn -0.007798 -0.898857 0.438173
vn 0.240141 -0.932417 0.270057
vn -0.261433 -0.928715 0.262949
vn 0.000000 -1.000000 0.000000
vn 0.000000 -1.000000 -0.000000
vn 0.000000 -1.000000 -0.000000
vn 0.000000 -1.000000 -0.000000
f 140/194/473 144/195/474 137/193/475
f 137/193/475 144/195/474 138/196/476
f 140/194/477 143/197/478 144/195/479
f 144/195/479 143/197/478 146/198/480
f 145/199/481 147/200/482 148/202/483
f 148/202/483 147/200/482 149/201/484
f 150/203/485 151/204/486 141/206/487
f 141/206/487 151/204/486 142/205/488
f 140/194/489 141/206/490 143/197/491
f 143/197/491 141/206/490 142/205/492
f 145/199/493 144/195/494 147/200/495
f 147/200/495 144/195/494 146/198/496
f 138/207/497 145/199/498 139/208/499
f 139/208/499 145/199/498 148/202/500
f 147/200/501 146/198/502 272/209/503
f 149/201/504 147/200/505 153/210/506
f 153/210/506 147/200/505 272/209/507
f 144/195/508 145/199/509 138/212/510
f 141/206/511 140/194/512 137/213/513
f 154/214/514 158/215/515 155/217/516
f 155/217/516 158/215/515 162/216/517
f 154/214/518 155/217/519 156/219/520
f 156/219/520 155/217/519 157/218/521
f 158/215/522 161/220/523 162/216/524
f 162/216/524 161/220/523 164/221/525
f 163/222/526 165/223/527 166/225/528
f 166/225/528 165/223/527 167/224/529
f 168/226/530 169/227/531 159/229/532
f 159/229/532 169/227/531 160/228/533
f 158/215/534 159/229/535 161/220/536
f 161/220/536 159/229/535 160/228/537
f 163/222/538 162/216/539 165/223/540
f 165/223/540 162/216/539 164/221/541
f 180/231/542 194/232/543 179/230/544
f 179/230/544 194/232/543 193/233/545
f 179/230/546 181/234/547 180/231/548
f 180/231/548 181/234/547 182/235/549
f 182/236/550 181/237/551 184/239/552
f 184/239/552 181/237/551 183/238/553
f 184/239/554 183/238/555 186/241/556
f 186/241/556 183/238/555 185/240/557
f 185/240/558 187/242/559 186/241/560
f 186/241/560 187/242/559 188/243/561
f 187/242/562 189/244/563 188/243/564
f 188/243/564 189/244/563 190/245/565
f 190/245/566 189/244/567 192/247/568
f 192/247/568 189/244/567 191/246/569
f 192/247/570 191/246/571 194/232/572
f 194/232/572 191/246/571 193/233/573
f 170/248/574 171/249/575 179/230/576
f 179/230/576 171/249/575 181/234/577
f 171/250/578 172/251/579 181/237/580
f 181/237/580 172/251/579 183/238/581
f 172/251/582 173/252/583 183/238/584
f 183/238/584 173/252/583 185/240/585
f 173/252/586 174/253/587 185/240/588
f 185/240/588 174/253/587 187/242/589
f 174/253/590 175/254/591 187/242/592
f 187/242/592 175/254/591 189/244/593
f 175/254/594 176/255/595 189/244/596
f 189/244/596 176/255/595 191/246/597
f 176/255/598 177/256/599 191/246/600
f 191/246/600 177/256/599 193/233/601
f 177/256/602 170/248/603 193/233/604
f 193/233/604 170/248/603 179/230/605
f 180/257/606 182/258/607 178/259/608
f 182/258/609 184/260/610 178/259/611
f 184/260/612 186/261/613 178/259/614
f 186/261/615 188/262/616 178/259/617
f 188/262/618 190/263/619 178/259/620
f 190/263/621 192/264/622 178/259/623
f 192/264/624 194/265/625 178/259/626
f 194/265/627 180/257/628 178/259/629
f 205/267/630 219/268/631 204/266/632
f 204/266/632 219/268/631 218/269/633
f 204/266/634 206/270/635 205/267/636
f 205/267/636 206/270/635 207/271/637
f 207/272/638 206/273/639 209/275/640
f 209/275/640 206/273/639 208/274/641
f 209/275/642 208/274/643 211/277/644
f 211/277/644 208/274/643 210/276/645
f 210/276/646 212/278/647 211/277/648
f 211/277/648 212/278/647 213/279/649
f 212/278/650 214/280/651 213/279/652
f 213/279/652 214/280/651 215/281/653
f 215/281/654 214/280/655 217/283/656
f 217/283/656 214/280/655 216/282/657
f 217/283/658 216/282/659 219/268/660
f 219/268/660 216/282/659 218/269/661
f 195/284/662 196/285/663 204/266/664
f 204/266/664 196/285/663 206/270/665
f 196/286/666 197/287/667 206/273/668
f 206/273/668 197/287/667 208/274/669
f 197/287/670 198/288/671 208/274/672
f 208/274/672 198/288/671 210/276/673
f 198/288/674 199/289/675 210/276/676
f 210/276/676 199/289/675 212/278/677
f 199/289/678 200/290/679 212/278/680
f 212/278/680 200/290/679 214/280/681
f 200/290/682 201/291/683 214/280/684
f 214/280/684 201/291/683 216/282/685
f 201/291/686 202/292/687 216/282/688
f 216/282/688 202/292/687 218/269/689
f 202/292/690 195/284/691 218/269/692
f 218/269/692 195/284/691 204/266/693
f 205/293/694 207/294/695 203/295/696
f 207/294/697 209/296/698 203/295/699
f 209/296/700 211/297/701 203/295/702
f 211/297/703 213/298/704 203/295/705
f 213/298/706 215/299/707 203/295/708
f 215/299/709 217/300/710 203/295/711
f 217/300/712 219/301/713 203/295/714
f 219/301/715 205/293/716 203/295/717
f 230/303/718 244/304/719 229/302/720
f 229/302/720 244/304/719 243/305/721
f 229/302/722 231/306/723 230/303/724
f 230/303/724 231/306/723 232/307/725
f 232/308/726 231/309/727 234/311/728
f 234/311/728 231/309/727 233/310/729
f 234/311/730 233/310/731 236/313/732
f 236/313/732 233/310/731 235/312/733
f 235/312/734 237/314/735 236/313/736
f 236/313/736 237/314/735 238/315/737
f 237/314/738 239/316/739 238/315/740
f 238/315/740 239/316/739 240/317/741
f 240/317/742 239/316/743 242/319/744
f 242/319/744 239/316/743 241/318/745
f 242/319/746 241/318/747 244/304/748
f 244/304/748 241/318/747 243/305/749
f 220/320/750 221/321/751 229/302/752
f 229/302/752 221/321/751 231/306/753
f 221/322/754 222/323/755 231/309/756
f 231/309/756 222/323/755 233/310/757
f 222/323/758 223/324/759 233/310/760
f 233/310/760 223/324/759 235/312/761
f 223/324/762 224/325/763 235/312/764
f 235/312/764 224/325/763 237/314/765
f 224/325/766 225/326/767 237/314/768
f 237/314/768 225/326/767 239/316/769
f 225/326/770 226/327/771 239/316/772
f 239/316/772 226/327/771 241/318/773
f 226/327/774 227/328/775 241/318/776
f 241/318/776 227/328/775 243/305/777
f 227/328/778 220/320/779 243/305/780
f 243/305/780 220/320/779 229/302/781
f 230/329/782 232/330/783 228/331/784
f 232/330/785 234/332/786 228/331/787
f 234/332/788 236/333/789 228/331/790
f 236/333/791 238/334/792 228/331/793
f 238/334/794 240/335/795 228/331/796
f 240/335/797 242/336/798 228/331/799
f 242/336/800 244/337/801 228/331/802
f 244/337/803 230/329/804 228/331/805
f 255/339/806 269/340/807 254/338/808
f 254/338/808 269/340/807 268/341/809
f 254/338/810 256/342/811 255/339/812
f 255/339/812 256/342/811 257/343/813
f 257/344/814 256/345/815 259/347/816
f 259/347/816 256/345/815 258/346/817
f 259/347/818 258/346/819 261/349/820
f 261/349/820 258/346/819 260/348/821
f 260/348/822 262/350/823 261/349/824
f 261/349/824 262/350/823 263/351/825
f 262/350/826 264/352/827 263/351/828
f 263/351/828 264/352/827 265/353/829
f 265/353/830 264/352/831 267/355/832
f 267/355/832 264/352/831 266/354/833
f 267/355/834 266/354/835 269/340/836
f 269/340/836 266/354/835 268/341/837
f 245/356/838 246/357/839 254/338/840
f 254/338/840 246/357/839 256/342/841
f 246/358/842 247/359/843 256/345/844
f 256/345/844 247/359/843 258/346/845
f 247/359/846 248/360/847 258/346/848
f 258/346/848 248/360/847 260/348/849
f 248/360/850 249/361/851 260/348/852
f 260/348/852 249/361/851 262/350/853
f 249/361/854 250/362/855 262/350/856
f 262/350/856 250/362/855 264/352/857
f 250/362/858 251/363/859 264/352/860
f 264/352/860 251/363/859 266/354/861
f 251/363/862 252/364/863 266/354/864
f 266/354/864 252/364/863 268/341/865
f 252/364/866 245/356/867 268/341/868
f 268/341/868 245/356/867 254/338/869
f 255/365/870 257/366/871 253/367/872
f 257/366/873 259/368/874 253/367/875
f 259/368/876 261/369/877 253/367/878
f 261/369/879 263/370/880 253/367/881
f 263/370/882 265/371/883 253/367/884
f 265/371/885 267/372/886 253/367/887
f 267/372/888 269/373/889 253/367/890
f 269/373/891 255/365/892 253/367/893
f 155/217/894 163/222/895 157/374/896
f 157/374/896 163/222/895 166/225/897
f 159/229/898 154/214/899 168/226/900
f 168/226/900 154/214/899 156/375/901
f 165/223/902 164/221/903 138/376/904
f 138/376/905 139/377/906 165/223/907
f 165/223/907 139/377/906 167/224/908
f 162/216/909 163/222/910 155/217/911
f 159/229/912 158/215/913 154/214/914
f 138/376/915 164/221/916 137/378/917
f 137/378/917 164/221/916 161/220/918
f 161/220/919 160/228/920 137/378/921
f 150/203/922 141/206/923 270/380/924
f 270/380/924 141/206/923 137/379/925
f 160/228/926 169/227/927 137/378/928
f 137/378/928 169/227/927 270/381/929
f 271/211/930 142/205/931 152/382/932
f 152/382/932 142/205/931 151/204/933
f 143/197/934 142/205/935 271/211/936
f 146/198/937 143/197/938 272/209/939
f 272/209/939 143/197/938 271/211/940
f 271/211/941 152/384/942 272/209/943
f 272/209/943 152/384/942 153/383/944
