# This file uses centimeters as units for non-parametric coordinates.

v 0.850575 -0.442581 -0.126158
v 0.770143 -0.442581 -0.236864
v 0.651635 -0.442581 -0.305284
v 0.515545 -0.442581 -0.319588
v 0.385402 -0.442581 -0.277302
v 0.283710 -0.442581 -0.185738
v 0.228053 -0.442581 -0.060728
v 0.228053 -0.442581 0.076112
v 0.283709 -0.442581 0.201122
v 0.385401 -0.442581 0.292686
v 0.515545 -0.442581 0.334972
v 0.651635 -0.442581 0.320668
v 0.770143 -0.442581 0.252248
v 0.850575 -0.442581 0.141542
v 0.879026 -0.442581 0.007692
v 0.760408 -0.054910 -0.085527
v 0.704391 -0.054910 -0.162628
v 0.621858 -0.054910 -0.210279
v 0.527078 -0.054910 -0.220240
v 0.436441 -0.054910 -0.190791
v 0.365619 -0.054910 -0.127021
v 0.326856 -0.054910 -0.039959
v 0.326856 -0.054910 0.055343
v 0.365619 -0.054910 0.142405
v 0.436441 -0.054910 0.206174
v 0.527078 -0.054910 0.235624
v 0.621858 -0.054910 0.225662
v 0.704391 -0.054910 0.178012
v 0.760408 -0.054910 0.100911
v 0.780223 -0.054910 0.007692
v 0.551035 -0.054910 0.007692
v 0.827322 -0.443156 -0.119760
v 0.752556 -0.443156 -0.221706
v 0.642789 -0.443156 -0.284429
v 0.517001 -0.443156 -0.297082
v 0.396940 -0.443156 -0.257479
v 0.303368 -0.443156 -0.172466
v 0.252463 -0.443156 -0.056744
v 0.501884 -2.453655 0.465044
v 0.694626 -2.453732 0.444261
v 0.862247 -2.453799 0.346885
v 0.975771 -2.453844 0.189758
v 1.015576 -2.453860 0.000045
v 0.898153 -1.903564 -0.390273
v 0.708257 -1.903564 -0.498205
v 0.490879 -1.903564 -0.519569
v 0.283604 -1.903564 -0.450671
v 0.122274 -1.903564 -0.303422
v 0.034782 -1.903564 -0.103285
v 0.036258 -1.903564 0.115136
v 0.126445 -1.903564 0.314073
v 0.289750 -1.903564 0.459128
v 0.497938 -1.903564 0.525221
v 0.715007 -1.903564 0.500922
v 0.903427 -1.903564 0.390434
v 1.030617 -1.903564 0.212861
v 1.074587 -1.903564 -0.001093
v 1.027732 -1.903564 -0.214434
v 0.253027 -0.443156 0.069678
v 0.304964 -0.443156 0.184941
v 0.399291 -0.443156 0.269114
v 0.519700 -0.443156 0.307644
v 0.645371 -0.443156 0.293868
v 0.754573 -0.443156 0.230168
v 0.828427 -0.443156 0.127559
v 0.854159 -0.443156 0.003782
v 0.996680 -4.000024 -0.198900
v 0.877158 -4.000024 -0.363408
v 0.701057 -4.000024 -0.465080
v 0.498828 -4.000024 -0.486336
v 0.305436 -4.000024 -0.423499
v 0.154322 -4.000024 -0.287436
v 0.071615 -4.000024 -0.101672
v 0.071615 -4.000024 0.101672
v 0.154322 -4.000024 0.287436
v 0.305436 -4.000024 0.423499
v 0.498828 -4.000024 0.486336
v 0.701057 -4.000024 0.465080
v 0.877158 -4.000024 0.363409
v 0.996680 -4.000024 0.198900
v 1.038958 -4.000024 0.000000
v 0.782345 -3.227072 -0.102326
v 0.720872 -3.227072 -0.186956
v 0.630279 -3.227072 -0.239261
v 0.526241 -3.227072 -0.250182
v 0.426758 -3.227072 -0.217857
v 0.349014 -3.227072 -0.147868
v 0.306472 -3.227072 -0.052305
v 0.306472 -3.227072 0.052305
v 0.349014 -3.227072 0.147868
v 0.426758 -3.227072 0.217857
v 0.526241 -3.227072 0.250182
v 0.630279 -3.227072 0.239261
v 0.720872 -3.227072 0.186956
v 0.782345 -3.227072 0.102326
v 0.804101 -3.227072 0.000000
v 0.549943 -4.000024 0.000000
v 0.996680 -2.454121 -0.198900
v 0.877158 -2.454121 -0.363408
v 0.701057 -2.454121 -0.465080
v 0.498828 -2.454121 -0.486336
v 0.305436 -2.454121 -0.423499
v 0.154322 -2.454121 -0.287436
v 0.071615 -2.454121 -0.101672
v 0.071615 -2.454121 0.101672
v 0.154322 -2.454121 0.287436
v 0.305436 -2.454121 0.423499
v 0.498828 -2.454121 0.486336
v 0.701057 -2.454121 0.465080
v 0.877158 -2.454121 0.363409
v 0.996680 -2.454121 0.198900
v 1.038958 -2.454121 0.000000
v 0.974785 -2.453844 -0.189458
v 0.860445 -2.453799 -0.345993
v 0.692321 -2.453732 -0.442496
v 0.499473 -2.453655 -0.462276
v 0.315245 -2.453581 -0.401905
v 0.171498 -2.453524 -0.271815
v 0.093095 -2.453493 -0.094497
v 0.093599 -2.453493 0.099382
v 0.172922 -2.453524 0.276290
v 0.317344 -2.453581 0.405631
vt 0.534496 0.910124
vt 0.576138 0.910124
vt 0.575820 0.991416
vt 0.533967 0.991416
vt 0.617716 0.991416
vt 0.047205 0.910124
vt 0.047432 0.991416
vt 0.088386 0.910124
vt 0.088842 0.991416
vt 0.129225 0.910124
vt 0.129825 0.991416
vt 0.169725 0.910124
vt 0.170362 0.991416
vt 0.209942 0.910124
vt 0.210511 0.991416
vt 0.249979 0.910124
vt 0.250388 0.991416
vt 0.289962 0.910124
vt 0.290146 0.991416
vt 0.330023 0.910124
vt 0.329951 0.991416
vt 0.370287 0.910124
vt 0.369968 0.991416
vt 0.410848 0.910124
vt 0.410328 0.991416
vt 0.451753 0.910124
vt 0.451118 0.991416
vt 0.492993 0.910124
vt 0.492353 0.991416
vt 0.535613 0.853875
vt 0.577097 0.853875
vt 0.047614 0.853875
vt 0.088507 0.853875
vt 0.129119 0.853875
vt 0.169487 0.853875
vt 0.209687 0.853875
vt 0.249820 0.853875
vt 0.289995 0.853875
vt 0.330318 0.853875
vt 0.370871 0.853875
vt 0.411701 0.853875
vt 0.452808 0.853875
vt 0.494143 0.853875
vt 0.577355 0.396104
vt 0.618489 0.521378
vt 0.577510 0.521378
vt 0.046947 0.396137
vt 0.047277 0.521378
vt 0.087475 0.396154
vt 0.087917 0.521378
vt 0.127870 0.396167
vt 0.128419 0.521378
vt 0.168203 0.396174
vt 0.168832 0.521378
vt 0.208551 0.396174
vt 0.209224 0.521378
vt 0.248991 0.396167
vt 0.249662 0.521378
vt 0.289585 0.396154
vt 0.290209 0.521378
vt 0.330370 0.396137
vt 0.330909 0.521378
vt 0.371352 0.396120
vt 0.371781 0.521378
vt 0.412501 0.396104
vt 0.412815 0.521378
vt 0.453758 0.396094
vt 0.453971 0.521378
vt 0.495042 0.396090
vt 0.495188 0.521378
vt 0.536265 0.396094
vt 0.536392 0.521378
vt 0.536160 0.028031
vt 0.577138 0.028031
vt 0.577403 0.204012
vt 0.536601 0.204012
vt 0.617978 0.204012
vt 0.046513 0.028031
vt 0.046343 0.204012
vt 0.086971 0.028031
vt 0.086610 0.204012
vt 0.127340 0.028031
vt 0.126851 0.204012
vt 0.167692 0.028031
vt 0.167154 0.204012
vt 0.208103 0.028031
vt 0.207609 0.204012
vt 0.248640 0.028031
vt 0.248272 0.204012
vt 0.289348 0.028031
vt 0.289173 0.204012
vt 0.330246 0.028031
vt 0.330297 0.204012
vt 0.371319 0.028031
vt 0.371592 0.204012
vt 0.412522 0.028031
vt 0.412967 0.204012
vt 0.453784 0.028031
vt 0.454319 0.204012
vt 0.495023 0.028031
vt 0.495558 0.204012
vt 0.536160 0.379992
vt 0.577138 0.379992
vt 0.617928 0.379992
vt 0.046513 0.379992
vt 0.086971 0.379992
vt 0.127340 0.379992
vt 0.167692 0.379992
vt 0.208103 0.379992
vt 0.248640 0.379992
vt 0.289348 0.379992
vt 0.330246 0.379992
vt 0.371319 0.379992
vt 0.412522 0.379992
vt 0.453784 0.379992
vt 0.495023 0.379992
vt 0.659227 0.910124
vt 0.659453 0.991416
vt 0.617765 0.910124
vt 0.659635 0.853875
vt 0.618261 0.396120
vt 0.658968 0.396137
vt 0.659298 0.521378
vt 0.618471 0.853875
vt 0.617928 0.028031
vt 0.658534 0.028031
vt 0.658364 0.204012
vt 0.658534 0.379992
vt 0.895232 0.846880
vt 0.832820 0.860219
vt 0.832820 0.705929
vt 0.946852 0.809169
vt 0.978755 0.753607
vt 0.985425 0.689801
vt 0.965707 0.628783
vt 0.923013 0.581105
vt 0.864723 0.555010
vt 0.800917 0.555009
vt 0.742627 0.581105
vt 0.699932 0.628783
vt 0.680215 0.689801
vt 0.686884 0.753607
vt 0.718788 0.809169
vt 0.770408 0.846880
vt 0.829500 0.183292
vt 0.858446 0.189479
vt 0.830106 0.252487
vt 0.882387 0.206969
vt 0.897184 0.232738
vt 0.900277 0.262331
vt 0.891132 0.290630
vt 0.871331 0.312743
vt 0.844296 0.324846
vt 0.814704 0.324846
vt 0.787669 0.312744
vt 0.767868 0.290631
vt 0.758723 0.262331
vt 0.761816 0.232738
vt 0.776613 0.206969
vt 0.800554 0.189479
vn 0.885135 0.247191 -0.394250
vn 0.648059 0.247817 -0.720143
vn 0.648447 0.247816 -0.719795
vn 0.885251 0.247190 -0.393990
vn 0.298977 0.248739 -0.921272
vn 0.299612 0.248737 -0.921066
vn -0.101572 0.249797 -0.962956
vn -0.100880 0.249795 -0.963030
vn -0.484291 0.250807 -0.838187
vn -0.483766 0.250806 -0.838491
vn -0.783119 0.251596 -0.568703
vn -0.782878 0.251595 -0.569036
vn -0.946589 0.252027 -0.201126
vn -0.946559 0.252027 -0.201268
vn -0.946589 0.252027 0.201126
vn -0.946559 0.252027 0.201268
vn -0.783119 0.251597 0.568703
vn -0.782878 0.251596 0.569036
vn -0.484291 0.250808 0.838187
vn -0.483766 0.250806 0.838491
vn -0.101573 0.249797 0.962956
vn -0.100880 0.249795 0.963029
vn 0.298977 0.248739 0.921272
vn 0.299612 0.248738 0.921066
vn 0.648059 0.247817 0.720143
vn 0.648447 0.247816 0.719795
vn 0.885135 0.247191 0.394250
vn 0.885251 0.247190 0.393990
vn 0.969024 0.246969 0.000000
vn 0.969024 0.246969 -0.000000
vn 0.000000 1.000000 0.000000
vn 0.000000 1.000000 0.000000
vn 0.000000 1.000000 -0.000001
vn 0.000000 1.000000 -0.000001
vn 0.000000 1.000000 -0.000001
vn 0.000000 1.000000 0.000000
vn 0.000000 1.000000 0.000000
vn 0.000000 1.000000 0.000000
vn 0.000000 1.000000 -0.000003
vn 0.000000 1.000000 -0.000003
vn 0.000000 1.000000 0.000000
vn 0.000000 1.000000 0.000001
vn 0.000000 1.000000 -0.000000
vn 0.000000 1.000000 -0.000001
vn 0.000000 1.000000 0.000000
vn 0.000000 1.000000 0.000000
vn 0.016984 -0.999690 -0.018206
vn 0.022160 -0.999711 -0.009303
vn 0.021834 -0.999709 -0.010264
vn 0.016368 -0.999689 -0.018839
vn 0.008135 -0.999677 -0.024091
vn 0.007547 -0.999676 -0.024298
vn -0.002559 -0.999676 -0.025345
vn -0.002852 -0.999676 -0.025308
vn -0.012571 -0.999687 -0.021636
vn -0.012562 -0.999687 -0.021642
vn -0.019687 -0.999707 -0.014076
vn -0.019576 -0.999707 -0.014264
vn -0.022754 -0.999730 -0.004610
vn -0.022723 -0.999730 -0.004902
vn -0.021735 -0.999752 0.004819
vn -0.021811 -0.999752 0.004579
vn -0.017314 -0.999769 0.012726
vn -0.017392 -0.999769 0.012633
vn -0.010479 -0.999780 0.018176
vn -0.010423 -0.999780 0.018205
vn -0.002278 -0.999784 0.020664
vn -0.002004 -0.999784 0.020692
vn 0.006247 -0.999781 0.019976
vn 0.006726 -0.999781 0.019838
vn 0.014044 -0.999771 0.016120
vn 0.014605 -0.999770 0.015678
vn 0.020013 -0.999756 0.009398
vn 0.020450 -0.999754 0.008617
vn 0.023036 -0.999735 0.000511
vn 0.023137 -0.999732 -0.000493
vn 0.662173 -0.105087 -0.741946
vn 0.303282 -0.104693 -0.947132
vn 0.302676 0.072319 -0.950346
vn 0.663059 0.071801 -0.745116
vn -0.108051 -0.104658 -0.988621
vn -0.110000 0.072543 -0.991281
vn -0.500717 -0.104988 -0.859221
vn -0.503653 0.072434 -0.860864
vn -0.806817 -0.105627 -0.581282
vn -0.810258 0.072011 -0.581632
vn -0.973405 -0.106464 -0.202851
vn -0.976819 0.071346 -0.201826
vn -0.971653 -0.107353 0.210630
vn -0.974518 0.070555 0.212924
vn -0.801857 -0.108143 0.587649
vn -0.803710 0.069775 0.590917
vn -0.493380 -0.108694 0.862996
vn -0.493889 0.069140 0.866772
vn -0.099587 -0.108913 0.989050
vn -0.098621 0.068760 0.992747
vn 0.311417 -0.108762 0.944029
vn 0.313726 0.068701 0.947025
vn 0.668559 -0.108265 0.735736
vn 0.671808 0.068974 0.737507
vn 0.910097 -0.107511 0.400205
vn 0.913677 0.069530 0.400450
vn 0.994289 -0.106629 -0.004542
vn 0.997511 0.070275 -0.005822
vn 0.906592 -0.105772 -0.408538
vn 0.908846 0.071078 -0.411032
vn 0.300125 0.151320 -0.941821
vn 0.657359 0.150759 -0.738344
vn -0.108984 0.151616 -0.982413
vn -0.499234 0.151597 -0.853102
vn -0.803156 0.151266 -0.576246
vn -0.968201 0.150679 -0.199708
vn -0.965827 0.149939 0.211413
vn -0.796439 0.149174 0.586031
vn -0.489317 0.148515 0.859367
vn -0.097568 0.148076 0.984151
vn 0.311071 0.147935 0.938803
vn 0.665931 0.148114 0.731162
vn 0.905652 0.148583 0.397138
vn 0.988782 0.149261 -0.005511
vn 0.900953 0.150031 -0.407155
vn 0.873953 0.290973 -0.389282
vn 0.639812 0.291687 -0.711028
vn 0.640264 0.291685 -0.710621
vn 0.874088 0.290972 -0.388980
vn 0.295078 0.292745 -0.909521
vn 0.295814 0.292742 -0.909283
vn -0.100347 0.293963 -0.950535
vn -0.099545 0.293960 -0.950620
vn -0.478038 0.295122 -0.827274
vn -0.477427 0.295121 -0.827628
vn -0.772899 0.296025 -0.561246
vn -0.772618 0.296024 -0.561633
vn -0.934178 0.296518 -0.198466
vn -0.934143 0.296518 -0.198631
vn -0.934178 0.296518 0.198466
vn -0.934143 0.296518 0.198631
vn -0.772899 0.296025 0.561246
vn -0.772618 0.296024 0.561633
vn -0.478038 0.295122 0.827274
vn -0.477427 0.295120 0.827628
vn -0.100348 0.293963 0.950535
vn -0.099545 0.293960 0.950620
vn 0.295078 0.292745 0.909522
vn 0.295814 0.292742 0.909283
vn 0.639811 0.291687 0.711028
vn 0.640263 0.291685 0.710621
vn 0.873953 0.290973 0.389281
vn 0.874088 0.290972 0.388980
vn 0.956807 0.290725 -0.000000
vn 0.956807 0.290725 0.000000
vn 0.000000 -1.000000 0.000000
vn 0.000000 -1.000000 0.000000
vn 0.000000 -1.000000 0.000000
vn 0.000000 -1.000000 0.000000
vn 0.000000 -1.000000 0.000000
vn 0.000000 -1.000000 0.000000
vn 0.000000 -1.000000 0.000000
vn 0.000000 -1.000000 0.000000
vn 0.000000 -1.000000 0.000000
vn 0.000000 -1.000000 0.000000
vn 0.000000 -1.000000 0.000000
vn 0.000000 -1.000000 0.000000
vn 0.000000 -1.000000 0.000000
vn 0.000000 -1.000000 0.000000
vn 0.000000 -1.000000 -0.000000
vn 0.000000 -1.000000 -0.000000
vn 0.873953 -0.290973 -0.389282
vn 0.874088 -0.290973 -0.388980
vn 0.640264 -0.291685 -0.710621
vn 0.639812 -0.291687 -0.711028
vn 0.295814 -0.292743 -0.909283
vn 0.295078 -0.292745 -0.909521
vn -0.099545 -0.293960 -0.950620
vn -0.100347 -0.293963 -0.950535
vn -0.477426 -0.295121 -0.827628
vn -0.478038 -0.295123 -0.827274
vn -0.772618 -0.296024 -0.561633
vn -0.772899 -0.296025 -0.561246
vn -0.934143 -0.296518 -0.198631
vn -0.934178 -0.296519 -0.198466
vn -0.934143 -0.296519 0.198631
vn -0.934178 -0.296519 0.198466
vn -0.772618 -0.296025 0.561633
vn -0.772899 -0.296025 0.561246
vn -0.477427 -0.295121 0.827628
vn -0.478038 -0.295123 0.827274
vn -0.099545 -0.293960 0.950620
vn -0.100347 -0.293963 0.950535
vn 0.295814 -0.292743 0.909283
vn 0.295078 -0.292745 0.909521
vn 0.640263 -0.291685 0.710621
vn 0.639811 -0.291687 0.711028
vn 0.874088 -0.290973 0.388980
vn 0.873954 -0.290973 0.389281
vn 0.956807 -0.290725 0.000000
vn 0.956807 -0.290725 0.000000
vn 0.010864 0.999929 -0.004894
vn 0.009018 0.999908 -0.010102
vn 0.008960 0.999908 -0.010220
vn 0.010855 0.999929 -0.004936
vn 0.004961 0.999870 -0.015335
vn 0.004759 0.999868 -0.015519
vn -0.001950 0.999814 -0.019166
vn -0.002388 0.999811 -0.019297
vn -0.011108 0.999746 -0.019609
vn -0.011747 0.999741 -0.019482
vn -0.020396 0.999676 -0.015206
vn -0.021008 0.999672 -0.014680
vn -0.026788 0.999622 -0.006121
vn -0.027072 0.999619 -0.005291
vn -0.027683 0.999602 0.005403
vn -0.027501 0.999602 0.006218
vn -0.022407 0.999625 0.015719
vn -0.021927 0.999628 0.016207
vn -0.012857 0.999686 0.021506
vn -0.012401 0.999689 0.021619
vn -0.002553 0.999765 0.021543
vn -0.002311 0.999767 0.021473
vn 0.005376 0.999838 0.017168
vn 0.005438 0.999839 0.017108
vn 0.009763 0.999892 0.011005
vn 0.009763 0.999892 0.011004
vn 0.011358 0.999923 0.005099
vn 0.011356 0.999922 0.005119
vn 0.011505 0.999934 -0.000017
vn 0.011505 0.999934 -0.000015
f 1/1/1 2/2/2 17/3/3 16/4/4
f 2/2/2 3/119/5 18/5/6 17/3/3
f 3/119/5 4/117/7 19/118/8 18/5/6
f 4/6/7 5/8/9 20/9/10 19/7/8
f 5/8/9 6/10/11 21/11/12 20/9/10
f 6/10/11 7/12/13 22/13/14 21/11/12
f 7/12/13 8/14/15 23/15/16 22/13/14
f 8/14/15 9/16/17 24/17/18 23/15/16
f 9/16/17 10/18/19 25/19/20 24/17/18
f 10/18/19 11/20/21 26/21/22 25/19/20
f 11/20/21 12/22/23 27/23/24 26/21/22
f 12/22/23 13/24/25 28/25/26 27/23/24
f 13/24/25 14/26/27 29/27/28 28/25/26
f 14/26/27 15/28/29 30/29/30 29/27/28
f 15/28/29 1/1/1 16/4/4 30/29/30
f 16/145/31 17/146/32 31/147/33
f 17/146/32 18/148/34 31/147/33
f 18/148/34 19/149/35 31/147/33
f 19/149/35 20/150/36 31/147/33
f 20/150/36 21/151/37 31/147/33
f 21/151/37 22/152/38 31/147/33
f 22/152/38 23/153/39 31/147/33
f 23/153/39 24/154/40 31/147/33
f 24/154/40 25/155/41 31/147/33
f 25/155/41 26/156/42 31/147/33
f 26/156/42 27/157/43 31/147/33
f 27/157/43 28/158/44 31/147/33
f 28/158/44 29/159/45 31/147/33
f 29/159/45 30/160/46 31/147/33
f 30/160/46 16/145/31 31/147/33
f 2/2/47 1/1/48 32/30/49 33/31/50
f 3/119/51 2/2/47 33/31/50 34/124/52
f 4/117/53 3/119/51 34/124/52 35/120/54
f 5/8/55 4/6/53 35/32/54 36/33/56
f 6/10/57 5/8/55 36/33/56 37/34/58
f 7/12/59 6/10/57 37/34/58 38/35/60
f 8/14/61 7/12/59 38/35/60 59/36/62
f 9/16/63 8/14/61 59/36/62 60/37/64
f 10/18/65 9/16/63 60/37/64 61/38/66
f 11/20/67 10/18/65 61/38/66 62/39/68
f 12/22/69 11/20/67 62/39/68 63/40/70
f 13/24/71 12/22/69 63/40/70 64/41/72
f 14/26/73 13/24/71 64/41/72 65/42/74
f 15/28/75 14/26/73 65/42/74 66/43/76
f 1/1/48 15/28/75 66/43/76 32/30/49
f 114/44/77 115/121/78 45/45/79 44/46/80
f 115/121/78 116/122/81 46/123/82 45/45/79
f 116/47/81 117/49/83 47/50/84 46/48/82
f 117/49/83 118/51/85 48/52/86 47/50/84
f 118/51/85 119/53/87 49/54/88 48/52/86
f 119/53/87 120/55/89 50/56/90 49/54/88
f 120/55/89 121/57/91 51/58/92 50/56/90
f 121/57/91 122/59/93 52/60/94 51/58/92
f 122/59/93 39/61/95 53/62/96 52/60/94
f 39/61/95 40/63/97 54/64/98 53/62/96
f 40/63/97 41/65/99 55/66/100 54/64/98
f 41/65/99 42/67/101 56/68/102 55/66/100
f 42/67/101 43/69/103 57/70/104 56/68/102
f 43/69/103 113/71/105 58/72/106 57/70/104
f 113/71/105 114/44/77 44/46/80 58/72/106
f 44/46/80 45/45/79 34/124/107 33/31/108
f 45/45/79 46/123/82 35/120/109 34/124/107
f 46/48/82 47/50/84 36/33/110 35/32/109
f 47/50/84 48/52/86 37/34/111 36/33/110
f 48/52/86 49/54/88 38/35/112 37/34/111
f 49/54/88 50/56/90 59/36/113 38/35/112
f 50/56/90 51/58/92 60/37/114 59/36/113
f 51/58/92 52/60/94 61/38/115 60/37/114
f 52/60/94 53/62/96 62/39/116 61/38/115
f 53/62/96 54/64/98 63/40/117 62/39/116
f 54/64/98 55/66/100 64/41/118 63/40/117
f 55/66/100 56/68/102 65/42/119 64/41/118
f 56/68/102 57/70/104 66/43/120 65/42/119
f 57/70/104 58/72/106 32/30/121 66/43/120
f 58/72/106 44/46/80 33/31/108 32/30/121
f 67/73/122 68/74/123 83/75/124 82/76/125
f 68/74/123 69/125/126 84/77/127 83/75/124
f 69/125/126 70/126/128 85/127/129 84/77/127
f 70/78/128 71/80/130 86/81/131 85/79/129
f 71/80/130 72/82/132 87/83/133 86/81/131
f 72/82/132 73/84/134 88/85/135 87/83/133
f 73/84/134 74/86/136 89/87/137 88/85/135
f 74/86/136 75/88/138 90/89/139 89/87/137
f 75/88/138 76/90/140 91/91/141 90/89/139
f 76/90/140 77/92/142 92/93/143 91/91/141
f 77/92/142 78/94/144 93/95/145 92/93/143
f 78/94/144 79/96/146 94/97/147 93/95/145
f 79/96/146 80/98/148 95/99/149 94/97/147
f 80/98/148 81/100/150 96/101/151 95/99/149
f 81/100/150 67/73/122 82/76/125 96/101/151
f 68/129/152 67/130/153 97/131/154
f 69/132/155 68/129/152 97/131/154
f 70/133/156 69/132/155 97/131/154
f 71/134/157 70/133/156 97/131/154
f 72/135/158 71/134/157 97/131/154
f 73/136/159 72/135/158 97/131/154
f 74/137/160 73/136/159 97/131/154
f 75/138/161 74/137/160 97/131/154
f 76/139/162 75/138/161 97/131/154
f 77/140/163 76/139/162 97/131/154
f 78/141/164 77/140/163 97/131/154
f 79/142/165 78/141/164 97/131/154
f 80/143/166 79/142/165 97/131/154
f 81/144/167 80/143/166 97/131/154
f 67/130/153 81/144/167 97/131/154
f 98/102/168 82/76/169 83/75/170 99/103/171
f 99/103/171 83/75/170 84/77/172 100/104/173
f 100/104/173 84/77/172 85/127/174 101/128/175
f 101/105/175 85/79/174 86/81/176 102/106/177
f 102/106/177 86/81/176 87/83/178 103/107/179
f 103/107/179 87/83/178 88/85/180 104/108/181
f 104/108/181 88/85/180 89/87/182 105/109/183
f 105/109/183 89/87/182 90/89/184 106/110/185
f 106/110/185 90/89/184 91/91/186 107/111/187
f 107/111/187 91/91/186 92/93/188 108/112/189
f 108/112/189 92/93/188 93/95/190 109/113/191
f 109/113/191 93/95/190 94/97/192 110/114/193
f 110/114/193 94/97/192 95/99/194 111/115/195
f 111/115/195 95/99/194 96/101/196 112/116/197
f 112/116/197 96/101/196 82/76/169 98/102/168
f 98/102/198 99/103/199 114/44/200 113/71/201
f 99/103/199 100/104/202 115/121/203 114/44/200
f 100/104/202 101/128/204 116/122/205 115/121/203
f 101/105/204 102/106/206 117/49/207 116/47/205
f 102/106/206 103/107/208 118/51/209 117/49/207
f 103/107/208 104/108/210 119/53/211 118/51/209
f 104/108/210 105/109/212 120/55/213 119/53/211
f 105/109/212 106/110/214 121/57/215 120/55/213
f 106/110/214 107/111/216 122/59/217 121/57/215
f 107/111/216 108/112/218 39/61/219 122/59/217
f 108/112/218 109/113/220 40/63/221 39/61/219
f 109/113/220 110/114/222 41/65/223 40/63/221
f 110/114/222 111/115/224 42/67/225 41/65/223
f 111/115/224 112/116/226 43/69/227 42/67/225
f 112/116/226 98/102/198 113/71/201 43/69/227
