--------------------------------------------------------------------------------------------------------------------------------------------------------------------------------------------------------------------------------------------------------------------------------------------------------------------------------------------------------------------------------------------------------------------------------------------------------
--------------------------------------------------------------------------------------------------------------------------------------------------------------------------------------------------------------------------------------------------------------------------------------------------------------------------------------------------------------------------------------------------------------------------------------------------------
XXXXXXXXXXXXXXXXXXXXXXXXXXXXXXXXXXXXXXXXXXXXXXXXXXXXXXXXXXXXXXXXXXX-------------------------------------------XXXXXXXXXXXXXXXXX--------------------------------XXXXXXXXXXX----------XXXXXX--------------XXXXXXXXXXXXXX----XXXXXXXXXXXX---------------------------------------------------XXXXXXXXXX---------------------------------------------------------XXXXXXX-------------------------------------------------------------------------------------
=-=-=-=-=-=-=-=-=-=-=-=-=-=-=-=-=-=-=-=-=-=-=-=-=-=-=-=-d-=-=-=-=-X------------------------------------------XXX=-=-=-=-=-=-=-X-----------------------------XXXX=-=-=D=-=X----------X----XX------------XX-------------XXXX-----------XX-----------------------------------------XXXXXXXXXX--------XX-----------------XXXXXXXXXX-------------------------XXXXX-----XX------------------------------------------------------------------------------------
=-=-=-=-=-=-=-=-=-=-=-=-=-=-=-=-=-=-=-=-=-=-=-=-=-=-=-=-d-=-=-=-=-XXXXXXXXXXXXXXXXXX----------------------XXXX=-=-=-=-=-=-=-d-XX---------XXXXXX----------XXXX-=-=-=-=-d-=XX------XXXX-----XXX--------XXX----------------D-------------XXXXX-------------------------------------X-----D------------XXXX--------------X--------XX---------------------XXXX----------XX-----------------------------------------------------------------------------------
=-=-=-=-=-=-=-=-=-=-=-=-=-=-=-=-=-=-=-=-=-=-=XXXXXXXXXXXX-=-=-=-=-=-=-=-=-=-=-=-=-=XXXXXXXXXXXX--------XXXX-=-=-=-=XXXX-=-=-=-=XX-------XX=-=-XXXX------XX=-=-=-=-=-=-=-=--XX-XXXX----------XXX------X------------------------------------XXXXX-XXXXXXXXXXXXXXX---------XXXXXXXXX---------------------XXX-------XXXXXX---------XX-------------------XX----------D---XXX---------------------------------------------------------------------------------
=-=-=-=-=-=-=-=-=-=-=-=-=-=-=-=-=-=-=-=-=-=-=X----------XX=-=-=-=-=-=-=-=D=-=-=-=-=-=-=-=-=-=-XXX---XXXX=-=-=-=-=XXX--X-=-=-=-=-XXXXXX-XX-=-=-=-=XXX---XX-=-=-=-=-=-=-=-=---XXX---------------XX-----X-------------A--XXXX------------D-------XXX-------------XXXXXXXXXXX----------------XX-------------XXXXXXXXX---------------XX-----------------XX--------D--------XXXXXXXXXXXXXXXXXXXXXXXXXXXXXXXXXXXXXXXXXXXXXXXXXXXXXXXXXXXXXXXXXXXXXXXXXXXXXXXXXX
=-=-=-=-=-=-=-=-=-=-=-=-=-=-=-=-=-=-=-XXXXXXXX-----------XX-=-=-=-=-=-=-=-=-=-=-=-=-=-=-=-=-=-=-XXXXX-=-=-=-=-=XXX----XXXX=-=-=-=-=-=XXX=-=-=-=-=-=XXX-X=-=-=-=-=-=-=-dD=---------D------------XXX---X-------------XXXX--X---------------D--------------------D--D--D--D---------XXXXXXXXXXXXX------------D----------------D-----XX--------------XXX----------D---------================================================================================
=-=-=-=-=-=-=-=-=-=-=-=-=-=-=-=-=-=-XXX-------------------XX=-=-=-=-=-=-=-=-=-XXXXXXXXXX=-=-=-=-=-d-=-=-=-=-=-X----------XX-=-=-=-=-=-=D=-=-=A=-=-=-=XXX=-=-=-=A=-=-=-=-=-----------A------------XX--X------------XX-----X-----------XXXXX-----------------XXXXXXXXXXXXXXX------XX-----------XX-------------------XXX-------D-----XXXXXX---------X-------------D-----D--================================================================================
=-=-=-=-=-=-=-=-=-=-=-=-=-=-=-=-=-XXX----------------------XXX=-=-=XXXXXXXXXXXX--------XXXXXX-=-=-d-=-=-=-=-=X------------XXXXXXX-=-=-=-=-=DXXXX=-=-=-=-d-=-=XXXX-=-=-=Dd-----------X-------------XXXX--------A--XX------XXXXXXX----XX---XX--XXX----------XX-------------XXX---XX-------------XXX--------XXXXXXXXXX-XXXX--------D------X--------XX----------------------XXXXXXXXXXXXXXXXXXXXXXXXXXXXXXXXXXXXXXXXXXXXXXXXXXXXXXXXXXXXXXXXXXXXXXXXXXXXXXXX
=-=-=-=-=-=-=-=-=-=-=-=-=-=-=-=-XXX--------------------------XXXXXXX------------------------XXXXXXXXXXXXXXXXXX------------------XX=-=-=-=-XXX--XXX=-=-=-=-=XXX--XXX-=-=-=---------XXX--------------==---------XXXX-------------XX--XX-----XXXX-XXXXXXXXXXXX----------------XXXXX----------------XXXXXXXXXXX------------XXXXX-----------XX------XX---------XXXXXXXXXXXXXXX-------------------------------------------------------------------------------
=-=-=-=-=-=-=-=-=-=-=-=-=-=-=-XXX------------------------------------------------------------------------------------------------XXXX-=-=XX------XXXX-=-=-XX------XXXX=-=-X------XX-XX-------------==--------XX-----------------XXXX---------------------------------------------------------------------------------------XXX-----------XXXXXXX---------XX---------------------------------------------------------------------------------------------
=-=-=-=-=-=-=-=-=-=-=-=-=-=-=XX-----------------------------------------------------------------------------------------------------XXXXXX----------XXXXXXX----------X=-=XXX----XX---XX------------==------XXX---------------------------------------------------------------------------------------------------------------XX------------D---D--------XX----------------------------------------------------------------------------------------------
XXXXXXXXXXXXXXXXXXXXXXXXXXXXXX---------------------------------------------------------------------------------------------------------------------------------------XXXXX-XXXXXX-----XXXXXXXXXXXXXXXXXXXXXX------------------------------------------------------------------------------------------------------------------XXXXXXXXXXXXXXXXXXXXXXXXXXX-----------------------------------------------------------------------------------------------
