-----------------------------------------------X----X----------------------------------------------------------------------------X--------X---------------------------------------------------------------------------X-------X-X----X---X-X-----X----------X--------------------------------------------------------------------------------------------------------------------------------------------------------------------
-----------------------------------------------X---XX----------------------------------------------------------------------------X--------X---------------------------------------------------------------------------X-------X-X----X---X-XX--XXX----------X--------------------------------------------------------------------------------------------------------------------------------------------------------------------
XXXXXXXXXXXXXXXXXXXXXXXXXXXXXXXXXXXXXXX--------XXXXX-------XXXXXXXXXXXXXXXXXXXXXXXXXXXXXXXXXXXXXXXXXXXXXXXXXXXXXXXXXXXXXXXXXXX---XX------XX---------------XXXXXXXXXXXXXXXXXXXXXXXXXXXXXXXXXXXXXXXXXXXXXX--------------X-------X-X----X---X--X--X------------X-----XXXXXXXXXXXXXXXXXXXXXXXXXXXXXXXXXXXXXXXXXXXXXXXXXXX------------------------------------------------------------------------------------------------------------
X-X-X-X-X-X-X-X-X-X-X-X-X-X-X-X-XXXXXXX----------X-------XXX-------D----X------D----------------D----------------D-------XXXXX----X------X-----------XXXXXX------------------X------Z----------D-------XXX------------XXX-----XXX----X--XX--X--X--X---------X---XXX---------D-------D-------------------D-----------XXXXX--------------------------------------------------------------------------------------------------------
------------------------------------XXX----------XX---XXXX---------D-----------DDD------------------D---------------------XXXX----X------X---XXXXXXXXXXX-------------Z-------X------O----------D--------XX----------XXX-------X-----XXXXX---X--XXXX----XXXXXXXXXX--------------WWWWWWWWW--------------------------------XXXX------------------XWXWXWXWXWXWXWX--------------------------------------------------------------------
--------------------------------------XXXXXXXX---X---XX------------Z-------------D------WWWWWWWWWWWWWWWWWWWW---------------XXX---XXXXXXXXX---X-----------------------O-----------D--W------D---Z---------XXXX---------X-------X---------X--XX-----X---XX-------------------WWWWW-------WWWWWWWWWWWWWWWWWWW-----------------XXXXXWXWXWXWXWXWXWXW-------------WXWXWXWXWXWXWXWXWXWXWXWXWXWXWXWXWXWXWXWXWXWXWXWXWXWXWXWXWXWXWXWXWXWXW
---------------------------------------------XXXXXXXXX-------------O-------W-----WWWWWWWWWWW--W--W--W------WWWWWW------------XXXXX-------XXXXX-----------------------W-------Z-----------------O------------XXXXXXXXXXXXXXXXXXXXXX------XXXX------X--XX--------------------WWWW--------------------------XX-----------D-----------------------X-------------D---------------X----------------------------------------------------
--------------------------------------------------D----------WWWWWWWWWWWWWWWWWWWWWWWWWWWW-----WWWWWWW-------W--WWWW------------D-----Z-------D------WW-----------------------O-----------------W------------------D---D----------XXXXX-----X-----XXXXX---------------D-----XXXXXXXXX-------------------XXX------------------------Z-----------X-------------Z---------------X----------------------------------------------------
--------------------------------------------------D------WWWWW----W------W-----------WW----------W----------W----WWW-----------------O------------WWWWW----------------------W------Z------D---D--------D----------------D--D--------XXXX--X---XXX----------D-------WWW------------XXXX----------------X--------------------D-----0-----------D-------------0---------------D----------------------------------------------------
---------------------------------------------WWWWWWWWWWWWW--------W-----WW------------W----------WWWWWW-----WWWWW--WWWWWWWWWWWWWWWWWWWWWWWWWWWWWWWWW-WWW-------------Z-------X------O----------D------------WWWWWWWWWWWWWWWWWWW---------XXXX--XX---------D-----WWWWWW-W---------------XXXXXXXXXXXXXXXXXX-------------------WWWWXWXW-----------WXWXWXWXWXWXWXW---------------WXWXWXWXWXWXWXWXWXWXWXWXWXWXWXWXWXWXWXWXWXWXWXWXWXWXW
--------------------------------------WWWWWWWW---W----------------WWWWWWW----------WWWW--------WWW----W-------W----------W-------W--------W---W--------WW------------O-------Z------W----------Z---------WWWW---W--------W-WW-WW-----------XXXX------------WWWWW---W--WWWWWWW---------D-------------------D-----WWWWWWWWWWWW------XWXWXWXWXWXWX-------------XWXWXWXWXWXWXWXWX----------------------------------------------------
------------------------------------WWW----------WW---------------W-WW-------------W--W---------W---WWWW-----WWWWW-------WWWWW---W-------WWWW-WWW-------WW-----------W-------O------D----------O--------WW------WWWW-----W-W---WW-----D-------D-----------WW-------W------W-WWWW--------------D-------------WWWWW----------------------------------------------------------------------------------------------------------------
W-W-W-W-W-W-W-W-W-W-W-W-W-W-W-W-WWWWWWW----------W---------------WW--WWWW---------WW--W---------W---W--WW-----W--WW------W---WWWWW-------W--WWW-W-------WW-------------------X------D----------W-------WWW---WWWW--WW----WWW----WW---------D----------D--WW--------W------WW---WWWWWWWWWWWWWWWWWWWWWWWWWWWWWW--------------------------------------------------------------------------------------------------------------------
WWWWWWWWWWWWWWWWWWWWWWWWWWWWWWWWWWWWWWW-------WWWWW--------------W---W--W---------W---W--------WW---W---W-----W---W-----WW---W--W--------W--W---WW------WWWWWWWWWWWWWWWWWWWWWWWWWWWWWWWWWWWWWWWWWWWWWWWW-----W--W---WW---W-------WWWWWWWWWWWWWWWWWWWWWWWWW--------WWW-----W------------------------------------------------------------------------------------------------------------------------------------------------------
---------------------------------------------WW---WW------------WW---W--WWW------WW---WW-------W---WW---WW--WWWW--WW----W--WWW--WW------WWWWWW---W----------------------------------------------------------WW--WW---W---WWW--------------------------------------W-WW----W------------------------------------------------------------------------------------------------------------------------------------------------------
----------------------------------------------W----W------------W----W----WW-----W-----W-------W---W-----W-----W--W-----W----W---W------W--W-----W----------------------------------------------------------W----W---WW----W--------------------------------------W--W----W------------------------------------------------------------------------------------------------------------------------------------------------------