----------------------------------------------------------------------------------------------------------------------------------------------------------------------------------------------------------------------------------------------------------------------------------------------------------------------------------------------------------------------------------------------------------------------------------------------------------------------------------------------------------------------------------------------==-Z----==-Z----==-Z----==-Z----==-Z----==-Z----==-Z----==-Z----==-Z----==-Z----==-Z----==-Z----==-Z----==-Z----==-Z----==-Z----==-Z----==-Z----==-Z----==-Z----==-Z----==-Z----==-Z----==-Z----==
----------------------------------------------------------------------------------------------------------------------------------------------------------------------------------------------------------------------------------------------------------------------------------------------------------------------------------------------------------------------------------------------------------------------------------------------------------------------------------------------------------------------------------------------==------==------==------==------==------==------==------==------==------==------==------==------==------==------==------==------==------==------==------==------==------==------==------==------==
XXXXXXXXXXXXXXXXXXXXXXXXXXXXXXXXXXXXXXXXXXXXXXXXXXXXXXXXXXXXXXXXXXX-------------------------------------------XXXXXXXXXXXXXXXXX--------------------------------XXXXXXXXXXX----------XXXXXX--------------XXXXXXXXXXXXXXXXXXXXXXXXXXXXXX---------------------------------------------------XXXXXXXXXX---------------------------------------------------------XXXXXXX------------------------------------------------------------------------------------XXXXXXXXXXXXXXXXXXXXXXXXXXXXXXXXXXXXXXXXXXXXXXXXXXXXXXXXXXXXXXXXXXXXXXXXXXXXXXXXXXXXXX-==------==------==------==------==------==------==------==------==------==------==------==------==------==------==------==------==------==------==------==------==------==------==------==------==
=-=-=-=-=-=-=-=-=-=-=-=-=-=-=-=-=-=-=-=-=-=-=-=-=-=-=-=-d-=-=-=-=-X------------------------------------------XXX=-=-=-=-=-=-=-X-----------------------------XXXX=-=-=D=-=X----------X-=-=XX------------XX-=-=-=-=-=-=-=-=-=-=-=-=-=-=XX-----------------------------------------XXXXXXXXXX=-=-=-=-XX-----------------XXXXXXXXXX-------------------------XXXXX-=-=-XX-------Z-------Z-------Z-------Z-------Z-------Z-------Z-------Z-------Z-------Z---X------------X----X----X----X----X----X----X----X----X----X----X----X----X----X------XXXXXXXXXXXXXXXXXXXXXXXXXXXXXXXXXXXXXXXXXXXXXXXXXXXXXXXXXXXXXXXXXXXXXXXXXXXXXXXXXXXXXXXXXXXXXXXXXXXXXXXXXXXXXXXXXXXXXXXXXXXXXXXXXXXXXXXXXXXXXXXXXXXXXXXXXXXXXXXXXXXXXXXXXXXXXXXXXXXXXXXXXXXXXXXXXXXX
=-=-=-=-=-=-=-=-=-=-=-=-=-=-=-=-=-=-=-=-=-=-=-=-=-=-=-=-d-=-=-=-=-XXXXXXXXXXXXXXXXXX----------------------XXXX=-=-=-=-=-=-=-d-XX---------XXXXXX----------XXXX-=-=-=-=-d-=XX------XXXX-=-=-XXX--------XXX=-=-=-=-=-=-=-=-d-=-=-=-=-=-=-XXXXX-------------------------------------X-=-=-d-=-=-=-=-=-=XXXX--------------X=-=-=-=-XX---------------------XXXX-=-=-=-=-=XX----------------------------------------------------------------------------------X------------X----X----X--=====--X----X----X----X----X----X----X----X----X----X------X-==--==--==--==--==--==--==--==--==--==--==--==--==--==--==--==--==--==--==--==--==--==--==--==--==--==--==--==--==--==--==--==--==--==--==--==--==--==--==--==--==--==--==--==--==--==--==--==--==
=-=-=-=-=-=-=-=-=-=-=-=-=-=-=-=-=-=-=-=-=-=-=XXXXXXXXXXXX-=-=-=-=-=-=-=-=-=-=-=-=-=XXXXXXXXXXXX--------XXXX-=-=-=-=XXXX-=-=-=-=XX-------XX=-=-XXXX------XX=-=-=-=-=-=-=-=-=XX-XXXX=-=-=-=-=-XXX------X=-=-=-=-=-=-=-=-=XXX=-=-=-=-=-=-=-=-XXXXX-XXXXXXXXXXXXXXX---------XXXXXXXXX-=-=-=-=-=-=-=-=-=-=-XXX-------XXXXXX=-=-=-=-=XX-------------------XX=-=-=-=-=-d-=-XXX--------------------------------------------------------------------------------X-----+------X----X--===============--X----X----X----X----X----X----X---===---X------XXXXXXXXXXXXXXXXXXXXXXXXXXXXXXXXXXXXXXXXXXXXXXXXXXXXXXXXXXXXXXXXXXXXXXXXXXXXXXXXXXXXXXXXXXXXXXXXXXXXXXXXXXXXXXXXXXXXXXXXXXXXXXXXXXXXXXXXXXXXXXXXXXXXXXXXXXXXXXXXXXXXXXXXXXXXXXXXXXXXXXXXXXXXXXXXXXXX
=-=-=-=-=-=-=-=-=-=-=-=-=-=-=-=-=-=-=-=-=-=-=X----------XX=-=-=-=-=-=-=-=D=-=-=-=-=-=-=-=-=-=-XXX---XXXX=-=-=-=-=XXX--X-=-=-=-=-XXXXXX-XX-=-=-=-=XXX---XX-=-=-=-=-=-=-=-=-=-XXX-=-=-=-=-=-=-=-XX-----X=-=-=-=-=-=-=A=-XX-X=-=-=-=-=-=-d-=D=-=-XXX-=-=-=-=-=-=-XXXXXXXXXXX-=-=-=-=-=-=-=-=XX-=-=-=-=-=-=-XXXXXXXXX-=-=-=-=-=-=-=-XX-----------------XX-=-=-=-=D=-=-=-=-XXXXXXXXXXXXXXXXXXXXXXXXXXXXXXXXXXXXXXXXXXXXXXXXXXXXXXXXXXXXXXXXXXXXXXXXXXXXXXXXXX------------=--==========--X--==========--X----X----X----X----X----X-=======-X--------==--==--==--==--==--==--==--==--==--==--==--==--==--==--==--==--==--==--==--==--==--==--==--==--==--==--==--==--==--==--==--==--==--==--==--==--==--==--==--==--==--==--==--==--==--==--==--==--==
=-=-=-=-=-=-=-=-=-=-=-=-=-=-=-=-=-=-=-XXXXXXXX-----------XX-=-=-=-=-=-=-=-=-=-=-=-=-=-=-=-=-=-=-XXXXX-=-=-=-=-=XXX----XXXX=-=-=-=-=-=XXX=-=-=-=-=-=XXX-X=-=-=-=-=-=-=-dD=-=-=-=-=-d-=-=-=-=-=-=XXX---X=-=-=-=-=-=-=XXXX--X=-=-=-=-=-=-=-=Dd-=-=-=-=-=-=-=-=-=-d-=D=-d-=D=-=-=-=-=XXXXXXXXXXXXX=-=-=-=-=-=-d-=-=-=-=-=-=-=-=D=-=-=XX--------------XXX=-=-=-=-=-d-=-=-=-=-====================================================================================================--X----X----X--==========--X----X----X----X---=====-X-==============--==--==--==--==--==--==--==--==--==--==--==--==--==--==--==--==--==--==--==--==--==--==--==--==--==--==--==--==--==--==--==--==--==--==--==--==--==--==--==--==--==--==--==--==--==--==--==--==
=-=-=-=-=-=-=-=-=-=-=-=-=-=-=-=-=-=-XXX-------------------XX=-=-=-=-=-=-=-=-=-XXXXXXXXXX=-=-=-=-=-d-=-=-=-=-=-XX---------XX-=-=-=-=-=-=D=-=-=A=-=-=-=XXX=-=-=-=A=-=-=-=D=-=-=-=-=-=-a-=-=-=-=-=-=XX--X=-=-=-=-=-=-XX-----X=-=-=-=-=-=XXXXX=-=-=-=-=-=-=-=-=XXXXXXXXXXXXXXX=-=-=-XX-----------XX-=-=-=-=-=-=-=-=-=-XXX-=-=-=-d-=-=-XXXXXX---------X=-=-=-=-=-=-=D=-=-=D=-===============================================================================================--X----X----X----X----X--==========--X----X----X-=====---X---============--==--==--==--==--==--==--==--==--==--==--==--==--==--==--==--==--==--==--==--==--==--==--==--==--==--==--==--==--==--==--==--==--==--==--==--==--==--==--==--==--==--==--==--==--==--==--==--==
=-=-=-=-=-=-=-=-=-=-=-=-=-=-=-=-=-XXX----------------------XXX=-=-=XXXXXXXXXXXX--------XXXXXX-=-=-d-=-=-=-=-=XX-----------XXXXXXX-=-=-=-=-=DXXXX=-=-=-=-d-=-=XXXX-=-=-=Dd-=-=-=-=-=-X-=-=-=-=-=-=-XXXX=-=-=-=-a-=XX------XXXXXXX=-=-XX---XX-=XXX=-=-=-=-=-XX-------------XXX=-=XX-------------XXX-=-=-=-=XXXXXXXXXX-XXXX=-=-=-=-d-=-=-=X--------XX=-=-=-=-=-=-=-=-=-=-=-XXXXXXXXXXXXXXXXXXXXXXXXXXXXXXXXXXXXXXXXXXXXXXXXXXXXXXXXXXXXXXXXXXXXXXXXXXXXXXXX------------=----X----X----X----X----X----X--==========--X--======-X----X----X--------==--==--==--==--==--==--==--==--==--==--==--==--==--==--==--==--==--==--==--==--==--==--==--==--==--==--==--==--==--==--==--==--==--==--==--==--==--==--==--==--==--==--==--==--==--==--==--==--==
=-=-=-=-=-=-=-=-=-=-=-=-=-=-=-=-XXX--------------------------XXXXXXX------------------------XXXXXXXXXXXXXXXXXX------------------XX=-=-=-=-XXX--XXX=-=-=-=-=XXX--XXX-=-=-=-=-=-=-=-XXX-=-=-=-=-=-=-=-=-=-=-=-=-XXXX-------------XX-=XX-----XXXX-XXXXXXXXXXXX----Z-----------XXXXX-----Z----------XXXXXXXXXXX------------XXXXX=-=-=-=-=-=XX------XX-=-=-=-=-XXXXXXXXXXXXXXX------------------------------------------------------------------------------X-----+------X----X----X----X----X----X----X----X--==============---X----X----X------XXXXXXXXXXXXXXXXXXXXXXXXXXXXXXXXXXXXXXXXXXXXXXXXXXXXXXXXXXXXXXXXXXXXXXXXXXXXXXXXXXXXXXXXXXXXXXXXXXXXXXXXXXXXXXXXXXXXXXXXXXXXXXXXXXXXXXXXXXXXXXXXXXXXXXXXXXXXXXXXXXXXXXXXXXXXXXXXXXXXXXXXXXXXXXXXXXXX
=-=-=-=-=-=-=-=-=-=-=-=-=-=-=-XXX------------------------------------------------------------------------------------------------XXXX-=-=XX------XXXX-=-=-XX------XXXX=-=-X-=-=-=XX-XX=-=-=-=-=-=-=-=-=-=-=-=XX-----------------XXXX---------------------------------------------------------------------------------------XXX=-=-=-=-=-XXXXXXXX=-=-=-=-=XX--------------------------------------------------------------------------------------------X------------X----X----X----X----X----X----X----X----X--=====--X----X----X----X------X-==--==--==--==--==--==--==--==--==--==--==--==--==--==--==--==--==--==--==--==--==--==--==--==--==--==--==--==--==--==--==--==--==--==--==--==--==--==--==--==--==--==--==--==--==--==--==--==--==
=-=-=-=-=-=-=-=-=-=-=-=-=-=-=XX-----------------------------------------------------------------------------------------------------XXXXXX----------XXXXXXX----------X=-=XXX=-=-XX---XX-=-=-=-=-=-=-=-=-=-=XXX---------------------------------------------------------------------------------------------------------------XX-=-=-=-=-=-=D=-=D=-=-=-=-XX---------------------------------------------------------------------------------------------X------------X----X----X----X----X----X----X----X----X----X----X----X----X----X------XXXXXXXXXXXXXXXXXXXXXXXXXXXXXXXXXXXXXXXXXXXXXXXXXXXXXXXXXXXXXXXXXXXXXXXXXXXXXXXXXXXXXXXXXXXXXXXXXXXXXXXXXXXXXXXXXXXXXXXXXXXXXXXXXXXXXXXXXXXXXXXXXXXXXXXXXXXXXXXXXXXXXXXXXXXXXXXXXXXXXXXXXXXXXXXXXXXX
XXXXXXXXXXXXXXXXXXXXXXXXXXXXXX---------------------------------------------------------------------------------------------------------------------------------------XXXXX-XXXXXX-----XXXXXXXXXXXXXXXXXXXXXX------------------------------------------------------------------------------------------------------------------XXXXXXXXXXXXXXXXXXXXXXXXXXX----------------------------------------------------------------------------------------------XXXXXXXXXXXXXXXXXXXXXXXXXXXXXXXXXXXXXXXXXXXXXXXXXXXXXXXXXXXXXXXXXXXXXXXXXXXXXXXXXXXXXX-==--==--==--==--==--==--==--==--==--==--==--==--==--==--==--==--==--==--==--==--==--==--==--==--==--==--==--==--==--==--==--==--==--==--==--==--==--==--==--==--==--==--==--==--==--==--==--==--==
---------------------------------------------------------------------------------------------------------------------------------------------------------------------------------------------------------------------------------------------------------------------------------------------------------------------------------------------------------------------------------------------------------------------------------------------------------------------Z----Z----Z----Z----Z----Z----Z----Z----Z----Z----Z----Z----Z------------==--==--==--==--==--==--==--==--==--==--==--==--==--==--==--==--==--==--==--==--==--==--==--==--==--==--==--==--==--==--==--==--==--==--==--==--==--==--==--==--==--==--==--==--==--==--==--==--==
----------------------------------------------------------------------------------------------------------------------------------------------------------------------------------------------------------------------------------------------------------------------------------------------------------------------------------------------------------------------------------------------------------------------------------------------------------------------------------------------------------------------------------------------==--==--==--==--==--==--==--==--==--==--==--==--==--==--==--==--==--==--==--==--==--==--==--==--==--==--==--==--==--==--==--==--==--==--==--==--==--==--==--==--==--==--==--==--==--==--==--==--==
