XXXXXXXXXXXXXXXXXXXXXXXXXXXXXXXXXXXXXXXXXXXXXXXXXXXXX----X-----X----X-----XXXXXXXXXXXXXXXXX-----X--------X-----XXXXXXXXXXXXXXXXXXXXXXXXXXXXXXXXXXXXXXXXXXXXXXXXXXXXXXXXXXXXXXXXXXXXXXXXXXXXXXXXXXXXXXXXXXXXXXXXXXXXXXXXXXXXXXXXXXXXXXXXXXXXXXXXX------------------------------------------XXXXXXXXXXXXXXXXXXXXXXXXXXXXXXXXXXXXXXXXXXXXXXXXXXXXXXXXXXXXXXXXXXXXXXXXXXXXXXXXXXXXXXXX
---------------------------------------------------XX--X-----X----X----XX--------------XX-----X--------X----XX----------------------X------------------X-------------X------X-------X----------------X------------------------------------------X----------------------------------------X----------------------------------------XX----------------------------------------------
----------------------------------------------------XX-X-----X----X--XXX----------------XX----X--------X--XX------------------------X------------------X-------------X------X-------X----------------X--------------------------------------------X-------------------------------------X-----------------------XX----------------XX-------------XX-------------------------------
-----------------------------------------------------XXX-----X----XXXX---------XX--------XXX--X------XXXXXX-------------------------X------------------X-------------X------X------------------------X---------------------------------------------XXXXXXXXXXXXXXXXXXXXXXXXXXXXXXXXXXXXX----------XX------------XX-------------------------------XX-------------------------------
------------------------------------------------------XX-----X--XXXX---------XXXXXX--------XXXX-----XX------------------------------X------------------X-------------X------X------------------------X------------------------------------------------------D---------D---------X------X----------XX----------------------XX------------------------------------------------------
-S-----------------------------------------------------XX----X--XX---------XXX-X--XX----------XXXXXX---------------------------------------------------X-------------X--------------X----------------X-------------------D--------------------------D-------D---------D---------X------D----------------------------------XX------------------------------------------------------
--------------------------------------------------------XX---X-XX--------XXX---X---XXXXX---------------------------------------------------------------X-------------X--------------X----------------X----------------------------------------------D-------D---------X---------D------D-----------------------------------------------XX-----------------------------------------
---------------------------------------------------------XXXXXXX-------XXX-----X-------XXXX-------------------------------------------------X-----------------X-------------X-------X----------------X------------------------------------------------------D---------X---------D------X-----------------XX----------------------------XX-----------------------------------------
-----------------------------------------------------------X----------XX-X-----X-------X--XXX---XXXXX---------------------------------------X-----------------X-------------X-------X-------------------------------------------------------------XXXXXXXXXXXXXXXXXXXXXXXXXXXXXXXXXXXXXX-----------------XX---------------XX------------------------------------------------------
---------------------------------------------------------------------XX--X-----X-------X----XXXXX--XXX--------------------------------------X-----------------X------X------X-------X------------------------------------------------------------X--------------------------------------X---------------------------------XX---------XX-------------------------------------------
--------------------------------------------------------------------XX---X-----X-------X-----XXX-----XX-------------------------------------X-----------------X------X------X-------X----------------X------------------------------------------X----------------------------------------X-------------------------------------------XX-------------------------------------------
XXXXXXXXXXXXXXXXXXXXXXXXXXXXXXXXXXXXXXXXXXXXXXXXXXXXXXXXXXXXXXXXXXXXXX---X-----X-------X------XX-----XXXXXXXXXXXXXXXXXXXXXXXXXXXXXXXXXXXXXXXXXXXXXXXXXXXXXXXXXXXXXXXXXXXXXXXXXXXXXXXXXXXXXXXXXXXXXXXXXXXXXXXXXXXXXXXXXXXXXXXXXXXXXXXXXXXXXXXXXXX------------------------------------------XXXXXXXXXXXXXXXXXXXXXXXXXXXXXXXXXXXXXXXXXXXXXXXXXXXXXXXXXXXXXXXXXXXXXXXXXXXXXXXXXXXXXXXX
