# This file uses centimeters as units for non-parametric coordinates.

v 0.870934 -0.079916 0.000000
v 0.151032 -0.079916 0.000000
v 0.151032 -0.179213 0.000000
v 0.448922 -0.179213 0.000000
v 0.448922 -0.948763 0.000000
v 0.573043 -0.948763 0.000000
v 0.573043 -0.179213 0.000000
v 0.870934 -0.179213 0.000000
v 0.448922 -0.514340 0.000000
v 0.573043 -0.514340 0.000000
v 0.448922 -0.803955 0.000000
v 0.573043 -0.803955 0.000000
v 0.448922 -0.659148 0.000000
v 0.573043 -0.659148 0.000000
v 0.438993 -0.079916 0.000000
v 0.438993 -0.179213 0.000000
v 0.295012 -0.079916 0.000000
v 0.295012 -0.179213 0.000000
v 0.448922 -0.369532 0.000000
v 0.573043 -0.369532 0.000000
v 0.582973 -0.079916 0.000000
v 0.582973 -0.179213 0.000000
v 0.448922 -0.224724 0.000000
v 0.573043 -0.224724 0.000000
v 0.726953 -0.079916 0.000000
v 0.726953 -0.179213 0.000000
v 0.720922 -2.360219 0.000000
v 0.720922 -2.355564 0.000000
v 0.260898 -1.987080 0.000000
v 0.506370 -1.987003 0.000000
v 0.831921 -2.180263 0.000000
v 0.260898 -2.855927 0.000000
v 0.906327 -2.587903 0.000000
v 0.503952 -2.855991 0.000000
v 0.547918 -2.856026 0.000000
v 0.385019 -2.334619 0.000000
v 0.385019 -2.086377 0.000000
v 0.707734 -2.196534 0.000000
v 0.472473 -2.086319 0.000000
v 0.478398 -2.334636 0.000000
v 0.385019 -2.756631 0.000000
v 0.385019 -2.433916 0.000000
v 0.782206 -2.592946 0.000000
v 0.530619 -2.433877 0.000000
v 0.543416 -2.433871 0.000000
v 0.260898 -2.483611 0.000000
v 0.885563 -2.483611 0.000000
v 0.385019 -2.483611 0.000000
v 0.748642 -2.483604 0.000000
v 0.583613 -2.855726 0.000000
v 0.583614 -2.755362 0.000000
v 0.260898 -2.731885 0.000000
v 0.385019 -2.731885 0.000000
v 0.422255 -2.855927 0.000000
v 0.422255 -2.756631 0.000000
v 0.260898 -2.607748 0.000000
v 0.385019 -2.607748 0.000000
v 0.865685 -2.731926 0.000000
v 0.702042 -2.731829 0.000000
v 0.744956 -2.827817 0.000000
v 0.744970 -2.731885 0.000000
v 0.805261 -2.794091 0.000000
v 0.744970 -2.793954 0.000000
v 0.825671 -2.777497 0.000000
v 0.825649 -2.731885 0.000000
v 0.905731 -2.607747 0.000000
v 0.781854 -2.607749 0.000000
v 0.744973 -2.700362 0.000000
v 0.903412 -2.545680 0.000000
v 0.778590 -2.545679 0.000000
v 0.825649 -2.545680 0.000000
v 0.825649 -2.607748 0.000000
v 0.825649 -2.483611 0.000000
v 0.825017 -2.235337 0.000000
v 0.260898 -2.235337 0.000000
v 0.385019 -2.235337 0.000000
v 0.704511 -2.235349 0.000000
v 0.583613 -2.332144 0.000000
v 0.583612 -2.434271 0.000000
v 0.260898 -2.328998 0.000000
v 0.385019 -2.328998 0.000000
v 0.422255 -2.334625 0.000000
v 0.422255 -2.433916 0.000000
v 0.761169 -2.328990 0.000000
v 0.606172 -2.328892 0.000000
v 0.744960 -2.341072 0.000000
v 0.744970 -2.366321 0.000000
v 0.744970 -2.328998 0.000000
v 0.744972 -2.480002 0.000000
v 0.583613 -2.406305 0.000000
v 0.744970 -2.406305 0.000000
v 0.664295 -2.440676 0.000000
v 0.664292 -2.406305 0.000000
v 0.664292 -2.328998 0.000000
v 0.824160 -2.406301 0.000000
v 0.825652 -2.407477 0.000000
v 0.744970 -2.235337 0.000000
v 0.685824 -2.282121 0.000000
v 0.744970 -2.282167 0.000000
v 0.664354 -2.303920 0.000000
v 0.583613 -1.988228 0.000000
v 0.583613 -2.088321 0.000000
v 0.260898 -2.111200 0.000000
v 0.385019 -2.111200 0.000000
v 0.422255 -1.987081 0.000000
v 0.422255 -2.086354 0.000000
v 0.821431 -2.111125 0.000000
v 0.668764 -2.111142 0.000000
v 0.744970 -2.111200 0.000000
v 0.706257 -2.173265 0.000000
v 0.744970 -2.173268 0.000000
v 0.745039 -2.024463 0.000000
v 0.780398 -2.049095 0.000000
v 0.744970 -2.049131 0.000000
v 0.585148 -1.034186 0.000000
v 0.434651 -1.034186 0.000000
v 0.125124 -1.903034 0.000000
v 0.257003 -1.903034 0.000000
v 0.342724 -1.654792 0.000000
v 0.677075 -1.654792 0.000000
v 0.762797 -1.903034 0.000000
v 0.894675 -1.903034 0.000000
v 0.377245 -1.555495 0.000000
v 0.509900 -1.175762 0.000000
v 0.641391 -1.555495 0.000000
v 0.279888 -1.468610 0.000000
v 0.739912 -1.468610 0.000000
v 0.407597 -1.468610 0.000000
v 0.611305 -1.468610 0.000000
v 0.432945 -1.654792 0.000000
v 0.432945 -1.555495 0.000000
v 0.176712 -1.758226 0.000000
v 0.307007 -1.758226 0.000000
v 0.279034 -1.839233 0.000000
v 0.279034 -1.758226 0.000000
v 0.228300 -1.613418 0.000000
v 0.432945 -1.613418 0.000000
v 0.279034 -1.613418 0.000000
v 0.279034 -1.471006 0.000000
v 0.712792 -1.758226 0.000000
v 0.843087 -1.758226 0.000000
v 0.740765 -1.839231 0.000000
v 0.740765 -1.758226 0.000000
v 0.586855 -1.654792 0.000000
v 0.586855 -1.555495 0.000000
v 0.586855 -1.613418 0.000000
v 0.791499 -1.613418 0.000000
v 0.740765 -1.613418 0.000000
v 0.740765 -1.471005 0.000000
v 0.432945 -1.038977 0.000000
v 0.432945 -1.396052 0.000000
v 0.331476 -1.323802 0.000000
v 0.432945 -1.323802 0.000000
v 0.383064 -1.178994 0.000000
v 0.432945 -1.178994 0.000000
v 0.688324 -1.323802 0.000000
v 0.458184 -1.323802 0.000000
v 0.561162 -1.323802 0.000000
v 0.586855 -1.323802 0.000000
v 0.586855 -1.398000 0.000000
v 0.586855 -1.038976 0.000000
v 0.508771 -1.178994 0.000000
v 0.511019 -1.178994 0.000000
v 0.586855 -1.178994 0.000000
v 0.636736 -1.178994 0.000000
v 0.726953 -0.179213 -0.573036
v 0.870934 -0.179213 -0.573036
v 0.870934 -0.079916 -0.573036
v 0.573043 -0.659148 -0.573036
v 0.573043 -0.514340 -0.573036
v 0.448922 -0.948763 -0.573036
v 0.573043 -0.948763 -0.573036
v 0.573043 -0.803955 -0.573036
v 0.295012 -0.179213 -0.573036
v 0.438993 -0.179213 -0.573036
v 0.151032 -0.179213 -0.573036
v 0.573043 -0.369532 -0.573036
v 0.582973 -0.079916 -0.573036
v 0.438993 -0.079916 -0.573036
v 0.573043 -0.224724 -0.573036
v 0.582973 -0.179213 -0.573036
v 0.726953 -0.079916 -0.573036
v 0.448922 -0.514340 -0.573036
v 0.448922 -0.659148 -0.573036
v 0.448922 -0.803955 -0.573036
v 0.295012 -0.079916 -0.573036
v 0.151032 -0.079916 -0.573036
v 0.448922 -0.369532 -0.573036
v 0.573043 -0.179213 -0.573036
v 0.448922 -0.179213 -0.573036
v 0.448922 -0.224724 -0.573036
v 0.780398 -2.049095 -0.573036
v 0.745039 -2.024463 -0.573036
v 0.547918 -2.856026 -0.573036
v 0.583613 -2.855726 -0.573036
v 0.825671 -2.777497 -0.573036
v 0.865685 -2.731926 -0.573036
v 0.744956 -2.827817 -0.573036
v 0.805261 -2.794091 -0.573036
v 0.744960 -2.341072 -0.573036
v 0.761169 -2.328990 -0.573036
v 0.885563 -2.483611 -0.573036
v 0.825652 -2.407477 -0.573036
v 0.506370 -1.987003 -0.573036
v 0.422255 -1.987081 -0.573036
v 0.831921 -2.180263 -0.573036
v 0.821431 -2.111125 -0.573036
v 0.824160 -2.406301 -0.573036
v 0.744970 -2.366321 -0.573036
v 0.903412 -2.545680 -0.573036
v 0.260898 -2.483611 -0.573036
v 0.260898 -2.607748 -0.573036
v 0.503952 -2.855991 -0.573036
v 0.422255 -2.855927 -0.573036
v 0.260898 -2.855927 -0.573036
v 0.260898 -2.731885 -0.573036
v 0.905731 -2.607747 -0.573036
v 0.906327 -2.587903 -0.573036
v 0.825017 -2.235337 -0.573036
v 0.260898 -2.235337 -0.573036
v 0.260898 -2.328998 -0.573036
v 0.720922 -2.360219 -0.573036
v 0.720922 -2.355564 -0.573036
v 0.583613 -1.988228 -0.573036
v 0.260898 -2.111200 -0.573036
v 0.260898 -1.987080 -0.573036
v 0.636736 -1.178994 -0.573036
v 0.586855 -1.038976 -0.573036
v 0.791499 -1.613418 -0.573036
v 0.740765 -1.471005 -0.573036
v 0.279034 -1.839233 -0.573036
v 0.307007 -1.758226 -0.573036
v 0.125124 -1.903034 -0.573036
v 0.257003 -1.903034 -0.573036
v 0.228300 -1.613418 -0.573036
v 0.176712 -1.758226 -0.573036
v 0.279034 -1.471006 -0.573036
v 0.894675 -1.903034 -0.573036
v 0.843087 -1.758226 -0.573036
v 0.712792 -1.758226 -0.573036
v 0.740765 -1.839231 -0.573036
v 0.432945 -1.654792 -0.573036
v 0.586855 -1.654792 -0.573036
v 0.739912 -1.468610 -0.573036
v 0.432945 -1.038977 -0.573036
v 0.383064 -1.178994 -0.573036
v 0.331476 -1.323802 -0.573036
v 0.279888 -1.468610 -0.573036
v 0.342724 -1.654792 -0.573036
v 0.762797 -1.903034 -0.573036
v 0.677075 -1.654792 -0.573036
v 0.688324 -1.323802 -0.573036
v 0.585148 -1.034186 -0.573036
v 0.434651 -1.034186 -0.573036
vt 1.000000 1.000000
vt 0.000000 1.000000
vt 0.000000 0.885714
vt 0.413793 0.885714
vt 0.413793 0.000000
vt 0.586207 0.000000
vt 0.586207 0.885714
vt 1.000000 0.885714
vt 0.413793 0.500000
vt 0.586207 0.500000
vt 0.413793 0.166667
vt 0.586207 0.166667
vt 0.413793 0.333333
vt 0.586207 0.333333
vt 0.400000 1.000000
vt 0.400000 0.885714
vt 0.200000 1.000000
vt 0.200000 0.885714
vt 0.413793 0.666667
vt 0.586207 0.666667
vt 0.600000 1.000000
vt 0.600000 0.885714
vt 0.413793 0.833333
vt 0.586207 0.833333
vt 0.800000 1.000000
vt 0.800000 0.885714
vt 0.804840 0.928571
vt 0.750000 0.956814
vt 0.750000 0.928571
vt 0.967829 0.428571
vt 0.875000 0.428571
vt 0.875000 0.357143
vt 0.000000 0.285714
vt 0.192308 0.285714
vt 0.192308 0.428571
vt 0.500000 0.115880
vt 0.444696 0.000000
vt 0.500000 0.000337
vt 0.250000 0.000109
vt 0.250000 0.114380
vt 0.192308 0.114380
vt 0.000000 0.142857
vt 0.192308 0.142857
vt 0.875000 0.090396
vt 0.936936 0.142857
vt 0.875000 0.142857
vt 0.750000 0.032420
vt 0.750000 0.071429
vt 0.843256 0.071429
vt 0.750000 0.142857
vt 0.750000 0.179138
vt 0.683531 0.142857
vt 0.995483 0.357143
vt 0.875000 0.285714
vt 0.802087 0.357143
vt 0.807692 0.302749
vt 0.755677 0.428571
vt 0.874020 0.714286
vt 0.750000 0.714286
vt 0.750000 0.660393
vt 0.000000 0.606500
vt 0.192308 0.606500
vt 0.192308 0.714286
vt 0.336985 0.600012
vt 0.250000 0.485761
vt 0.417894 0.485761
vt 0.000000 0.428571
vt 0.192308 0.485761
vt 0.750000 0.592588
vt 0.775108 0.606500
vt 0.750000 0.606500
vt 0.625000 0.606500
vt 0.625000 0.477960
vt 0.750000 0.432722
vt 0.750000 0.517536
vt 0.500000 0.485392
vt 0.625000 0.517536
vt 0.534986 0.606500
vt 0.500000 0.602882
vt 0.500000 0.517536
vt 0.875000 0.516181
vt 0.687216 0.714286
vt 0.658463 0.660393
vt 0.625000 0.635454
vt 0.380323 1.000000
vt 0.250000 0.999980
vt 0.327804 0.885775
vt 0.000000 0.714286
vt 0.192308 0.857143
vt 0.000000 0.857143
vt 0.192308 0.885709
vt 0.884714 0.777665
vt 0.868128 0.857143
vt 0.750000 0.785714
vt 0.750000 0.857143
vt 0.631870 0.857143
vt 0.689987 0.785714
vt 0.692308 0.758940
vt 0.500000 0.998654
vt 0.500000 0.883468
vt 0.872688 0.517536
vt 0.750000 0.563550
vt 0.376578 0.000109
vt 0.000000 0.000109
vt 0.999116 0.285714
vt 0.807130 0.285714
vt 1.000000 0.308552
vt 0.437721 0.485765
vt 0.250000 0.600025
vt 0.192308 0.600032
vt 0.712741 0.570572
vt 0.712741 0.575928
vt 0.250000 0.885735
vt 0.000000 0.999980
vt 0.664819 0.833333
vt 0.600000 0.994487
vt 0.600000 0.833333
vt 0.865928 0.333333
vt 0.800000 0.497243
vt 0.800000 0.333333
vt 0.200000 0.497243
vt 0.200000 0.333333
vt 0.327621 0.400000
vt 0.200000 0.073432
vt 0.236349 0.166667
vt 0.200000 0.166667
vt 0.000000 0.000000
vt 0.171371 0.000000
vt 0.282762 0.285714
vt 0.400000 0.333333
vt 0.134073 0.333333
vt 0.067036 0.166667
vt 1.000000 0.000000
vt 0.932964 0.166667
vt 0.800000 0.166667
vt 0.763651 0.166667
vt 0.800000 0.073433
vt 0.600000 0.333333
vt 0.600000 0.400000
vt 0.400000 0.285714
vt 0.600000 0.285714
vt 0.798891 0.500000
vt 0.631772 0.500000
vt 0.400000 0.994486
vt 0.335182 0.833333
vt 0.400000 0.833333
vt 0.268145 0.666667
vt 0.201109 0.500000
vt 0.367062 0.500000
vt 0.400000 0.666667
vt 0.731855 0.666667
vt 0.600000 0.666667
vt 0.600000 0.581269
vt 0.432798 0.666667
vt 0.400000 0.583511
vt 0.566613 0.666667
vt 0.501455 0.833333
vt 0.400000 0.400000
vt 0.828629 0.000000
vt 0.717238 0.285714
vt 0.670867 0.400000
vt 0.498533 0.833333
vt 0.500000 0.837054
vt 0.597782 1.000000
vt 0.402218 1.000000
vt 0.000000 0.000000
vt 1.000000 0.000000
vt 1.000000 1.000000
vt 0.000000 1.000000
vt 0.000000 0.000000
vt 1.000000 0.000000
vt 1.000000 1.000000
vt 0.000000 1.000000
vt 0.000000 0.000000
vt 1.000000 0.000000
vt 1.000000 1.000000
vt 0.000000 1.000000
vt 0.000000 0.000000
vt 1.000000 0.000000
vt 1.000000 1.000000
vt 0.000000 1.000000
vt 0.000000 0.000000
vt 1.000000 0.000000
vt 1.000000 1.000000
vt 0.000000 1.000000
vt 0.000000 0.000000
vt 1.000000 0.000000
vt 1.000000 1.000000
vt 0.000000 1.000000
vt 0.000000 0.000000
vt 1.000000 0.000000
vt 1.000000 1.000000
vt 0.000000 1.000000
vt 0.000000 0.000000
vt 1.000000 0.000000
vt 1.000000 1.000000
vt 0.000000 1.000000
vt 0.000000 0.000000
vt 1.000000 0.000000
vt 1.000000 1.000000
vt 0.000000 1.000000
vt 0.000000 0.000000
vt 1.000000 0.000000
vt 1.000000 1.000000
vt 0.000000 1.000000
vt 0.000000 0.000000
vt 1.000000 0.000000
vt 1.000000 1.000000
vt 0.000000 1.000000
vt 0.000000 0.000000
vt 1.000000 0.000000
vt 1.000000 1.000000
vt 0.000000 1.000000
vt 0.000000 0.000000
vt 1.000000 0.000000
vt 1.000000 1.000000
vt 0.000000 1.000000
vt 0.000000 0.000000
vt 1.000000 0.000000
vt 1.000000 1.000000
vt 0.000000 1.000000
vt 0.000000 0.000000
vt 1.000000 0.000000
vt 1.000000 1.000000
vt 0.000000 1.000000
vt 0.000000 0.000000
vt 1.000000 0.000000
vt 1.000000 1.000000
vt 0.000000 1.000000
vt 0.000000 0.000000
vt 1.000000 0.000000
vt 1.000000 1.000000
vt 0.000000 1.000000
vt 0.000000 0.000000
vt 1.000000 0.000000
vt 1.000000 1.000000
vt 0.000000 1.000000
vt 0.000000 0.000000
vt 1.000000 0.000000
vt 1.000000 1.000000
vt 0.000000 1.000000
vt 0.000000 0.000000
vt 1.000000 0.000000
vt 1.000000 1.000000
vt 0.000000 1.000000
vt 0.000000 0.000000
vt 1.000000 0.000000
vt 1.000000 1.000000
vt 0.000000 1.000000
vt 0.000000 0.000000
vt 1.000000 0.000000
vt 1.000000 1.000000
vt 0.000000 1.000000
vt 0.000000 0.000000
vt 1.000000 0.000000
vt 1.000000 1.000000
vt 0.000000 1.000000
vt 0.000000 0.000000
vt 1.000000 0.000000
vt 1.000000 1.000000
vt 0.000000 1.000000
vt 0.000000 0.000000
vt 1.000000 0.000000
vt 1.000000 1.000000
vt 0.000000 1.000000
vt 0.000000 0.000000
vt 1.000000 0.000000
vt 1.000000 1.000000
vt 0.000000 1.000000
vt 0.000000 0.000000
vt 1.000000 0.000000
vt 1.000000 1.000000
vt 0.000000 1.000000
vt 0.000000 0.000000
vt 1.000000 0.000000
vt 1.000000 1.000000
vt 0.000000 1.000000
vt 0.000000 0.000000
vt 1.000000 0.000000
vt 1.000000 1.000000
vt 0.000000 1.000000
vt 0.000000 0.000000
vt 1.000000 0.000000
vt 1.000000 1.000000
vt 0.000000 1.000000
vt 0.000000 0.000000
vt 1.000000 0.000000
vt 1.000000 1.000000
vt 0.000000 1.000000
vt 0.000000 0.000000
vt 1.000000 0.000000
vt 1.000000 1.000000
vt 0.000000 1.000000
vt 0.000000 0.000000
vt 1.000000 0.000000
vt 1.000000 1.000000
vt 0.000000 1.000000
vt 0.000000 0.000000
vt 1.000000 0.000000
vt 1.000000 1.000000
vt 0.000000 1.000000
vt 0.000000 0.000000
vt 1.000000 0.000000
vt 1.000000 1.000000
vt 0.000000 1.000000
vt 0.000000 0.000000
vt 1.000000 0.000000
vt 1.000000 1.000000
vt 0.000000 1.000000
vt 0.000000 0.000000
vt 1.000000 0.000000
vt 1.000000 1.000000
vt 0.000000 1.000000
vt 0.000000 0.000000
vt 1.000000 0.000000
vt 1.000000 1.000000
vt 0.000000 1.000000
vt 0.000000 0.000000
vt 1.000000 0.000000
vt 1.000000 1.000000
vt 0.000000 1.000000
vt 0.000000 0.000000
vt 1.000000 0.000000
vt 1.000000 1.000000
vt 0.000000 1.000000
vt 0.000000 0.000000
vt 1.000000 0.000000
vt 1.000000 1.000000
vt 0.000000 1.000000
vt 0.000000 0.000000
vt 1.000000 0.000000
vt 1.000000 1.000000
vt 0.000000 1.000000
vt 0.000000 0.000000
vt 1.000000 0.000000
vt 1.000000 1.000000
vt 0.000000 1.000000
vt 0.000000 0.000000
vt 1.000000 0.000000
vt 1.000000 1.000000
vt 0.000000 1.000000
vt 0.000000 0.000000
vt 1.000000 0.000000
vt 1.000000 1.000000
vt 0.000000 1.000000
vt 0.000000 0.000000
vt 1.000000 0.000000
vt 1.000000 1.000000
vt 0.000000 1.000000
vt 0.000000 0.000000
vt 1.000000 0.000000
vt 1.000000 1.000000
vt 0.000000 1.000000
vt 0.000000 0.000000
vt 1.000000 0.000000
vt 1.000000 1.000000
vt 0.000000 1.000000
vt 0.000000 0.000000
vt 1.000000 0.000000
vt 1.000000 1.000000
vt 0.000000 1.000000
vt 0.000000 0.000000
vt 1.000000 0.000000
vt 1.000000 1.000000
vt 0.000000 1.000000
vt 0.000000 0.000000
vt 1.000000 0.000000
vt 1.000000 1.000000
vt 0.000000 1.000000
vt 0.000000 0.000000
vt 1.000000 0.000000
vt 1.000000 1.000000
vt 0.000000 1.000000
vt 0.000000 0.000000
vt 1.000000 0.000000
vt 1.000000 1.000000
vt 0.000000 1.000000
vt 0.000000 0.000000
vt 1.000000 0.000000
vt 1.000000 1.000000
vt 0.000000 1.000000
vt 0.000000 0.000000
vt 1.000000 0.000000
vt 1.000000 1.000000
vt 0.000000 1.000000
vt 0.000000 0.000000
vt 1.000000 0.000000
vt 1.000000 1.000000
vt 0.000000 1.000000
vt 0.000000 0.000000
vt 1.000000 0.000000
vt 1.000000 1.000000
vt 0.000000 1.000000
vt 0.000000 0.000000
vt 1.000000 0.000000
vt 1.000000 1.000000
vt 0.000000 1.000000
vt 0.000000 0.000000
vt 1.000000 0.000000
vt 1.000000 1.000000
vt 0.000000 1.000000
vt 0.000000 0.000000
vt 1.000000 0.000000
vt 1.000000 1.000000
vt 0.000000 1.000000
vt 0.000000 0.000000
vt 1.000000 0.000000
vt 1.000000 1.000000
vt 0.000000 1.000000
vt 0.000000 0.000000
vt 1.000000 0.000000
vt 1.000000 1.000000
vt 0.000000 1.000000
vt 0.000000 0.000000
vt 1.000000 0.000000
vt 1.000000 1.000000
vt 0.000000 1.000000
vt 0.000000 0.000000
vt 1.000000 0.000000
vt 1.000000 1.000000
vt 0.000000 1.000000
vt 0.000000 0.000000
vt 1.000000 0.000000
vt 1.000000 1.000000
vt 0.000000 1.000000
vt 0.000000 0.000000
vt 1.000000 0.000000
vt 1.000000 1.000000
vt 0.000000 1.000000
vt 0.000000 0.000000
vt 1.000000 0.000000
vt 1.000000 1.000000
vt 0.000000 1.000000
vt 0.000000 0.000000
vt 1.000000 0.000000
vt 1.000000 1.000000
vt 0.000000 1.000000
vt 0.000000 0.000000
vt 1.000000 0.000000
vt 1.000000 1.000000
vt 0.000000 1.000000
vt 0.000000 0.000000
vt 1.000000 0.000000
vt 1.000000 1.000000
vt 0.000000 1.000000
vt 0.000000 0.000000
vt 1.000000 0.000000
vt 1.000000 1.000000
vt 0.000000 1.000000
vt 0.000000 0.000000
vt 1.000000 0.000000
vt 1.000000 1.000000
vt 0.000000 1.000000
vt 0.000000 0.000000
vt 1.000000 0.000000
vt 1.000000 1.000000
vt 0.000000 1.000000
vt 0.000000 0.000000
vt 1.000000 0.000000
vt 1.000000 1.000000
vt 0.000000 1.000000
vt 0.000000 0.000000
vt 1.000000 0.000000
vt 1.000000 1.000000
vt 0.000000 1.000000
vt 0.000000 0.000000
vt 1.000000 0.000000
vt 1.000000 1.000000
vt 0.000000 1.000000
vt 0.000000 0.000000
vt 1.000000 0.000000
vt 1.000000 1.000000
vt 0.000000 1.000000
vt 0.000000 0.000000
vt 1.000000 0.000000
vt 1.000000 1.000000
vt 0.000000 1.000000
vt 0.000000 0.000000
vt 1.000000 0.000000
vt 1.000000 1.000000
vt 0.000000 1.000000
vt 0.000000 0.000000
vt 1.000000 0.000000
vt 1.000000 1.000000
vt 0.000000 1.000000
vt 0.000000 0.000000
vt 1.000000 0.000000
vt 1.000000 1.000000
vt 0.000000 1.000000
vt 0.000000 0.000000
vt 1.000000 0.000000
vt 1.000000 1.000000
vt 0.000000 1.000000
vt 0.000000 0.000000
vt 1.000000 0.000000
vt 1.000000 1.000000
vt 0.000000 1.000000
vt 0.000000 0.000000
vt 1.000000 0.000000
vt 1.000000 1.000000
vt 0.000000 1.000000
vt 0.000000 0.000000
vt 1.000000 0.000000
vt 1.000000 1.000000
vt 0.000000 1.000000
vt 0.000000 0.000000
vt 1.000000 0.000000
vt 1.000000 1.000000
vt 0.000000 1.000000
vt 0.000000 0.000000
vt 1.000000 0.000000
vt 1.000000 1.000000
vt 0.000000 1.000000
vt 0.000000 0.000000
vt 1.000000 0.000000
vt 1.000000 1.000000
vt 0.000000 1.000000
vt 0.000000 0.000000
vt 1.000000 0.000000
vt 1.000000 1.000000
vt 0.000000 1.000000
vn 0.000000 0.000000 1.000000
vn 0.000000 0.000000 1.000000
vn 0.000000 0.000000 1.000000
vn 0.000000 0.000000 1.000000
vn 0.000000 0.000000 1.000000
vn 0.000000 0.000000 1.000000
vn 0.000000 0.000000 1.000000
vn 0.000000 0.000000 1.000000
vn 0.000000 0.000000 1.000000
vn 0.000000 0.000000 1.000000
vn 0.000000 0.000000 1.000000
vn 0.000000 0.000000 1.000000
vn 0.000000 0.000000 1.000000
vn 0.000000 0.000000 1.000000
vn 0.000000 0.000000 1.000000
vn 0.000000 0.000000 1.000000
vn 0.000000 0.000000 1.000000
vn 0.000000 0.000000 1.000000
vn 0.000000 0.000000 1.000000
vn 0.000000 0.000000 1.000000
vn 0.000000 0.000000 1.000000
vn 0.000000 0.000000 1.000000
vn 0.000000 0.000000 1.000000
vn 0.000000 0.000000 1.000000
vn 0.000000 0.000000 1.000000
vn 0.000000 0.000000 1.000000
vn 0.000000 0.000000 1.000000
vn 0.000000 0.000000 1.000000
vn 0.000000 0.000000 1.000000
vn 0.000000 0.000000 1.000000
vn 0.000000 0.000000 1.000000
vn 0.000000 0.000000 1.000000
vn 0.000000 0.000000 1.000000
vn 0.000000 0.000000 1.000000
vn 0.000000 0.000000 1.000000
vn 0.000000 0.000000 1.000000
vn 0.000000 0.000000 1.000000
vn 0.000000 0.000000 1.000000
vn 0.000000 0.000000 1.000000
vn 0.000000 0.000000 1.000000
vn 0.000000 0.000000 1.000000
vn 0.000000 0.000000 1.000000
vn 0.000000 0.000000 1.000000
vn 0.000000 0.000000 1.000000
vn 0.000000 0.000000 1.000000
vn 0.000000 0.000000 1.000000
vn 0.000000 0.000000 1.000000
vn 0.000000 0.000000 1.000000
vn 0.000000 0.000000 1.000000
vn 0.000000 0.000000 1.000000
vn 0.000000 0.000000 1.000000
vn 0.000000 0.000000 1.000000
vn 0.000000 0.000000 1.000000
vn 0.000000 0.000000 1.000000
vn 0.000000 0.000000 1.000000
vn 0.000000 0.000000 1.000000
vn 0.000000 0.000000 1.000000
vn 0.000000 0.000000 1.000000
vn 0.000000 0.000000 1.000000
vn 0.000000 0.000000 1.000000
vn 0.000000 0.000000 1.000000
vn 0.000000 0.000000 1.000000
vn 0.000000 0.000000 1.000000
vn 0.000000 0.000000 1.000000
vn 0.000000 0.000000 1.000000
vn 0.000000 0.000000 1.000000
vn 0.000000 0.000000 1.000000
vn 0.000000 0.000000 1.000000
vn 0.000000 0.000000 1.000000
vn 0.000000 0.000000 1.000000
vn 0.000000 0.000000 1.000000
vn 0.000000 0.000000 1.000000
vn 0.000000 0.000000 1.000000
vn 0.000000 0.000000 1.000000
vn 0.000000 0.000000 1.000000
vn 0.000000 0.000000 1.000000
vn 0.000000 0.000000 1.000000
vn 0.000000 0.000000 1.000000
vn 0.000000 0.000000 1.000000
vn 0.000000 0.000000 1.000000
vn 0.000000 0.000000 1.000000
vn 0.000000 0.000000 1.000000
vn 0.000000 0.000000 1.000000
vn 0.000000 0.000000 1.000000
vn 0.000000 0.000000 1.000000
vn 0.000000 0.000000 1.000000
vn 0.000000 0.000000 1.000000
vn 0.000000 0.000000 1.000000
vn 0.000000 0.000000 1.000000
vn 0.000000 0.000000 1.000000
vn 0.000000 0.000000 1.000000
vn 0.000000 0.000000 1.000000
vn 0.000000 0.000000 1.000000
vn 0.000000 0.000000 1.000000
vn 0.000000 0.000000 1.000000
vn 0.000000 0.000000 1.000000
vn 0.000000 0.000000 1.000000
vn 0.000000 0.000000 1.000000
vn 0.000000 0.000000 1.000000
vn 0.000000 0.000000 1.000000
vn 0.000000 0.000000 1.000000
vn 0.000000 0.000000 1.000000
vn 0.000000 0.000000 1.000000
vn 0.000000 0.000000 1.000000
vn 0.000000 0.000000 1.000000
vn 0.000000 0.000000 1.000000
vn 0.000000 0.000000 1.000000
vn 0.000000 0.000000 1.000000
vn 0.000000 0.000000 1.000000
vn 0.000000 0.000000 1.000000
vn 0.000000 0.000000 1.000000
vn 0.000000 0.000000 1.000000
vn 0.000000 0.000000 1.000000
vn 0.000000 0.000000 1.000000
vn 0.000000 0.000000 1.000000
vn 0.000000 0.000000 1.000000
vn 0.000000 0.000000 1.000000
vn 0.000000 0.000000 1.000000
vn 0.000000 0.000000 1.000000
vn 0.000000 0.000000 1.000000
vn 0.000000 0.000000 1.000000
vn 0.000000 0.000000 1.000000
vn 0.000000 0.000000 1.000000
vn 0.000000 0.000000 1.000000
vn 0.000000 0.000000 1.000000
vn 0.000000 0.000000 1.000000
vn 0.000000 0.000000 1.000000
vn 0.000000 0.000000 1.000000
vn 0.000000 0.000000 1.000000
vn 0.000000 0.000000 1.000000
vn 0.000000 0.000000 1.000000
vn 0.000000 0.000000 1.000000
vn 0.000000 0.000000 1.000000
vn 0.000000 0.000000 1.000000
vn 0.000000 0.000000 1.000000
vn 0.000000 0.000000 1.000000
vn 0.000000 0.000000 1.000000
vn 0.000000 0.000000 1.000000
vn 0.000000 0.000000 1.000000
vn 0.000000 0.000000 1.000000
vn 0.000000 0.000000 1.000000
vn 0.000000 0.000000 1.000000
vn 0.000000 0.000000 1.000000
vn 0.000000 0.000000 1.000000
vn 0.000000 0.000000 1.000000
vn 0.000000 0.000000 1.000000
vn 0.000000 0.000000 1.000000
vn 0.000000 0.000000 1.000000
vn 0.000000 0.000000 1.000000
vn 0.000000 0.000000 1.000000
vn 0.000000 0.000000 1.000000
vn 0.000000 0.000000 1.000000
vn 0.000000 0.000000 1.000000
vn 0.000000 0.000000 1.000000
vn 0.000000 0.000000 1.000000
vn 0.000000 0.000000 1.000000
vn 0.000000 0.000000 1.000000
vn 0.000000 0.000000 1.000000
vn 0.000000 0.000000 1.000000
vn 0.000000 0.000000 1.000000
vn 0.000000 0.000000 1.000000
vn 0.000000 0.000000 1.000000
vn 0.000000 0.000000 1.000000
vn 0.000000 0.000000 1.000000
vn 0.000000 0.000000 1.000000
vn 0.000000 -1.000000 0.000000
vn 0.000000 -1.000000 0.000000
vn 0.000000 -1.000000 0.000000
vn 0.000000 -1.000000 0.000000
vn 1.000000 0.000000 0.000000
vn 1.000000 0.000000 0.000000
vn 1.000000 0.000000 0.000000
vn 1.000000 0.000000 0.000000
vn 1.000000 0.000000 0.000000
vn 1.000000 0.000000 0.000000
vn 1.000000 0.000000 0.000000
vn 1.000000 0.000000 0.000000
vn 0.000000 -1.000000 0.000000
vn 0.000000 -1.000000 0.000000
vn 0.000000 -1.000000 0.000000
vn 0.000000 -1.000000 0.000000
vn 1.000000 0.000000 0.000000
vn 1.000000 0.000000 0.000000
vn 1.000000 0.000000 0.000000
vn 1.000000 0.000000 0.000000
vn 1.000000 0.000000 0.000000
vn 1.000000 0.000000 0.000000
vn 1.000000 0.000000 0.000000
vn 1.000000 0.000000 0.000000
vn 0.000000 -1.000000 0.000000
vn 0.000000 -1.000000 0.000000
vn 0.000000 -1.000000 0.000000
vn 0.000000 -1.000000 0.000000
vn 0.000000 -1.000000 0.000000
vn 0.000000 -1.000000 0.000000
vn 0.000000 -1.000000 0.000000
vn 0.000000 -1.000000 0.000000
vn 1.000000 0.000000 0.000000
vn 1.000000 0.000000 0.000000
vn 1.000000 0.000000 0.000000
vn 1.000000 0.000000 0.000000
vn 0.000000 1.000000 0.000000
vn 0.000000 1.000000 0.000000
vn 0.000000 1.000000 0.000000
vn 0.000000 1.000000 0.000000
vn 1.000000 0.000000 0.000000
vn 1.000000 0.000000 0.000000
vn 1.000000 0.000000 0.000000
vn 1.000000 0.000000 0.000000
vn 0.000000 -1.000000 0.000000
vn 0.000000 -1.000000 0.000000
vn 0.000000 -1.000000 0.000000
vn 0.000000 -1.000000 0.000000
vn 0.000000 1.000000 0.000000
vn 0.000000 1.000000 0.000000
vn 0.000000 1.000000 0.000000
vn 0.000000 1.000000 0.000000
vn -1.000000 0.000000 0.000000
vn -1.000000 0.000000 0.000000
vn -1.000000 0.000000 0.000000
vn -1.000000 0.000000 0.000000
vn -1.000000 0.000000 0.000000
vn -1.000000 0.000000 0.000000
vn -1.000000 0.000000 0.000000
vn -1.000000 0.000000 0.000000
vn -1.000000 0.000000 0.000000
vn -1.000000 0.000000 0.000000
vn -1.000000 0.000000 0.000000
vn -1.000000 0.000000 0.000000
vn 0.000000 1.000000 0.000000
vn 0.000000 1.000000 0.000000
vn 0.000000 1.000000 0.000000
vn 0.000000 1.000000 0.000000
vn 0.000000 1.000000 0.000000
vn 0.000000 1.000000 0.000000
vn 0.000000 1.000000 0.000000
vn 0.000000 1.000000 0.000000
vn -1.000000 0.000000 0.000000
vn -1.000000 0.000000 0.000000
vn -1.000000 0.000000 0.000000
vn -1.000000 0.000000 0.000000
vn -1.000000 0.000000 0.000000
vn -1.000000 0.000000 0.000000
vn -1.000000 0.000000 0.000000
vn -1.000000 0.000000 0.000000
vn 1.000000 0.000000 0.000000
vn 1.000000 0.000000 0.000000
vn 1.000000 0.000000 0.000000
vn 1.000000 0.000000 0.000000
vn 0.000000 -1.000000 0.000000
vn 0.000000 -1.000000 0.000000
vn 0.000000 -1.000000 0.000000
vn 0.000000 -1.000000 0.000000
vn 0.000000 -1.000000 0.000000
vn 0.000000 -1.000000 0.000000
vn 0.000000 -1.000000 0.000000
vn 0.000000 -1.000000 0.000000
vn -1.000000 0.000000 0.000000
vn -1.000000 0.000000 0.000000
vn -1.000000 0.000000 0.000000
vn -1.000000 0.000000 0.000000
vn -1.000000 0.000000 0.000000
vn -1.000000 0.000000 0.000000
vn -1.000000 0.000000 0.000000
vn -1.000000 0.000000 0.000000
vn 0.000000 1.000000 0.000000
vn 0.000000 1.000000 0.000000
vn 0.000000 1.000000 0.000000
vn 0.000000 1.000000 0.000000
vn 0.571593 0.820537 0.000000
vn 0.571593 0.820538 0.000000
vn 0.571591 0.820539 0.000000
vn 0.571591 0.820539 0.000000
vn 0.008389 -0.999965 0.000000
vn 0.008389 -0.999965 0.000000
vn 0.008389 -0.999965 0.000000
vn 0.008389 -0.999965 0.000000
vn 0.751436 -0.659806 0.000000
vn 0.751436 -0.659806 0.000000
vn 0.751433 -0.659810 0.000000
vn 0.751432 -0.659810 0.000000
vn 0.170451 -0.985366 0.000000
vn 0.170451 -0.985366 0.000000
vn 0.170451 -0.985366 0.000000
vn 0.170450 -0.985366 0.000000
vn 0.488115 -0.872779 0.000000
vn 0.488115 -0.872779 0.000000
vn 0.488116 -0.872779 0.000000
vn 0.488116 -0.872779 0.000000
vn 0.597658 -0.801751 0.000000
vn 0.597658 -0.801751 0.000000
vn 0.597658 -0.801751 0.000000
vn 0.597658 -0.801751 0.000000
vn 0.785857 0.618408 0.000000
vn 0.785857 0.618408 0.000000
vn 0.785857 0.618408 0.000000
vn 0.785857 0.618408 0.000000
vn -0.000920 1.000000 0.000000
vn -0.000920 1.000000 0.000000
vn -0.000920 1.000000 0.000000
vn -0.000920 1.000000 0.000000
vn 0.988684 0.150012 0.000000
vn 0.988684 0.150012 0.000000
vn 0.988684 0.150012 0.000000
vn 0.988684 0.150012 0.000000
vn 0.450684 0.892684 0.000000
vn 0.450684 0.892684 0.000000
vn 0.450684 0.892684 0.000000
vn 0.450684 0.892684 0.000000
vn 0.961053 0.276364 0.000000
vn 0.961053 0.276364 0.000000
vn 0.961053 0.276364 0.000000
vn 0.961053 0.276364 0.000000
vn -1.000000 0.000000 0.000000
vn -1.000000 0.000000 0.000000
vn -1.000000 0.000000 0.000000
vn -1.000000 0.000000 0.000000
vn -0.000797 -1.000000 0.000000
vn -0.000797 -1.000000 0.000000
vn -0.000797 -1.000000 0.000000
vn -0.000797 -1.000000 0.000000
vn -0.000776 -1.000000 0.000000
vn -0.000776 -1.000000 0.000000
vn -0.000776 -1.000000 0.000000
vn -0.000776 -1.000000 0.000000
vn 0.000000 -1.000000 0.000000
vn 0.000000 -1.000000 0.000000
vn 0.000000 -1.000000 0.000000
vn 0.000000 -1.000000 0.000000
vn -1.000000 0.000000 0.000000
vn -1.000000 0.000000 0.000000
vn -1.000000 0.000000 0.000000
vn -1.000000 0.000000 0.000000
vn -1.000000 0.000000 0.000000
vn -1.000000 0.000000 0.000000
vn -1.000000 0.000000 0.000000
vn -1.000000 0.000000 0.000000
vn 0.630828 -0.775923 0.000000
vn 0.630828 -0.775923 0.000000
vn 0.630828 -0.775923 0.000000
vn 0.630828 -0.775923 0.000000
vn 0.951735 -0.306920 0.000000
vn 0.951735 -0.306920 0.000000
vn 0.951735 -0.306922 0.000000
vn 0.951734 -0.306923 0.000000
vn 0.999550 -0.030012 0.000000
vn 0.999550 -0.030012 0.000000
vn 0.999549 -0.030032 0.000000
vn 0.999549 -0.030033 0.000000
vn 0.997625 0.068881 0.000000
vn 0.997625 0.068881 0.000000
vn 0.997625 0.068881 0.000000
vn 0.997625 0.068881 0.000000
vn 0.826251 -0.563302 0.000000
vn 0.826251 -0.563302 0.000000
vn 0.826251 -0.563302 0.000000
vn 0.826251 -0.563302 0.000000
vn -1.000000 0.000000 0.000000
vn -1.000000 0.000000 0.000000
vn -1.000000 0.000000 0.000000
vn -1.000000 0.000000 0.000000
vn -1.000000 0.000000 0.000000
vn -1.000000 0.000000 0.000000
vn -1.000000 0.000000 0.000000
vn -1.000000 0.000000 0.000000
vn 0.245959 0.969280 0.000000
vn 0.245959 0.969280 0.000000
vn 0.245961 0.969280 0.000000
vn 0.245961 0.969280 0.000000
vn 0.516311 -0.856401 0.000000
vn 0.516311 -0.856401 0.000000
vn 0.516308 -0.856403 0.000000
vn 0.516308 -0.856403 0.000000
vn 1.000000 0.000000 0.000000
vn 1.000000 0.000000 0.000000
vn 1.000000 0.000000 0.000000
vn 1.000000 0.000000 0.000000
vn 0.619117 0.785299 0.000000
vn 0.619117 0.785299 0.000000
vn 0.619117 0.785299 0.000000
vn 0.619117 0.785299 0.000000
vn 0.015852 0.999874 0.000000
vn 0.015852 0.999874 0.000000
vn 0.015852 0.999874 0.000000
vn 0.015852 0.999874 0.000000
vn -1.000000 0.000000 0.000000
vn -1.000000 0.000000 0.000000
vn -1.000000 0.000000 0.000000
vn -1.000000 0.000000 0.000000
vn -1.000000 0.000000 0.000000
vn -1.000000 0.000000 0.000000
vn -1.000000 0.000000 0.000000
vn -1.000000 0.000000 0.000000
vn 0.000004 1.000000 0.000000
vn 0.000004 1.000000 0.000000
vn 0.000004 1.000000 0.000000
vn 0.000004 1.000000 0.000000
vn 0.992235 -0.124379 0.000000
vn 0.992235 -0.124380 0.000000
vn 0.992234 -0.124386 0.000000
vn 0.992234 -0.124387 0.000000
vn 0.219020 0.975720 0.000000
vn 0.219020 0.975720 0.000000
vn 0.219020 0.975720 0.000000
vn 0.219020 0.975720 0.000000
vn 0.834036 0.551710 0.000000
vn 0.834036 0.551710 0.000000
vn 0.834034 0.551713 0.000000
vn 0.834034 0.551714 0.000000
vn 0.942008 0.335590 0.000000
vn 0.942008 0.335590 0.000000
vn 0.942008 0.335590 0.000000
vn 0.942008 0.335590 0.000000
vn 0.942008 0.335590 0.000000
vn 0.942008 0.335590 0.000000
vn 0.942008 0.335591 0.000000
vn 0.942008 0.335591 0.000000
vn 0.945231 -0.326401 0.000000
vn 0.945231 -0.326401 0.000000
vn 0.945231 -0.326401 0.000000
vn 0.945231 -0.326401 0.000000
vn 0.000000 -1.000000 0.000000
vn 0.000000 -1.000000 0.000000
vn 0.000000 -1.000000 0.000000
vn 0.000000 -1.000000 0.000000
vn 0.945232 -0.326400 0.000000
vn 0.945232 -0.326400 0.000000
vn 0.945232 -0.326400 0.000000
vn 0.945232 -0.326400 0.000000
vn -0.942008 0.335590 0.000000
vn -0.942008 0.335590 0.000000
vn -0.942008 0.335590 0.000000
vn -0.942008 0.335590 0.000000
vn -0.942008 0.335591 0.000000
vn -0.942008 0.335591 0.000000
vn -0.942008 0.335591 0.000000
vn -0.942008 0.335591 0.000000
vn 0.942009 0.335589 0.000000
vn 0.942008 0.335589 0.000000
vn 0.942008 0.335591 0.000000
vn 0.942008 0.335591 0.000000
vn -0.945231 -0.326403 0.000000
vn -0.945231 -0.326403 0.000000
vn -0.945231 -0.326403 0.000000
vn -0.945231 -0.326403 0.000000
vn 0.000000 -1.000000 0.000000
vn 0.000000 -1.000000 0.000000
vn 0.000000 -1.000000 0.000000
vn 0.000000 -1.000000 0.000000
vn 0.942009 0.335589 0.000000
vn 0.942009 0.335589 0.000000
vn 0.942009 0.335589 0.000000
vn 0.942009 0.335589 0.000000
vn 0.941994 0.335630 0.000000
vn 0.941994 0.335630 0.000000
vn 0.941994 0.335630 0.000000
vn 0.941994 0.335630 0.000000
vn -0.942008 0.335591 0.000000
vn -0.942008 0.335591 0.000000
vn -0.942008 0.335590 0.000000
vn -0.942008 0.335590 0.000000
vn -0.942008 0.335590 0.000000
vn -0.942008 0.335590 0.000000
vn -0.942008 0.335591 0.000000
vn -0.942008 0.335591 0.000000
vn -0.942008 0.335590 0.000000
vn -0.942008 0.335590 0.000000
vn -0.942008 0.335590 0.000000
vn -0.942008 0.335590 0.000000
vn -0.941989 0.335643 0.000000
vn -0.941989 0.335643 0.000000
vn -0.942015 0.335571 0.000000
vn -0.942015 0.335571 0.000000
vn -0.942008 0.335591 0.000000
vn -0.942008 0.335591 0.000000
vn -0.942008 0.335590 0.000000
vn -0.942008 0.335590 0.000000
vn 0.000000 -1.000000 0.000000
vn 0.000000 -1.000000 0.000000
vn 0.000000 -1.000000 0.000000
vn 0.000000 -1.000000 0.000000
vn 0.945232 -0.326400 0.000000
vn 0.945232 -0.326400 0.000000
vn 0.945231 -0.326402 0.000000
vn 0.945231 -0.326402 0.000000
vn -0.945231 -0.326401 0.000000
vn -0.945231 -0.326401 0.000000
vn -0.945232 -0.326398 0.000000
vn -0.945232 -0.326398 0.000000
vn 0.000000 -1.000000 0.000000
vn 0.000000 -1.000000 0.000000
vn 0.000000 -1.000000 0.000000
vn 0.000000 -1.000000 0.000000
vn 0.000000 -1.000000 0.000000
vn 0.000000 -1.000000 0.000000
vn 0.000000 -1.000000 0.000000
vn 0.000000 -1.000000 0.000000
vn -0.945231 -0.326402 0.000000
vn -0.945231 -0.326402 0.000000
vn -0.945232 -0.326400 0.000000
vn -0.945232 -0.326400 0.000000
vn 0.942008 0.335590 0.000000
vn 0.942008 0.335590 0.000000
vn 0.942008 0.335590 0.000000
vn 0.942008 0.335590 0.000000
vn 0.000000 1.000000 0.000000
vn 0.000000 1.000000 0.000000
vn 0.000000 1.000000 0.000000
vn 0.000000 1.000000 0.000000
vn -0.942002 0.335607 0.000000
vn -0.942002 0.335607 0.000000
vn -0.942002 0.335607 0.000000
vn -0.942002 0.335607 0.000000
vn 0.942020 0.335557 0.000000
vn 0.942020 0.335557 0.000000
vn 0.942020 0.335557 0.000000
vn 0.942020 0.335557 0.000000
vn 0.942008 0.335590 0.000000
vn 0.942008 0.335590 0.000000
vn 0.942008 0.335590 0.000000
vn 0.942008 0.335590 0.000000
f 26/26/1 8/8/2 1/1/3
f 13/13/4 14/14/5 10/10/6
f 5/5/7 6/6/8 12/12/9
f 11/11/10 12/12/9 14/14/5
f 18/18/11 16/16/12 15/15/13
f 3/3/14 18/18/11 17/17/15
f 9/9/16 10/10/6 20/20/17
f 21/21/18 15/15/13 4/4/19
f 19/19/20 20/20/17 24/24/21
f 22/22/22 26/26/1 25/25/23
f 1/1/3 25/25/23 26/26/1
f 10/10/6 9/9/16 13/13/4
f 12/12/9 11/11/10 5/5/7
f 14/14/5 13/13/4 11/11/10
f 15/15/13 17/17/15 18/18/11
f 17/17/15 2/2/24 3/3/14
f 20/20/17 19/19/20 9/9/16
f 23/23/25 24/24/21 7/7/26
f 15/15/13 16/16/12 4/4/19
f 7/7/26 22/22/22 21/21/18
f 21/21/18 4/4/19 7/7/26
f 7/7/26 4/4/19 23/23/25
f 24/24/21 23/23/25 19/19/20
f 25/25/23 21/21/18 22/22/22
f 113/27/27 112/28/28 114/29/29
f 47/30/30 73/31/31 71/32/32
f 56/33/33 57/34/34 48/35/35
f 51/36/36 35/37/37 50/38/38
f 54/39/39 55/40/40 41/41/41
f 52/42/42 53/43/43 57/34/34
f 64/44/44 58/45/45 65/46/46
f 50/38/38 60/47/47 63/48/48
f 60/47/47 62/49/49 63/48/48
f 64/44/44 65/46/46 61/50/50
f 68/51/51 61/50/50 65/46/46
f 68/51/51 59/52/52 61/50/50
f 69/53/53 71/32/32 72/54/54
f 71/32/32 70/55/55 43/56/56
f 73/31/31 49/57/57 70/55/55
f 74/58/58 97/59/59 99/60/60
f 80/61/61 81/62/62 76/63/63
f 40/64/64 83/65/65 44/66/66
f 46/67/67 48/35/35 42/68/68
f 86/69/69 84/70/70 88/71/71
f 86/69/69 88/71/71 94/72/72
f 92/73/73 89/74/74 91/75/75
f 79/76/76 92/73/73 93/77/77
f 85/78/78 78/79/79 90/80/80
f 47/30/30 96/81/81 73/31/31
f 91/75/75 89/74/74 49/57/57
f 77/82/82 98/83/83 99/60/60
f 100/84/84 94/72/72 88/71/71
f 100/84/84 85/78/78 94/72/72
f 30/85/85 105/86/86 39/87/87
f 75/88/88 76/63/63 104/89/89
f 103/90/90 104/89/89 37/91/91
f 31/92/92 107/93/93 111/94/94
f 109/95/95 108/96/96 110/97/97
f 38/98/98 77/82/82 97/59/59
f 101/99/99 102/100/100 108/96/96
f 113/27/27 114/29/29 109/95/95
f 95/101/101 87/102/102 91/75/75
f 71/32/32 69/53/53 47/30/30
f 48/35/35 46/67/67 56/33/33
f 34/103/103 35/37/37 51/36/36
f 51/36/36 55/40/40 34/103/103
f 34/103/103 55/40/40 54/39/39
f 41/41/41 53/43/43 52/42/42
f 41/41/41 32/104/104 54/39/39
f 52/42/42 32/104/104 41/41/41
f 57/34/34 56/33/33 52/42/42
f 63/48/48 61/50/50 59/52/52
f 59/52/52 51/36/36 50/38/38
f 63/48/48 59/52/52 50/38/38
f 61/50/50 63/48/48 62/49/49
f 61/50/50 62/49/49 64/44/44
f 58/45/45 66/105/105 72/54/54
f 65/46/46 72/54/54 67/106/106
f 65/46/46 67/106/106 68/51/51
f 72/54/54 65/46/46 58/45/45
f 72/54/54 66/105/105 33/107/107
f 33/107/107 69/53/53 72/54/54
f 43/56/56 67/106/106 72/54/54
f 72/54/54 71/32/32 43/56/56
f 70/55/55 71/32/32 73/31/31
f 99/60/60 88/71/71 84/70/70
f 84/70/70 74/58/58 99/60/60
f 76/63/63 75/88/88 80/61/61
f 45/108/108 79/76/76 90/80/80
f 40/64/64 82/109/109 83/65/65
f 90/80/80 78/79/79 40/64/64
f 40/64/64 44/66/66 90/80/80
f 90/80/80 44/66/66 45/108/108
f 42/68/68 83/65/65 82/109/109
f 36/110/110 81/62/62 80/61/61
f 42/68/68 36/110/110 46/67/67
f 80/61/61 46/67/67 36/110/110
f 82/109/109 36/110/110 42/68/68
f 91/75/75 87/102/102 27/111/111
f 94/72/72 93/77/77 28/112/112
f 94/72/72 28/112/112 86/69/69
f 27/111/111 28/112/112 93/77/77
f 27/111/111 93/77/77 91/75/75
f 91/75/75 93/77/77 92/73/73
f 93/77/77 90/80/80 79/76/76
f 90/80/80 93/77/77 94/72/72
f 90/80/80 94/72/72 85/78/78
f 73/31/31 96/81/81 95/101/101
f 73/31/31 95/101/101 91/75/75
f 49/57/57 73/31/31 91/75/75
f 99/60/60 97/59/59 77/82/82
f 88/71/71 99/60/60 98/83/83
f 88/71/71 98/83/83 100/84/84
f 105/86/86 106/113/113 39/87/87
f 102/100/100 101/99/99 30/85/85
f 30/85/85 39/87/87 102/100/100
f 104/89/89 103/90/90 75/88/88
f 37/91/91 106/113/113 105/86/86
f 37/91/91 29/114/114 103/90/90
f 105/86/86 29/114/114 37/91/91
f 107/93/93 109/95/95 111/94/94
f 111/94/94 97/59/59 74/58/58
f 74/58/58 31/92/92 111/94/94
f 110/97/97 111/94/94 109/95/95
f 111/94/94 110/97/97 38/98/98
f 38/98/98 97/59/59 111/94/94
f 114/29/29 112/28/28 101/99/99
f 108/96/96 114/29/29 101/99/99
f 114/29/29 108/96/96 109/95/95
f 109/95/95 107/93/93 113/27/27
f 165/115/115 161/116/116 164/117/117
f 147/118/118 149/119/119 148/120/120
f 139/121/121 138/122/122 123/123/123
f 134/124/124 133/125/125 135/126/126
f 117/127/127 118/128/128 134/124/124
f 119/129/129 137/130/130 138/122/122
f 136/131/131 132/132/132 135/126/126
f 139/121/121 136/131/131 138/122/122
f 122/133/133 141/134/134 143/135/135
f 140/136/136 142/137/137 143/135/135
f 146/138/138 145/139/139 137/130/130
f 130/140/140 144/141/141 146/138/138
f 143/135/135 141/134/134 147/118/118
f 140/136/136 143/135/135 148/120/120
f 149/119/119 127/142/142 129/143/143
f 150/144/144 154/145/145 155/146/146
f 152/147/147 126/148/148 128/149/149
f 154/145/145 152/147/147 153/150/150
f 156/151/151 159/152/152 160/153/153
f 157/154/154 153/150/150 151/155/155
f 150/144/144 164/117/117 161/116/116
f 155/146/146 153/150/150 157/154/154
f 165/115/115 164/117/117 159/152/152
f 159/152/152 158/156/156 160/153/153
f 164/117/117 163/157/157 158/156/156
f 137/130/130 131/158/158 123/123/123
f 128/149/149 126/148/148 139/121/121
f 139/121/121 123/123/123 128/149/149
f 123/123/123 138/122/122 137/130/130
f 135/126/126 132/132/132 117/127/127
f 134/124/124 135/126/126 117/127/127
f 119/129/129 130/140/140 137/130/130
f 138/122/122 135/126/126 133/125/125
f 133/125/125 119/129/129 138/122/122
f 135/126/126 138/122/122 136/131/131
f 142/137/137 121/159/159 122/133/133
f 122/133/133 143/135/135 142/137/137
f 145/139/139 131/158/158 137/130/130
f 146/138/138 137/130/130 130/140/140
f 147/118/118 148/120/120 143/135/135
f 146/138/138 144/141/141 120/160/160
f 148/120/120 146/138/138 120/160/160
f 148/120/120 120/160/160 140/136/136
f 125/161/161 145/139/139 146/138/138
f 125/161/161 148/120/120 149/119/119
f 129/143/143 125/161/161 149/119/119
f 146/138/138 148/120/120 125/161/161
f 151/155/155 153/150/150 152/147/147
f 152/147/147 128/149/149 151/155/155
f 153/150/150 155/146/146 154/145/145
f 129/143/143 127/142/142 156/151/151
f 160/153/153 129/143/143 156/151/151
f 155/146/146 162/162/162 124/163/163
f 115/164/164 116/165/165 150/144/144
f 150/144/144 161/116/116 115/164/164
f 124/163/163 163/157/157 164/117/117
f 124/163/163 150/144/144 155/146/146
f 164/117/117 150/144/144 124/163/163
f 157/154/154 162/162/162 155/146/146
f 159/152/152 156/151/151 165/115/115
f 158/156/156 159/152/152 164/117/117
f 8/166/166 26/167/167 167/169/168
f 167/169/168 26/167/167 166/168/169
f 1/170/170 8/171/171 168/173/172
f 168/173/172 8/171/171 167/172/173
f 10/174/174 14/175/175 170/177/176
f 170/177/176 14/175/175 169/176/177
f 6/178/178 5/179/179 172/181/180
f 172/181/180 5/179/179 171/180/181
f 12/182/182 6/183/183 173/185/184
f 173/185/184 6/183/183 172/184/185
f 14/186/186 12/187/187 169/189/188
f 169/189/188 12/187/187 173/188/189
f 16/190/190 18/191/191 175/193/192
f 175/193/192 18/191/191 174/192/193
f 18/194/194 3/195/195 174/197/196
f 174/197/196 3/195/195 176/196/197
f 20/198/198 10/199/199 177/201/200
f 177/201/200 10/199/199 170/200/201
f 15/202/202 21/203/203 179/205/204
f 179/205/204 21/203/203 178/204/205
f 24/206/206 20/207/207 180/209/208
f 180/209/208 20/207/207 177/208/209
f 26/210/210 22/211/211 166/213/212
f 166/213/212 22/211/211 181/212/213
f 25/214/214 1/215/215 182/217/216
f 182/217/216 1/215/215 168/216/217
f 13/218/218 9/219/219 184/221/220
f 184/221/220 9/219/219 183/220/221
f 5/222/222 11/223/223 171/225/224
f 171/225/224 11/223/223 185/224/225
f 11/226/226 13/227/227 185/229/228
f 185/229/228 13/227/227 184/228/229
f 17/230/230 15/231/231 186/233/232
f 186/233/232 15/231/231 179/232/233
f 2/234/234 17/235/235 187/237/236
f 187/237/236 17/235/235 186/236/237
f 3/238/238 2/239/239 176/241/240
f 176/241/240 2/239/239 187/240/241
f 9/242/242 19/243/243 183/245/244
f 183/245/244 19/243/243 188/244/245
f 7/246/246 24/247/247 189/249/248
f 189/249/248 24/247/247 180/248/249
f 4/250/250 16/251/251 190/253/252
f 190/253/252 16/251/251 175/252/253
f 22/254/254 7/255/255 181/257/256
f 181/257/256 7/255/255 189/256/257
f 23/258/258 4/259/259 191/261/260
f 191/261/260 4/259/259 190/260/261
f 19/262/262 23/263/263 188/265/264
f 188/265/264 23/263/263 191/264/265
f 21/266/266 25/267/267 178/269/268
f 178/269/268 25/267/267 182/268/269
f 112/270/270 113/271/271 193/273/272
f 193/273/272 113/271/271 192/272/273
f 50/274/274 35/275/275 195/277/276
f 195/277/276 35/275/275 194/276/277
f 58/278/278 64/279/279 197/281/280
f 197/281/280 64/279/279 196/280/281
f 60/282/282 50/283/283 198/285/284
f 198/285/284 50/283/283 195/284/285
f 62/286/286 60/287/287 199/289/288
f 199/289/288 60/287/287 198/288/289
f 84/290/290 86/291/291 201/293/292
f 201/293/292 86/291/291 200/292/293
f 96/294/294 47/295/295 203/297/296
f 203/297/296 47/295/295 202/296/297
f 105/298/298 30/299/299 205/301/300
f 205/301/300 30/299/299 204/300/301
f 107/302/302 31/303/303 207/305/304
f 207/305/304 31/303/303 206/304/305
f 87/306/306 95/307/307 209/309/308
f 209/309/308 95/307/307 208/308/309
f 47/310/310 69/311/311 202/313/312
f 202/313/312 69/311/311 210/312/313
f 56/314/314 46/315/315 212/317/316
f 212/317/316 46/315/315 211/316/317
f 35/318/318 34/319/319 194/321/320
f 194/321/320 34/319/319 213/320/321
f 34/322/322 54/323/323 213/325/324
f 213/325/324 54/323/323 214/324/325
f 54/326/326 32/327/327 214/329/328
f 214/329/328 32/327/327 215/328/329
f 32/330/330 52/331/331 215/333/332
f 215/333/332 52/331/331 216/332/333
f 52/334/334 56/335/335 216/337/336
f 216/337/336 56/335/335 212/336/337
f 64/338/338 62/339/339 196/341/340
f 196/341/340 62/339/339 199/340/341
f 66/342/342 58/343/343 217/345/344
f 217/345/344 58/343/343 197/344/345
f 33/346/346 66/347/347 218/349/348
f 218/349/348 66/347/347 217/348/349
f 69/350/350 33/351/351 210/353/352
f 210/353/352 33/351/351 218/352/353
f 74/354/354 84/355/355 219/357/356
f 219/357/356 84/355/355 201/356/357
f 80/358/358 75/359/359 221/361/360
f 221/361/360 75/359/359 220/360/361
f 46/362/362 80/363/363 211/365/364
f 211/365/364 80/363/363 221/364/365
f 27/366/366 87/367/367 222/369/368
f 222/369/368 87/367/367 209/368/369
f 86/370/370 28/371/371 200/373/372
f 200/373/372 28/371/371 223/372/373
f 28/374/374 27/375/375 223/377/376
f 223/377/376 27/375/375 222/376/377
f 95/378/378 96/379/379 208/381/380
f 208/381/380 96/379/379 203/380/381
f 30/382/382 101/383/383 204/385/384
f 204/385/384 101/383/383 224/384/385
f 75/386/386 103/387/387 220/389/388
f 220/389/388 103/387/387 225/388/389
f 103/390/390 29/391/391 225/393/392
f 225/393/392 29/391/391 226/392/393
f 29/394/394 105/395/395 226/397/396
f 226/397/396 105/395/395 205/396/397
f 31/398/398 74/399/399 206/401/400
f 206/401/400 74/399/399 219/400/401
f 101/402/402 112/403/403 224/405/404
f 224/405/404 112/403/403 193/404/405
f 113/406/406 107/407/407 192/409/408
f 192/409/408 107/407/407 207/408/409
f 161/410/410 165/411/411 228/413/412
f 228/413/412 165/411/411 227/412/413
f 149/414/414 147/415/415 230/417/416
f 230/417/416 147/415/415 229/416/417
f 133/418/418 134/419/419 232/421/420
f 232/421/420 134/419/419 231/420/421
f 118/422/422 117/423/423 234/425/424
f 234/425/424 117/423/423 233/424/425
f 134/426/426 118/427/427 231/429/428
f 231/429/428 118/427/427 234/428/429
f 132/430/430 136/431/431 236/433/432
f 236/433/432 136/431/431 235/432/433
f 136/434/434 139/435/435 235/437/436
f 235/437/436 139/435/435 237/436/437
f 141/438/438 122/439/439 239/441/440
f 239/441/440 122/439/439 238/440/441
f 142/442/442 140/443/443 241/445/444
f 241/445/444 140/443/443 240/444/445
f 144/446/446 130/447/447 243/449/448
f 243/449/448 130/447/447 242/448/449
f 147/450/450 141/451/451 229/453/452
f 229/453/452 141/451/451 239/452/453
f 127/454/454 149/455/455 244/457/456
f 244/457/456 149/455/455 230/456/457
f 154/458/458 150/459/459 246/461/460
f 246/461/460 150/459/459 245/460/461
f 126/462/462 152/463/463 248/465/464
f 248/465/464 152/463/463 247/464/465
f 152/466/466 154/467/467 247/469/468
f 247/469/468 154/467/467 246/468/469
f 139/470/470 126/471/471 237/473/472
f 237/473/472 126/471/471 248/472/473
f 117/474/474 132/475/475 233/477/476
f 233/477/476 132/475/475 236/476/477
f 130/478/478 119/479/479 242/481/480
f 242/481/480 119/479/479 249/480/481
f 119/482/482 133/483/483 249/485/484
f 249/485/484 133/483/483 232/484/485
f 121/486/486 142/487/487 250/489/488
f 250/489/488 142/487/487 241/488/489
f 122/490/490 121/491/491 238/493/492
f 238/493/492 121/491/491 250/492/493
f 120/494/494 144/495/495 251/497/496
f 251/497/496 144/495/495 243/496/497
f 140/498/498 120/499/499 240/501/500
f 240/501/500 120/499/499 251/500/501
f 156/502/502 127/503/503 252/505/504
f 252/505/504 127/503/503 244/504/505
f 116/506/506 115/507/507 254/509/508
f 254/509/508 115/507/507 253/508/509
f 150/510/510 116/511/511 245/513/512
f 245/513/512 116/511/511 254/512/513
f 115/514/514 161/515/515 253/517/516
f 253/517/516 161/515/515 228/516/517
f 165/518/518 156/519/519 227/521/520
f 227/521/520 156/519/519 252/520/521
