# This file uses centimeters as units for non-parametric coordinates.

v 1.334085 -0.142301 -1.098446
v 1.249262 -0.115416 -1.135304
v 1.164437 -0.088531 -1.098446
v 1.129302 -0.077395 -1.009463
v 1.164437 -0.088531 -0.920481
v 1.249262 -0.115416 -0.883623
v 1.334085 -0.142301 -0.920481
v 1.369221 -0.153437 -1.009463
v 0.954423 -1.658107 -1.194509
v 0.987152 -1.635203 -1.218788
v 0.787609 -1.571958 -1.305493
v 0.778025 -1.602197 -1.271158
v 1.439219 -0.208901 -1.218788
v 1.425659 -0.171326 -1.194509
v 1.239677 -0.145656 -1.305493
v 1.249262 -0.115416 -1.271158
v 0.588067 -1.508713 -1.218788
v 0.601627 -1.546288 -1.194509
v 1.040135 -0.082410 -1.218788
v 1.072864 -0.059507 -1.194509
v 0.505414 -1.482515 -1.009463
v 0.528560 -1.523129 -1.009463
v 0.957482 -0.056214 -1.009463
v 0.999797 -0.036348 -1.009463
v 0.588067 -1.508713 -0.800138
v 0.601627 -1.546288 -0.824417
v 1.040135 -0.082410 -0.800138
v 1.072864 -0.059507 -0.824417
v 0.787609 -1.571958 -0.713433
v 0.778025 -1.602197 -0.747769
v 1.239677 -0.145656 -0.713433
v 1.249262 -0.115416 -0.747769
v 0.987152 -1.635203 -0.800138
v 0.954423 -1.658107 -0.824417
v 1.439219 -0.208901 -0.800138
v 1.425659 -0.171326 -0.824417
v 1.069804 -1.661400 -1.009463
v 1.027489 -1.681265 -1.009463
v 1.521872 -0.235098 -1.009463
v 1.498726 -0.194484 -1.009463
v 1.356941 -0.070192 -1.098446
v 1.351590 -0.055364 -1.088866
v 1.275899 -0.031374 -1.121755
v 1.272117 -0.043307 -1.135304
v 1.187293 -0.016421 -1.098446
v 1.200208 -0.007383 -1.088866
v 1.152157 -0.005286 -1.009463
v 1.168855 0.002554 -1.009463
v 1.187293 -0.016421 -0.920481
v 1.200208 -0.007383 -0.930062
v 1.272117 -0.043307 -0.883623
v 1.275899 -0.031374 -0.897173
v 1.356941 -0.070192 -0.920481
v 1.351590 -0.055364 -0.930062
v 1.382943 -0.065302 -1.009463
v 1.392076 -0.081328 -1.009463
vt 0.071402 0.910761
vt 0.031521 0.896619
vt 0.119974 0.910761
vt 0.097148 0.896622
vt 0.556116 0.896620
vt 0.552312 0.910761
vt 0.490516 0.896619
vt 0.494321 0.910761
vt 0.494497 0.910761
vt 0.424967 0.896619
vt 0.409763 0.910761
vt 0.031521 0.229585
vt 0.035302 0.215452
vt 0.096738 0.229735
vt 0.092947 0.215587
vt 0.552312 0.215443
vt 0.556116 0.229585
vt 0.494321 0.215443
vt 0.490516 0.229585
vt 0.486715 0.215443
vt 0.428769 0.215443
vt 0.424967 0.229585
vt 0.359454 0.896620
vt 0.359454 0.910761
vt 0.421168 0.215443
vt 0.363254 0.215443
vt 0.359454 0.229585
vt 0.293941 0.896620
vt 0.297084 0.910761
vt 0.355655 0.215443
vt 0.297740 0.215443
vt 0.293941 0.229585
vt 0.228394 0.896620
vt 0.235989 0.910761
vt 0.290139 0.215443
vt 0.232195 0.215443
vt 0.228394 0.229585
vt 0.162775 0.896619
vt 0.177996 0.910761
vt 0.224541 0.215440
vt 0.158088 0.206291
vt 0.161974 0.229535
vt 0.100437 0.206478
vt 0.059466 0.166003
vt 0.059222 0.108462
vt 0.095460 0.150916
vt 0.095342 0.123246
vt 0.099738 0.067603
vt 0.114826 0.103597
vt 0.157279 0.067360
vt 0.142495 0.103482
vt 0.198138 0.107876
vt 0.162144 0.122963
vt 0.198380 0.165418
vt 0.162259 0.150635
vt 0.142778 0.170282
vt 0.115106 0.170399
vt 0.810634 0.421638
vt 0.826090 0.424133
vt 0.811511 0.473081
vt 0.826866 0.470063
vt 0.825994 0.418602
vt 0.825172 0.372861
vt 0.809713 0.370379
vt 0.832439 0.777427
vt 0.817079 0.780464
vt 0.831617 0.731684
vt 0.816158 0.729201
vt 0.831518 0.726165
vt 0.830696 0.680424
vt 0.815238 0.677941
vt 0.830597 0.674905
vt 0.829776 0.629164
vt 0.814317 0.626681
vt 0.829677 0.623645
vt 0.828855 0.577904
vt 0.813396 0.575421
vt 0.828756 0.572376
vt 0.827934 0.526487
vt 0.812475 0.524019
vt 0.834404 0.520847
vt 0.833524 0.475518
vt 0.717515 0.423311
vt 0.716595 0.372051
vt 0.723960 0.782136
vt 0.723040 0.730874
vt 0.722119 0.679614
vt 0.721198 0.628354
vt 0.720278 0.577094
vt 0.719357 0.525834
vt 0.718436 0.474571
vt 0.909913 0.442158
vt 0.942478 0.473435
vt 0.864769 0.443069
vt 0.943389 0.518579
vt 0.912112 0.551144
vt 0.866968 0.552056
vn -0.211178 -0.972635 -0.096880
vn 0.668412 -0.230294 -0.707241
vn -0.205918 -0.978567 -0.002268
vn 0.947806 -0.318848 -0.000344
vn -0.005639 -0.016653 -0.999845
vn -0.298328 -0.922854 -0.243602
vn -0.679498 0.196927 -0.706755
vn -0.388617 -0.917071 -0.089208
vn 0.679498 -0.196927 -0.706755
vn 0.485207 0.852170 -0.195910
vn 0.958428 -0.285334 0.000344
vn 0.560013 0.828459 0.006466
vn 0.295898 0.912170 -0.283533
vn 0.005639 0.016653 -0.999845
vn 0.102984 0.973318 -0.205055
vn -0.668412 0.230295 -0.707241
vn -0.958428 0.285335 0.000344
vn -0.525253 -0.850928 0.005556
vn 0.019453 0.999790 -0.006466
vn -0.947806 0.318848 -0.000344
vn -0.679034 0.196780 0.707242
vn -0.387646 -0.916703 0.096882
vn 0.094264 0.976082 0.195905
vn -0.668876 0.230442 0.706754
vn -0.004984 -0.016861 0.999845
vn -0.298481 -0.949229 0.099368
vn 0.283570 0.916078 0.283530
vn 0.004983 0.016861 0.999845
vn 0.668876 -0.230441 0.706754
vn -0.238361 -0.969152 0.062671
vn 0.476487 0.854934 0.205058
vn 0.679035 -0.196780 0.707241
vn 0.302141 0.953263 -0.000002
vn 0.302137 0.953264 0.000000
vn 0.302137 0.953264 0.000000
vn 0.302139 0.953264 0.000001
vn 0.302136 0.953265 -0.000000
vn 0.302139 0.953264 0.000000
vn 0.302140 0.953264 0.000003
vn 0.302139 0.953264 -0.000001
vn 0.707619 -0.095306 -0.700137
vn 0.382444 0.920250 -0.082925
vn 0.983177 -0.182644 0.002255
vn 0.512570 0.858632 0.004871
vn 0.298738 0.926405 -0.229195
vn 0.039301 0.116525 -0.992410
vn 0.217731 0.971867 -0.089822
vn -0.630270 0.328748 -0.703338
vn 0.213226 0.977001 -0.001954
vn -0.908881 0.417050 -0.002259
vn 0.243373 0.968196 0.058013
vn -0.633309 0.329718 0.700146
vn 0.298999 0.949816 0.091925
vn 0.034998 0.117897 0.992409
vn 0.381852 0.919848 0.089827
vn 0.704569 -0.094333 0.703338
vn 0.674060 -0.213650 -0.707105
vn -0.000001 -0.000001 -1.000000
vn -0.674061 0.213649 -0.707104
vn -0.953264 0.302139 -0.000004
vn -0.674055 0.213646 0.707111
vn -0.000001 0.000001 1.000000
vn 0.674054 -0.213650 0.707110
vn 0.953263 -0.302141 -0.000003
f 9/1/1 10/2/2 38/3/3
f 38/3/3 10/2/2 37/4/4
f 10/5/2 9/6/1 11/7/5
f 11/7/5 9/6/1 12/8/6
f 11/7/5 12/9/6 17/10/7
f 17/10/7 12/9/6 18/11/8
f 13/12/9 14/13/10 39/14/11
f 39/14/11 14/13/10 40/15/12
f 14/16/10 13/17/9 16/18/13
f 16/18/13 13/17/9 15/19/14
f 16/20/13 15/19/14 20/21/15
f 20/21/15 15/19/14 19/22/16
f 17/10/7 18/11/8 21/23/17
f 21/23/17 18/11/8 22/24/18
f 20/25/15 19/22/16 24/26/19
f 24/26/19 19/22/16 23/27/20
f 21/23/17 22/24/18 25/28/21
f 25/28/21 22/24/18 26/29/22
f 24/30/19 23/27/20 28/31/23
f 28/31/23 23/27/20 27/32/24
f 25/28/21 26/29/22 29/33/25
f 29/33/25 26/29/22 30/34/26
f 28/35/23 27/32/24 32/36/27
f 32/36/27 27/32/24 31/37/28
f 29/33/25 30/34/26 33/38/29
f 33/38/29 30/34/26 34/39/30
f 32/40/27 31/37/28 36/41/31
f 36/41/31 31/37/28 35/42/32
f 33/38/29 34/39/30 37/4/4
f 37/4/4 34/39/30 38/3/3
f 36/41/31 35/42/32 40/43/12
f 40/43/12 35/42/32 39/14/11
f 10/5/2 11/7/5 13/17/9
f 13/17/9 11/7/5 15/19/14
f 11/7/5 17/10/7 15/19/14
f 15/19/14 17/10/7 19/22/16
f 17/10/7 21/23/17 19/22/16
f 19/22/16 21/23/17 23/27/20
f 21/23/17 25/28/21 23/27/20
f 23/27/20 25/28/21 27/32/24
f 25/28/21 29/33/25 27/32/24
f 27/32/24 29/33/25 31/37/28
f 29/33/25 33/38/29 31/37/28
f 31/37/28 33/38/29 35/42/32
f 33/38/29 37/4/4 35/42/32
f 35/42/32 37/4/4 39/14/11
f 37/4/4 10/2/2 39/14/11
f 39/14/11 10/2/2 13/12/9
f 14/44/10 16/45/13 1/46/33
f 1/46/33 16/45/13 2/47/34
f 16/45/13 20/48/15 2/47/34
f 2/47/34 20/48/15 3/49/35
f 20/48/15 24/50/19 3/49/35
f 3/49/35 24/50/19 4/51/36
f 24/50/19 28/52/23 4/51/36
f 4/51/36 28/52/23 5/53/37
f 28/52/23 32/54/27 5/53/37
f 5/53/37 32/54/27 6/55/38
f 32/54/27 36/41/31 6/55/38
f 6/55/38 36/41/31 7/56/39
f 36/41/31 40/43/12 7/56/39
f 7/56/39 40/43/12 8/57/40
f 40/43/12 14/44/10 8/57/40
f 8/57/40 14/44/10 1/46/33
f 12/9/6 9/1/1 18/11/8
f 9/1/1 38/3/3 18/11/8
f 38/3/3 34/39/30 18/11/8
f 34/39/30 30/34/26 18/11/8
f 30/34/26 26/29/22 18/11/8
f 26/29/22 22/24/18 18/11/8
f 41/58/41 42/59/42 56/60/43
f 56/60/43 42/59/42 55/61/44
f 42/62/42 41/58/41 43/63/45
f 43/63/45 41/58/41 44/64/46
f 43/65/45 44/66/46 46/67/47
f 46/67/47 44/66/46 45/68/48
f 46/69/47 45/68/48 48/70/49
f 48/70/49 45/68/48 47/71/50
f 48/72/49 47/71/50 50/73/51
f 50/73/51 47/71/50 49/74/52
f 50/75/51 49/74/52 52/76/53
f 52/76/53 49/74/52 51/77/54
f 52/78/53 51/77/54 54/79/55
f 54/79/55 51/77/54 53/80/56
f 54/81/55 53/80/56 55/82/44
f 55/82/44 53/80/56 56/60/43
f 1/83/57 2/84/58 41/58/41
f 41/58/41 2/84/58 44/64/46
f 2/85/58 3/86/59 44/66/46
f 44/66/46 3/86/59 45/68/48
f 3/86/59 4/87/60 45/68/48
f 45/68/48 4/87/60 47/71/50
f 4/87/60 5/88/61 47/71/50
f 47/71/50 5/88/61 49/74/52
f 5/88/61 6/89/62 49/74/52
f 49/74/52 6/89/62 51/77/54
f 6/89/62 7/90/63 51/77/54
f 51/77/54 7/90/63 53/80/56
f 7/90/63 8/91/64 53/80/56
f 53/80/56 8/91/64 56/60/43
f 8/91/64 1/83/57 56/60/43
f 56/60/43 1/83/57 41/58/41
f 43/92/45 46/93/47 42/94/42
f 46/93/47 48/95/49 42/94/42
f 48/95/49 50/96/51 42/94/42
f 50/96/51 52/97/53 42/94/42
f 52/97/53 54/81/55 42/94/42
f 54/81/55 55/82/44 42/94/42
